0.9400000000000001
0.24
0.89
0.81
0.09
0.65
0.22
0.66
0.71
1.05
0.1
0.46
0.03
0.5700000000000001
0.64
0.0
0.35000000000000003
0.49
0.24
0.34
0.92
0.39
1.08
0.14
0.56
1.04
0.51
0.38
1.12
1.11
1.25
0.98
0.27
0.91
0.3
0.4
0.08
1.07
0.6900000000000001
0.72
0.34
0.85
0.81
0.65
1.19
0.88
0.62
0.09
1.05
0.31
0.18
0.44
0.03
0.27
1.09
1.27
0.48
0.42
1.1500000000000001
0.72
0.81
0.6900000000000001
0.45
0.29
0.18
1.0
1.1400000000000001
0.93
0.87
1.1
0.06
0.34
0.22
1.27
0.18
0.77
0.9500000000000001
0.06
0.68
1.1500000000000001
0.3
1.1400000000000001
0.6
1.12
0.75
0.7000000000000001
0.21
0.27
0.36
0.16
1.02
0.6900000000000001
0.38
1.25
0.84
0.62
0.24
0.99
0.13
0.4
1.26
0.54
0.27
0.45
0.8200000000000001
0.9
0.67
0.31
0.28
0.34
0.31
1.1400000000000001
0.85
0.91
0.35000000000000003
0.38
0.74
0.07
0.6
0.96
1.1
0.26
1.2
0.8200000000000001
0.81
0.96
0.72
0.84
1.09
0.31
1.11
0.91
0.34
0.5700000000000001
0.79
0.51
0.68
0.01
1.1
1.0
0.81
0.5700000000000001
1.1400000000000001
0.34
0.6900000000000001
0.89
0.28
0.48
1.05
0.38
0.36
1.1300000000000001
0.99
0.92
0.76
0.21
1.2
0.5700000000000001
0.17
0.74
0.93
0.97
0.49
0.85
1.12
1.22
0.77
0.6900000000000001
0.98
0.54
0.09
0.36
0.17
0.16
0.37
1.26
0.8
1.03
0.17
0.07
0.91
1.24
1.12
0.86
0.11
0.72
0.2
0.07
0.63
0.55
1.22
1.01
0.47000000000000003
0.84
0.23
0.08
0.73
0.8200000000000001
0.93
0.35000000000000003
1.1400000000000001
1.04
1.07
0.77
0.5700000000000001
1.03
0.67
0.14
1.1500000000000001
0.9
1.11
0.08
0.07
0.33
0.92
0.92
1.24
0.76
0.48
1.06
1.25
0.9500000000000001
0.86
0.08
0.28
0.24
0.98
0.87
1.19
0.5
0.02
0.01
0.03
0.77
0.99
1.1500000000000001
0.92
0.9500000000000001
0.01
0.36
0.8200000000000001
1.26
1.25
0.23
0.06
0.53
0.12
1.26
0.96
0.33
0.13
1.03
1.03
1.25
1.1
0.8
0.05
1.23
1.04
0.18
0.46
1.08
0.7000000000000001
0.9400000000000001
1.21
0.92
0.41000000000000003
0.5
0.65
1.2
1.25
1.04
0.23
0.27
0.5700000000000001
0.79
0.81
1.17
0.17
0.09
0.59
0.02
0.31
0.67
0.13
1.09
0.21
1.01
0.12
0.49
0.71
1.03
1.2
1.27
0.38
0.03
0.7000000000000001
0.66
0.6
0.92
0.38
0.37
1.12
0.46
0.66
0.99
0.78
0.47000000000000003
0.9400000000000001
1.1400000000000001
0.49
0.44
0.75
0.8300000000000001
1.17
1.23
0.76
0.38
1.12
0.92
0.03
0.78
1.21
0.49
0.97
0.34
1.08
0.41000000000000003
0.96
0.43
0.9
0.26
0.5700000000000001
0.84
0.28
0.34
1.1500000000000001
1.21
1.1400000000000001
1.1300000000000001
0.4
1.26
0.35000000000000003
0.4
0.42
0.68
0.84
0.9500000000000001
0.43
0.6
0.6
1.23
0.64
0.33
0.9400000000000001
0.41000000000000003
0.38
0.92
0.9400000000000001
0.31
0.5700000000000001
1.24
0.51
0.09
1.03
0.39
0.55
0.48
0.07
0.84
0.21
0.5700000000000001
0.55
0.08
0.65
0.54
0.88
1.1
0.63
1.0
0.26
0.18
0.99
1.02
0.25
1.03
0.99
0.8200000000000001
0.11
1.11
0.03
0.8300000000000001
0.65
0.07
1.06
0.76
0.66
0.09
0.35000000000000003
0.74
0.5
0.84
0.06
0.9400000000000001
0.91
0.97
0.12
0.41000000000000003
0.09
1.05
1.23
1.02
0.08
0.11
0.5700000000000001
0.12
0.72
1.02
1.2
0.75
0.19
0.39
0.89
0.9500000000000001
0.56
0.78
0.6900000000000001
0.04
0.08
0.37
0.86
1.06
0.97
0.71
0.28
0.91
0.81
0.64
0.62
0.5700000000000001
0.08
0.24
0.34
0.51
0.05
1.02
1.1300000000000001
1.27
0.7000000000000001
0.34
0.09
0.47000000000000003
0.22
0.53
0.43
0.71
0.65
0.0
0.74
1.24
0.12
1.27
0.4
0.85
1.0
1.23
0.43
0.5700000000000001
0.76
0.25
0.35000000000000003
0.34
1.1300000000000001
0.02
0.9
1.26
1.04
0.99
0.62
0.85
1.24
0.65
0.01
0.65
0.86
1.11
0.85
0.1
0.93
0.56
0.54
0.9
0.48
0.64
0.73
1.12
0.07
0.31
0.67
0.08
0.79
0.37
0.45
0.25
0.03
0.1
1.27
0.56
0.64
1.06
0.74
1.01
0.11
0.0
0.03
0.5700000000000001
0.98
0.5
1.2
0.67
0.6
0.64
1.03
0.54
1.07
0.01
0.96
0.56
0.5700000000000001
0.08
0.02
1.2
0.62
0.68
0.38
0.24
0.17
0.11
0.72
0.9
0.8
0.0
0.39
0.47000000000000003
1.2
0.26
0.77
0.49
0.74
0.41000000000000003
1.1400000000000001
0.16
0.22
0.35000000000000003
0.64
1.1400000000000001
0.55
0.3
0.09
1.26
0.07
0.71
0.98
1.06
0.02
0.6900000000000001
0.84
0.36
0.52
0.16
0.34
1.0
0.44
0.35000000000000003
1.1500000000000001
0.54
0.89
0.5700000000000001
0.96
0.8200000000000001
0.59
0.1
0.16
0.18
0.77
0.0
0.79
0.92
0.45
1.22
0.74
1.26
0.25
0.87
0.38
1.22
0.71
0.22
1.2
1.27
0.77
0.85
1.1500000000000001
0.42
0.92
0.0
1.19
0.35000000000000003
0.5
0.8300000000000001
0.35000000000000003
0.86
0.9
0.59
0.46
0.27
0.49
0.79
1.22
0.12
1.02
0.56
0.3
1.17
0.34
1.1500000000000001
1.04
0.74
0.15
0.91
0.63
1.11
0.81
0.73
0.88
0.9400000000000001
0.64
0.2
0.35000000000000003
1.23
0.6
0.89
0.74
1.22
0.96
0.77
0.97
0.38
0.81
0.19
0.76
0.33
1.12
0.05
0.28
0.5700000000000001
0.8
0.55
0.5
0.8200000000000001
0.98
0.72
1.1500000000000001
0.14
0.09
0.41000000000000003
0.23
1.01
0.88
0.87
0.43
0.64
1.06
1.12
0.63
0.27
0.6
0.8
0.38
0.9500000000000001
1.26
0.9400000000000001
0.75
0.04
0.9400000000000001
0.37
0.87
0.59
1.1400000000000001
0.87
0.42
0.07
0.28
0.79
0.08
0.85
0.87
0.14
0.68
0.55
0.63
0.17
1.27
0.8
1.26
1.06
1.26
0.9500000000000001
0.28
0.24
0.96
1.23
0.12
0.27
1.02
1.06
0.54
0.16
0.67
0.87
0.0
0.56
1.19
0.9500000000000001
0.43
0.55
0.22
0.8200000000000001
1.18
1.0
0.9500000000000001
1.1500000000000001
0.26
0.23
0.64
0.89
0.41000000000000003
0.92
0.46
0.63
1.09
1.1300000000000001
0.6900000000000001
0.9500000000000001
0.49
0.9500000000000001
0.89
0.6900000000000001
0.66
0.6
0.44
1.1500000000000001
0.34
0.07
0.27
0.92
1.26
0.8
0.92
0.17
0.27
0.39
1.1
0.86
0.63
0.44
0.8
0.44
0.63
0.23
0.2
0.44
1.11
0.72
1.19
0.36
0.3
0.01
0.33
0.21
0.17
0.48
1.21
0.49
0.87
0.72
0.46
0.8300000000000001
1.08
0.26
0.8300000000000001
0.52
0.48
1.04
0.85
0.12
0.37
0.68
0.12
1.16
0.14
1.1
1.11
0.43
1.11
0.98
0.66
0.89
1.2
0.19
0.89
0.79
0.61
0.85
0.52
0.6
0.35000000000000003
1.03
0.91
0.9400000000000001
0.24
0.22
0.68
0.25
0.28
0.16
0.31
0.64
0.21
1.03
0.48
1.05
0.39
0.76
1.21
0.72
0.64
1.1400000000000001
0.5700000000000001
0.43
0.28
0.66
0.81
0.78
0.6900000000000001
0.35000000000000003
0.96
0.17
0.74
0.07
0.17
0.31
0.88
0.32
0.61
0.85
1.03
0.25
0.05
0.8
0.59
0.87
0.27
0.02
0.38
1.27
0.39
1.19
1.26
0.62
0.97
0.68
0.5700000000000001
0.91
0.05
0.56
0.54
0.34
0.96
1.23
0.71
1.19
0.6
0.49
0.23
0.2
0.08
1.1500000000000001
0.86
0.33
0.97
1.1
0.28
0.64
0.18
0.85
0.79
0.5
0.67
0.53
0.36
0.07
0.75
1.12
0.04
0.28
1.0
0.64
0.93
0.05
0.11
1.02
0.5
0.6900000000000001
0.86
1.21
0.72
0.9
0.31
0.44
0.47000000000000003
0.97
0.91
0.75
0.78
0.02
0.25
0.6
0.15
0.9400000000000001
0.49
0.97
0.8200000000000001
0.6900000000000001
0.41000000000000003
0.91
1.02
0.68
0.56
0.87
0.26
0.1
0.62
1.07
0.45
1.1500000000000001
0.1
0.2
0.04
0.5700000000000001
0.19
1.19
1.21
0.4
0.44
1.26
1.02
0.68
1.25
0.56
0.02
1.1
0.99
0.0
0.8300000000000001
1.1500000000000001
0.61
1.02
0.89
1.1500000000000001
0.04
0.49
0.31
1.27
0.38
0.47000000000000003
0.08
1.23
0.78
1.22
0.32
0.4
0.36
0.21
0.54
0.04
1.17
1.1500000000000001
0.8300000000000001
0.9400000000000001
1.2
0.52
0.38
1.11
0.41000000000000003
1.12
0.2
0.74
0.44
0.43
1.12
0.44
1.09
0.24
0.93
0.9400000000000001
1.06
0.7000000000000001
0.99
0.19
1.1500000000000001
0.9400000000000001
0.27
0.92
0.67
0.3
0.68
0.84
1.25
0.97
1.2
0.33
0.14
1.26
0.84
0.93
1.1400000000000001
0.27
1.22
0.27
0.18
0.1
0.0
0.14
1.02
0.66
0.85
0.6900000000000001
1.18
1.03
0.44
0.84
0.44
0.28
1.26
1.03
0.84
0.36
1.2
0.78
0.61
0.25
1.06
0.04
0.04
0.85
0.91
0.52
0.47000000000000003
0.87
0.66
0.75
1.17
1.23
0.46
1.05
0.38
0.87
0.61
0.8200000000000001
0.35000000000000003
0.37
0.96
0.74
0.27
0.22
0.99
0.85
0.17
0.84
1.23
0.41000000000000003
1.04
1.04
0.28
0.21
1.03
1.1400000000000001
0.79
0.05
0.08
1.24
0.41000000000000003
1.0
1.2
0.99
0.78
0.67
0.18
0.99
1.11
0.74
0.84
0.9500000000000001
1.11
0.43
0.31
1.24
0.53
1.18
0.63
0.56
0.76
0.41000000000000003
1.23
0.87
0.02
0.77
1.02
0.56
0.98
0.71
0.53
1.23
0.01
0.8200000000000001
1.08
0.5
0.59
0.21
1.23
0.64
0.9500000000000001
0.5700000000000001
0.37
1.1
0.74
1.12
0.93
0.55
0.11
0.21
0.5700000000000001
0.25
0.74
1.02
0.88
0.16
0.36
1.23
0.42
1.01
0.49
0.86
1.05
0.56
0.86
1.11
0.21
0.11
0.81
0.16
0.72
0.21
0.43
1.26
0.05
1.27
0.64
0.46
0.22
0.7000000000000001
0.09
0.44
1.07
0.44
0.1
1.1
0.8300000000000001
0.99
0.8300000000000001
0.42
0.63
0.86
0.87
0.44
1.1500000000000001
0.8
0.88
0.08
0.2
0.2
0.51
0.64
0.2
0.28
0.62
0.51
0.84
0.17
1.18
1.06
0.45
0.68
0.27
0.07
0.15
0.64
0.43
0.35000000000000003
0.44
0.97
1.19
0.36
0.98
0.0
1.12
0.31
1.03
0.93
0.62
0.8300000000000001
0.5
0.81
0.36
0.44
0.04
1.19
0.35000000000000003
0.1
0.11
0.71
0.39
0.9500000000000001
0.79
0.6
0.02
0.19
0.55
1.01
1.11
0.15
0.21
0.17
0.17
0.55
0.81
1.11
0.81
0.37
0.86
0.99
0.65
0.0
0.74
1.18
1.1
1.16
0.96
0.79
0.8
0.12
0.9400000000000001
0.48
0.12
0.28
0.52
0.12
1.1400000000000001
0.89
0.06
0.7000000000000001
1.1500000000000001
0.97
0.17
1.26
1.05
0.27
0.91
0.05
1.05
0.8
1.17
1.11
0.52
0.25
0.5
1.1400000000000001
0.06
0.86
1.24
0.89
1.03
0.38
1.24
0.38
0.37
0.67
0.3
0.53
0.04
0.5
1.0
0.74
0.41000000000000003
0.9
0.61
1.01
0.54
0.09
0.04
0.63
0.16
0.35000000000000003
0.9400000000000001
0.71
0.25
1.04
0.9
1.04
0.46
0.81
1.07
1.21
1.1400000000000001
0.47000000000000003
1.07
1.18
1.01
0.66
0.13
0.5
1.03
0.91
0.18
0.5700000000000001
0.86
0.0
0.96
0.15
0.65
0.8300000000000001
0.98
0.96
0.63
0.24
0.93
1.1
0.01
0.8
0.96
0.12
0.33
0.05
0.21
0.81
0.72
0.1
0.79
0.91
0.5
0.09
0.5
0.81
0.39
0.02
0.99
0.53
0.37
0.05
0.53
0.19
1.19
0.71
1.25
0.99
0.05
0.74
1.18
0.23
0.43
0.56
0.18
0.19
0.63
0.73
0.49
0.68
1.05
0.54
1.24
0.4
0.49
0.67
0.6
0.02
0.13
0.72
1.2
0.87
0.7000000000000001
0.17
0.6900000000000001
1.01
1.12
0.19
0.72
0.12
0.72
1.07
0.19
0.79
0.77
0.62
0.0
0.62
1.11
1.22
0.78
0.45
0.75
0.34
0.8300000000000001
0.37
1.1
0.28
0.63
0.5
0.76
0.55
0.34
1.1500000000000001
0.91
0.67
0.1
1.03
0.27
0.73
0.91
1.16
0.18
1.05
1.08
1.17
0.72
0.15
0.27
0.55
0.63
0.8300000000000001
0.86
0.55
0.99
0.38
0.64
0.45
0.12
0.55
1.03
0.08
0.68
0.87
1.1
1.1400000000000001
1.04
0.92
1.2
0.84
0.93
0.06
1.07
0.99
0.32
0.89
1.24
1.1
0.27
0.76
0.8
0.53
0.4
0.24
0.88
1.1
0.9500000000000001
0.47000000000000003
1.1300000000000001
0.05
0.32
0.5700000000000001
1.25
1.1300000000000001
0.46
0.41000000000000003
0.03
0.49
0.76
0.78
0.05
0.5700000000000001
0.02
1.23
0.23
0.13
1.26
0.93
0.33
0.46
0.55
0.5700000000000001
0.6
0.23
0.87
0.18
0.09
0.52
1.09
0.07
0.96
1.18
1.23
0.59
0.9
1.04
0.7000000000000001
0.6900000000000001
1.1300000000000001
0.8300000000000001
0.32
0.52
0.08
0.16
0.67
0.13
0.3
0.28
0.48
1.17
0.32
0.28
0.07
0.92
0.08
1.1
1.19
0.39
1.19
0.81
0.93
0.28
0.9500000000000001
1.17
0.89
0.48
0.85
0.9
0.79
0.51
0.77
0.09
0.0
0.03
0.25
0.34
1.07
0.23
1.0
0.46
1.24
0.8300000000000001
0.5700000000000001
0.22
1.07
0.13
1.26
0.34
0.28
0.13
0.03
1.07
1.04
0.93
0.6900000000000001
0.3
1.01
0.24
1.0
1.02
0.9
1.09
0.77
1.06
0.63
1.27
1.27
0.25
0.51
0.45
0.47000000000000003
0.04
0.39
0.74
0.54
0.5700000000000001
0.31
0.23
0.39
0.61
0.55
0.73
0.21
0.6
0.01
0.96
1.05
0.66
0.97
0.51
0.36
0.46
0.23
0.89
0.41000000000000003
0.5700000000000001
0.8
0.5700000000000001
0.62
0.55
0.0
1.24
1.09
1.24
0.77
0.02
0.91
0.46
0.6
0.26
0.25
0.45
0.76
1.05
0.63
0.99
0.39
0.46
0.25
0.02
1.07
0.59
0.1
0.21
0.89
0.58
0.63
0.39
1.1
0.65
0.22
0.15
0.45
0.53
0.91
0.49
1.1500000000000001
0.24
0.78
0.55
0.76
0.44
0.97
0.76
0.56
0.67
0.5700000000000001
0.41000000000000003
1.19
0.47000000000000003
0.4
0.08
0.45
1.1400000000000001
0.8
0.65
0.93
0.12
0.38
0.35000000000000003
0.78
0.91
1.21
0.29
1.09
0.59
1.1500000000000001
0.19
1.08
0.97
0.97
1.01
0.92
1.08
0.07
0.72
0.32
0.56
0.96
0.7000000000000001
1.21
1.1300000000000001
0.0
0.5700000000000001
0.1
0.66
0.28
0.67
1.03
0.36
0.43
1.09
0.9400000000000001
0.03
0.5700000000000001
0.12
1.18
0.71
0.65
0.8
0.06
1.24
0.44
0.63
1.2
0.56
0.35000000000000003
1.27
0.36
0.48
0.8
0.96
0.16
0.02
0.25
0.99
1.1300000000000001
0.85
0.27
0.51
1.27
0.37
0.11
1.06
0.76
1.07
0.77
0.33
0.43
0.27
0.65
0.19
0.66
0.7000000000000001
0.48
1.1300000000000001
0.16
0.92
0.84
0.71
0.22
0.53
0.49
0.71
0.96
0.81
0.9400000000000001
0.21
1.19
0.6900000000000001
1.19
1.09
0.79
0.05
0.14
0.41000000000000003
0.0
0.02
0.7000000000000001
1.01
0.66
0.53
0.7000000000000001
0.66
0.42
0.14
0.66
0.78
0.43
0.67
0.86
0.84
0.75
0.07
0.27
1.21
0.84
0.89
0.91
0.97
0.81
0.1
0.88
0.98
0.28
0.6900000000000001
1.21
1.27
1.1300000000000001
1.26
1.11
0.85
0.6900000000000001
0.33
1.24
0.9400000000000001
0.25
0.44
0.75
0.97
0.42
0.81
0.31
0.54
0.9500000000000001
0.2
1.19
0.91
0.34
0.86
0.24
0.53
0.28
0.4
1.1500000000000001
1.12
0.93
0.9500000000000001
0.15
0.99
0.47000000000000003
0.37
0.19
0.32
0.26
0.93
0.45
1.25
0.5700000000000001
0.54
1.07
0.15
0.09
0.25
0.71
1.03
0.12
0.99
1.0
0.73
1.26
1.01
0.28
1.22
0.9400000000000001
0.09
1.1
0.5700000000000001
1.25
0.08
1.07
0.96
0.9500000000000001
0.53
0.0
1.1500000000000001
0.11
1.21
0.39
1.0
0.72
0.78
0.36
0.66
0.22
0.66
0.56
0.39
0.75
0.5
0.17
0.54
1.06
0.68
0.89
0.41000000000000003
0.77
1.1
0.05
0.13
0.9500000000000001
1.22
0.73
0.03
1.06
0.51
0.36
0.43
0.18
1.1
1.26
0.02
1.24
0.45
0.73
0.27
0.81
1.1
0.76
0.12
0.06
0.62
1.1500000000000001
0.89
0.27
0.08
0.28
1.26
0.78
0.44
0.93
0.9400000000000001
1.09
1.26
0.74
0.71
0.15
0.19
0.7000000000000001
0.98
0.24
0.91
0.25
0.77
0.84
0.76
1.21
1.22
0.03
0.32
0.8300000000000001
0.84
0.54
0.56
0.8
0.15
0.36
0.06
0.08
1.09
1.25
1.08
0.27
0.09
0.46
0.6900000000000001
0.21
0.91
0.71
0.9
0.48
0.53
1.21
0.39
1.23
0.55
1.09
0.8300000000000001
0.42
0.89
0.96
1.25
1.1
0.24
1.0
1.21
1.18
1.05
0.78
0.45
1.1500000000000001
1.18
1.25
1.27
1.04
0.92
0.0
0.7000000000000001
0.04
0.1
1.09
0.99
0.87
0.09
0.87
1.24
0.33
0.8200000000000001
0.24
0.65
1.03
0.81
1.11
0.09
1.1400000000000001
0.96
0.86
0.93
0.9500000000000001
0.74
0.06
0.71
0.43
0.15
0.89
1.03
0.46
0.3
0.56
0.72
0.4
1.2
0.45
0.66
1.04
1.23
0.92
0.5700000000000001
0.25
0.15
1.24
0.63
1.18
0.36
0.17
0.76
1.27
1.27
0.03
0.9400000000000001
0.89
0.72
0.23
0.9400000000000001
0.75
0.05
0.49
0.19
1.1
0.13
0.01
0.55
1.09
0.23
0.96
1.11
0.49
1.21
0.07
0.74
0.01
0.33
0.1
1.06
0.5
0.73
0.97
1.19
1.19
0.11
0.16
0.81
0.99
0.51
0.93
0.67
0.11
0.73
0.09
0.9500000000000001
0.6
0.78
1.1
0.26
0.55
0.93
0.05
0.9400000000000001
1.04
0.53
0.47000000000000003
0.28
1.19
0.31
0.09
1.09
1.2
0.5700000000000001
0.5700000000000001
0.42
0.9500000000000001
0.8200000000000001
0.72
0.9400000000000001
0.48
0.5700000000000001
0.41000000000000003
0.38
1.11
0.09
0.2
0.97
0.05
0.24
0.53
0.97
0.13
0.16
0.91
0.76
0.91
0.2
1.24
0.37
1.26
0.03
0.97
0.52
0.36
1.1500000000000001
0.6
0.26
1.25
0.97
1.05
0.09
0.45
0.45
0.02
0.62
0.05
1.2
1.01
0.11
0.93
1.21
0.0
0.59
0.56
0.2
0.18
0.15
1.08
1.01
0.8
0.64
0.66
0.23
0.0
0.37
0.9400000000000001
0.09
0.2
0.62
1.1500000000000001
1.09
0.86
1.12
0.35000000000000003
0.91
1.18
0.36
0.15
0.27
0.74
0.38
1.01
0.4
1.01
0.11
0.72
0.18
0.19
0.73
1.27
1.02
1.24
1.03
0.15
1.21
0.6
1.05
0.29
0.25
1.19
0.18
0.7000000000000001
0.78
0.34
0.2
0.03
0.68
0.33
0.74
0.78
0.79
0.81
0.36
1.25
0.8
0.98
0.62
0.47000000000000003
0.86
0.66
0.06
0.28
1.21
0.09
0.89
0.22
0.06
0.67
0.5700000000000001
0.23
1.26
1.25
0.16
0.41000000000000003
0.54
1.17
0.03
0.8
1.21
0.14
0.66
1.23
0.05
1.1300000000000001
0.12
0.61
0.36
0.01
0.99
0.6
0.7000000000000001
1.1400000000000001
0.35000000000000003
0.23
0.52
0.4
0.43
0.45
1.25
1.0
0.05
0.65
0.23
0.27
0.99
0.42
0.76
1.17
0.66
1.11
0.41000000000000003
0.24
0.9400000000000001
0.81
0.9500000000000001
1.2
0.9
0.1
0.5
0.41000000000000003
0.5
0.56
0.44
0.77
0.64
1.1400000000000001
0.96
0.21
1.02
0.05
1.04
0.65
0.18
0.15
0.72
1.06
0.25
1.11
0.01
0.85
0.09
0.2
0.63
0.27
1.04
1.1300000000000001
0.96
0.47000000000000003
0.33
0.79
1.12
1.1500000000000001
0.55
0.1
0.77
0.74
0.7000000000000001
0.01
1.07
1.17
0.77
0.31
0.97
0.04
0.9400000000000001
0.24
0.8
0.09
1.08
0.86
0.14
0.44
0.12
1.18
0.61
0.28
0.9
0.63
1.24
0.73
0.3
1.25
1.1500000000000001
0.05
0.77
0.23
0.86
0.77
0.56
1.09
0.61
0.5700000000000001
1.22
0.65
0.44
0.75
0.15
0.76
0.05
0.56
0.47000000000000003
1.19
1.03
0.09
0.64
0.66
0.63
0.6
1.24
0.0
0.39
1.01
0.89
0.91
0.72
0.56
0.71
0.65
0.71
0.35000000000000003
0.51
0.93
1.12
0.09
1.09
0.5700000000000001
1.26
0.1
0.87
0.65
1.1500000000000001
0.8300000000000001
0.72
0.65
0.0
1.1500000000000001
0.35000000000000003
1.26
1.24
1.11
0.08
0.13
0.87
0.33
0.53
1.03
0.48
0.84
0.54
0.45
0.55
0.47000000000000003
0.26
0.93
0.96
0.84
0.73
0.41000000000000003
0.87
1.1500000000000001
0.88
0.55
0.26
1.1400000000000001
1.03
0.24
0.98
0.02
0.98
0.3
1.04
0.76
0.86
0.55
0.07
0.87
1.2
0.48
1.07
0.41000000000000003
0.34
0.77
0.72
0.9500000000000001
0.32
0.18
0.43
0.0
0.68
0.41000000000000003
0.04
0.3
0.61
0.24
0.93
0.35000000000000003
0.8300000000000001
1.03
1.09
0.36
1.19
0.21
0.08
0.71
0.8
1.2
1.19
1.26
0.07
0.59
0.09
1.17
0.49
0.55
0.61
0.51
0.4
1.06
0.27
0.86
0.66
0.9
0.08
0.55
0.0
0.4
0.42
0.47000000000000003
0.63
0.66
0.37
0.67
0.6
1.09
1.0
0.84
1.1
0.31
0.2
0.54
0.78
1.27
0.8300000000000001
0.84
1.25
0.4
0.12
0.53
0.5
0.33
0.11
0.75
0.25
0.18
0.99
0.79
0.68
1.1400000000000001
1.1300000000000001
1.1300000000000001
0.27
0.3
1.18
1.21
1.12
0.2
0.11
0.08
0.42
0.34
0.39
0.5
0.02
0.98
0.6900000000000001
0.77
0.6
1.19
0.28
1.19
1.07
0.47000000000000003
0.14
0.5700000000000001
0.99
0.09
0.39
0.92
0.08
0.3
0.47000000000000003
0.33
0.07
1.1300000000000001
0.08
0.45
1.23
0.99
0.11
0.1
0.02
0.84
0.8300000000000001
0.5700000000000001
0.91
0.5700000000000001
0.59
0.16
0.26
0.93
1.17
0.73
0.75
1.1
1.23
0.41000000000000003
0.62
0.23
0.99
0.05
1.2
0.44
0.54
0.46
0.92
0.43
0.9400000000000001
0.87
0.76
0.32
0.17
0.03
0.34
1.23
0.32
1.17
1.21
0.68
0.52
0.91
0.22
0.62
0.08
1.19
1.0
0.5700000000000001
0.1
0.98
0.59
0.04
1.1
0.08
0.9500000000000001
1.08
0.96
0.71
0.47000000000000003
0.65
0.35000000000000003
0.02
0.76
0.93
0.92
0.88
0.21
0.28
1.17
1.1400000000000001
0.5700000000000001
0.46
1.1500000000000001
0.78
0.73
0.51
1.07
0.8
0.34
0.36
0.25
1.1500000000000001
1.1
0.96
0.55
0.65
1.24
1.27
0.15
0.44
0.86
0.14
0.27
1.17
1.06
0.32
0.26
0.96
0.21
0.8200000000000001
0.52
0.63
0.03
0.39
0.39
0.52
0.06
0.45
0.78
0.4
0.44
1.07
0.78
0.73
0.53
0.52
0.27
0.11
0.22
0.8
0.18
0.33
0.96
1.19
1.12
0.09
0.38
0.96
0.54
1.02
0.8300000000000001
1.1500000000000001
0.76
0.79
0.19
0.21
0.02
0.06
0.31
1.1300000000000001
0.36
0.89
1.1500000000000001
0.26
0.09
0.54
0.97
0.25
1.24
0.51
0.23
1.07
0.76
0.6900000000000001
0.15
1.23
0.02
0.32
0.5700000000000001
0.64
0.89
1.21
0.88
1.19
0.96
0.44
0.59
1.21
0.81
0.81
0.45
0.31
0.35000000000000003
0.22
0.54
0.16
0.64
0.54
0.8
0.51
0.81
0.45
0.67
0.99
0.15
0.5700000000000001
0.91
0.25
0.8
1.22
1.06
0.32
1.04
0.5700000000000001
0.86
1.21
1.05
0.61
1.07
0.79
0.5700000000000001
1.09
0.46
0.5700000000000001
0.9
0.11
0.9400000000000001
0.68
0.88
0.09
0.91
0.08
0.33
0.8300000000000001
0.91
0.43
1.09
0.16
0.2
0.06
0.18
0.55
0.05
0.56
1.02
0.18
0.7000000000000001
0.44
0.19
0.28
0.93
0.02
1.12
0.31
0.22
1.1500000000000001
0.06
0.96
1.1
0.79
0.05
1.0
0.44
0.51
0.34
1.26
1.02
0.49
1.03
1.03
1.04
0.75
1.09
0.56
0.21
0.09
0.63
0.48
0.28
0.85
0.4
0.38
0.55
0.43
1.07
0.87
0.23
0.36
0.72
0.53
0.78
0.79
0.9500000000000001
0.5700000000000001
0.66
0.15
1.03
0.17
0.31
0.71
1.19
0.17
0.39
0.5700000000000001
1.19
0.73
0.49
1.27
0.71
0.63
1.01
0.79
0.66
0.79
0.98
0.13
0.3
0.51
0.6900000000000001
1.09
0.76
0.2
0.27
0.37
0.76
0.05
1.1300000000000001
0.18
1.03
1.1500000000000001
0.73
0.27
1.05
1.18
0.01
0.17
0.05
0.09
0.91
0.78
1.19
1.08
1.25
0.14
0.91
1.02
1.08
0.12
0.41000000000000003
0.65
0.23
0.33
1.05
0.46
0.05
0.4
1.18
0.4
0.9500000000000001
0.17
1.27
0.9400000000000001
0.87
1.1500000000000001
0.99
0.47000000000000003
0.89
0.2
0.4
0.92
0.96
0.53
0.66
0.86
0.51
1.11
0.15
1.05
0.65
1.12
1.03
0.99
0.45
0.9
0.32
0.5700000000000001
1.22
0.11
0.5700000000000001
0.76
1.1400000000000001
0.19
1.02
0.73
0.08
0.15
0.4
0.2
0.9400000000000001
1.04
0.8300000000000001
1.2
0.23
0.75
0.08
1.1300000000000001
0.5
0.3
0.3
0.33
1.04
0.43
0.44
0.48
0.45
0.9
0.9
0.84
1.1400000000000001
1.25
0.84
0.35000000000000003
0.22
0.51
1.23
1.2
0.03
0.89
0.74
0.9400000000000001
0.6900000000000001
0.28
0.24
0.29
0.73
0.07
0.53
0.03
0.31
0.43
0.6
1.0
0.03
1.05
0.23
1.17
0.27
0.56
0.8
0.53
0.98
0.67
0.51
0.87
1.08
0.37
1.11
0.88
0.47000000000000003
1.2
0.8300000000000001
0.27
1.12
1.19
0.08
0.03
1.1500000000000001
0.92
0.5
1.03
0.17
0.18
0.61
0.45
0.7000000000000001
1.09
0.16
0.07
0.2
0.02
0.8
0.54
0.22
0.32
0.24
1.03
0.79
0.31
0.96
1.01
0.67
0.28
0.71
0.53
0.4
0.6900000000000001
0.36
0.92
0.28
0.54
0.38
0.4
0.26
0.91
1.03
0.4
1.12
0.56
0.9400000000000001
0.1
1.09
1.21
0.44
0.63
0.23
0.65
1.09
1.1500000000000001
0.06
0.62
1.1500000000000001
0.73
0.99
1.03
0.75
0.86
1.06
1.22
0.62
0.12
0.9400000000000001
0.01
0.35000000000000003
0.65
0.41000000000000003
1.1500000000000001
1.18
0.87
0.5700000000000001
0.39
1.06
0.92
0.28
0.97
1.02
0.48
0.87
0.5700000000000001
1.07
1.02
0.6
1.23
0.84
0.92
0.98
0.5
0.25
0.43
0.43
0.53
1.05
1.18
1.1400000000000001
0.11
1.11
0.21
0.78
0.21
0.9500000000000001
1.19
0.39
0.78
0.28
0.73
0.71
0.81
0.43
0.89
0.85
0.01
0.3
0.14
0.8300000000000001
1.01
0.06
0.9
0.93
0.8200000000000001
0.31
0.86
0.86
0.27
1.03
0.65
0.44
0.49
0.28
0.68
0.75
1.01
0.78
0.04
0.99
1.1
0.35000000000000003
0.28
0.33
0.53
0.77
0.98
0.66
1.18
0.89
0.2
0.49
0.78
0.17
1.03
0.68
0.88
0.39
0.54
0.65
0.98
0.59
0.54
0.79
0.55
0.9500000000000001
0.78
0.28
0.39
0.37
0.3
0.9400000000000001
0.9500000000000001
0.08
0.71
0.89
0.87
1.2
1.18
0.36
0.43
0.14
0.27
0.91
1.25
1.09
0.38
0.99
0.32
0.66
1.21
1.05
0.07
0.22
1.09
0.13
0.05
1.25
0.17
0.41000000000000003
0.91
0.77
0.38
1.02
0.78
0.75
0.12
0.64
0.12
0.6900000000000001
0.03
0.7000000000000001
0.52
0.07
0.48
0.97
0.12
1.2
0.41000000000000003
0.28
1.11
0.71
1.03
1.1500000000000001
0.27
0.63
0.9400000000000001
1.01
0.28
1.03
0.5700000000000001
0.06
1.1500000000000001
1.25
0.46
0.88
0.28
0.03
0.98
1.0
0.6
0.02
0.77
1.16
0.16
0.54
1.08
0.38
0.09
0.03
0.12
0.15
0.76
0.11
0.33
0.76
0.96
0.77
0.22
0.8
0.97
0.8300000000000001
0.19
0.3
0.62
0.27
0.68
0.0
0.96
0.35000000000000003
0.8300000000000001
1.06
0.28
1.08
1.09
0.46
0.96
0.97
0.76
1.27
1.2
0.13
0.53
0.9500000000000001
0.8300000000000001
0.8200000000000001
1.27
1.24
0.64
0.13
0.56
0.34
0.9400000000000001
0.37
0.08
0.96
0.9400000000000001
0.74
1.12
0.48
0.04
0.36
0.91
0.7000000000000001
0.96
1.27
0.66
0.18
0.9500000000000001
0.86
0.88
1.27
0.12
0.81
0.97
0.9400000000000001
0.54
0.55
0.41000000000000003
0.56
0.39
0.81
0.84
0.98
0.2
0.45
0.76
0.63
0.11
0.01
1.1400000000000001
1.09
1.24
0.3
0.8
0.24
1.27
0.45
1.1300000000000001
0.28
0.22
0.16
0.06
0.27
1.11
1.23
0.34
1.1500000000000001
1.02
0.46
0.77
0.73
1.1300000000000001
0.31
1.27
0.31
0.97
0.39
1.11
0.19
0.73
1.04
0.15
0.8
0.33
1.04
0.41000000000000003
0.32
0.9
0.61
0.63
1.02
0.98
0.71
0.21
0.04
0.26
0.91
1.02
0.78
1.1
0.52
0.01
0.68
0.67
0.98
1.08
0.0
0.06
1.23
0.22
0.8300000000000001
0.5
1.02
1.08
0.9400000000000001
1.27
0.04
0.17
1.24
1.0
0.81
0.86
0.06
0.3
1.23
0.26
1.17
0.71
0.92
0.05
0.22
0.76
0.62
1.2
0.48
0.06
0.93
0.8
0.81
0.1
0.5700000000000001
0.15
0.07
1.27
0.23
0.65
0.4
0.98
1.05
1.05
0.7000000000000001
0.68
0.45
0.47000000000000003
1.1300000000000001
0.7000000000000001
0.03
0.05
0.06
0.62
0.34
1.17
0.33
0.17
0.32
0.9400000000000001
0.15
1.1
0.8200000000000001
0.44
0.37
0.54
0.99
1.01
0.46
0.93
1.09
0.45
0.01
0.18
0.76
0.75
0.49
0.21
0.37
1.05
0.91
0.05
0.36
0.12
1.12
0.7000000000000001
0.39
1.06
0.42
0.9400000000000001
0.65
0.91
1.2
0.72
0.53
1.17
0.32
0.78
0.65
0.78
0.15
0.5
0.9500000000000001
1.09
0.12
1.09
0.93
0.9
0.22
0.77
0.59
0.15
0.5700000000000001
0.99
0.02
1.1400000000000001
0.21
0.25
0.88
0.8300000000000001
0.38
0.26
0.24
0.33
0.92
0.5700000000000001
0.93
0.87
0.6900000000000001
0.78
0.66
1.06
0.39
1.22
1.19
0.37
1.19
0.13
0.1
1.11
0.3
1.1500000000000001
0.23
0.9500000000000001
0.99
0.88
0.55
0.09
0.58
1.02
1.05
0.71
0.79
0.45
0.24
1.18
0.73
0.98
1.22
1.05
0.3
0.33
0.28
0.48
0.9500000000000001
0.84
0.51
0.91
0.8300000000000001
0.09
1.0
0.07
1.24
0.2
0.2
0.14
0.26
0.6900000000000001
0.05
1.2
0.6
0.09
0.64
1.17
0.35000000000000003
0.11
1.02
0.62
0.51
0.76
0.25
0.65
0.37
0.68
1.1400000000000001
0.2
1.21
0.14
0.4
1.21
0.64
1.1400000000000001
0.31
0.6900000000000001
0.84
0.48
0.72
1.1400000000000001
0.16
0.9
0.08
0.74
0.66
0.05
0.89
0.93
0.88
0.3
0.3
0.34
0.84
0.47000000000000003
0.91
0.86
0.99
0.48
0.6900000000000001
0.32
0.04
1.24
0.11
0.93
0.52
0.88
0.23
0.81
0.49
0.18
0.6900000000000001
0.09
0.44
0.8
0.97
0.19
0.52
0.78
0.75
0.67
0.11
0.0
0.42
0.06
1.01
0.49
0.16
0.87
0.67
0.5
0.11
0.46
0.99
1.11
0.27
0.97
0.5
0.75
0.85
0.42
0.01
0.74
0.09
0.92
1.02
1.1300000000000001
1.27
0.72
1.09
0.71
0.44
0.9
1.22
0.62
0.99
0.63
1.04
1.24
0.96
0.11
0.54
0.66
1.23
0.9400000000000001
1.02
0.79
0.42
1.09
0.72
0.28
0.62
0.58
0.46
0.19
0.59
1.11
0.73
0.48
0.24
0.09
0.36
0.55
0.17
0.76
1.0
0.1
0.9400000000000001
0.56
1.19
1.23
0.49
0.34
1.25
1.01
0.26
0.9400000000000001
1.26
1.07
1.19
0.55
0.31
1.02
0.55
0.74
0.89
0.74
0.02
1.26
0.34
0.09
0.24
0.56
0.12
0.21
0.46
0.05
1.23
0.96
0.15
0.5700000000000001
0.23
0.15
1.07
0.19
1.18
0.74
0.91
0.8200000000000001
0.36
0.49
0.61
0.93
1.25
0.33
0.24
0.25
1.05
0.21
0.98
1.1
1.08
0.49
0.89
0.5700000000000001
1.25
0.2
0.87
0.37
0.86
0.79
1.17
0.76
0.06
0.59
0.09
0.14
0.75
0.17
0.02
0.98
0.5700000000000001
0.84
0.22
0.81
0.3
1.1400000000000001
1.07
0.26
1.03
0.18
0.58
0.07
0.17
1.01
1.25
1.03
1.2
0.8200000000000001
0.63
0.33
0.37
0.91
0.48
0.73
0.14
0.81
0.08
0.98
0.98
0.81
1.1500000000000001
0.3
0.33
0.54
0.98
0.01
0.37
0.55
0.87
0.7000000000000001
0.24
0.79
0.44
1.1
0.21
1.1300000000000001
0.8300000000000001
0.97
1.23
0.54
1.1
1.22
0.91
0.5700000000000001
1.01
0.71
1.0
0.31
0.11
0.19
0.21
0.27
0.6900000000000001
0.71
0.72
0.68
0.1
0.54
0.01
0.6
0.4
0.36
0.2
0.6
0.5
0.9
1.03
0.9
0.08
1.25
0.8
0.6900000000000001
0.18
0.27
0.09
0.6
1.2
0.76
0.39
0.5700000000000001
0.17
0.56
1.1500000000000001
0.17
0.28
1.08
0.68
0.7000000000000001
0.81
0.9
0.6900000000000001
0.38
0.68
0.73
0.04
0.8
0.88
0.31
1.1400000000000001
0.41000000000000003
0.31
0.25
0.1
0.02
0.05
0.23
1.1400000000000001
0.8300000000000001
0.25
0.72
0.14
0.8200000000000001
0.05
1.01
0.16
0.31
0.5700000000000001
0.72
0.93
0.27
0.89
1.12
0.31
0.71
1.1300000000000001
0.07
0.22
0.1
0.79
0.81
0.45
0.03
0.88
0.56
0.62
0.05
1.22
0.9400000000000001
0.4
0.2
0.1
0.23
0.07
1.25
0.38
1.1
1.26
0.53
0.47000000000000003
0.8300000000000001
0.25
0.06
1.11
0.32
0.03
1.26
0.52
0.63
0.39
0.73
0.14
1.21
1.1300000000000001
1.21
0.24
1.27
0.55
1.23
0.78
0.46
0.75
1.12
0.41000000000000003
0.9
0.25
1.06
0.11
0.79
0.27
0.68
0.51
0.25
1.08
0.87
1.08
0.79
0.62
0.06
0.8
0.44
0.8
1.2
0.23
0.51
0.28
0.7000000000000001
0.55
1.1500000000000001
0.42
0.61
0.19
0.32
0.01
0.99
0.08
0.03
0.34
1.24
0.15
0.8300000000000001
0.38
0.32
0.89
0.54
0.49
0.23
1.1500000000000001
0.91
0.21
0.19
0.74
0.33
0.84
0.91
0.24
0.52
0.96
1.04
0.63
1.06
0.79
0.0
0.22
1.01
1.07
1.2
0.24
0.67
0.36
0.21
0.81
0.51
0.33
0.61
1.23
0.8300000000000001
0.92
0.48
0.8
0.41000000000000003
0.87
1.05
0.72
0.9400000000000001
0.96
0.87
0.56
0.04
0.48
0.86
0.35000000000000003
0.88
0.8300000000000001
0.12
1.08
0.93
0.31
0.86
1.27
0.45
0.16
0.49
0.46
0.77
1.2
0.12
1.1500000000000001
0.34
1.24
0.32
0.99
0.68
0.11
0.5700000000000001
0.21
0.61
1.05
0.38
1.1300000000000001
1.19
0.8300000000000001
0.93
0.37
0.52
0.5700000000000001
1.2
1.25
0.6900000000000001
0.71
0.92
0.32
0.99
1.06
0.49
0.76
0.61
0.46
1.0
0.91
0.56
0.08
0.53
0.09
1.24
0.5
0.01
0.05
1.01
0.06
0.28
1.1500000000000001
1.1400000000000001
0.87
0.62
0.03
0.4
0.55
1.24
0.48
0.22
1.1
1.23
0.6
0.42
1.2
1.19
0.77
0.8200000000000001
0.55
0.98
0.92
0.9
0.21
0.79
1.04
0.62
1.04
0.74
0.15
1.1300000000000001
0.06
0.91
0.78
1.17
0.04
0.21
0.84
1.1400000000000001
0.05
0.07
0.06
0.96
0.66
0.41000000000000003
0.44
1.12
0.4
0.5700000000000001
0.66
0.75
0.54
0.28
0.6900000000000001
0.28
0.42
0.11
0.33
0.51
1.18
0.6900000000000001
1.26
1.03
0.03
0.77
0.45
1.12
0.03
0.45
0.91
0.11
0.87
0.73
0.9
0.7000000000000001
0.85
0.1
1.12
1.2
0.61
1.06
0.36
0.96
0.55
1.2
0.16
1.1500000000000001
1.04
0.86
0.05
0.97
0.02
1.01
0.05
1.22
0.87
0.38
0.13
0.77
0.17
0.61
1.1
1.02
0.93
0.42
0.78
0.21
1.27
0.66
0.06
1.08
0.84
1.21
1.0
0.08
1.27
0.87
0.53
0.3
1.17
0.63
1.11
0.86
0.28
0.09
1.1
0.65
0.76
0.64
1.06
0.34
0.99
0.84
0.07
0.86
0.91
0.89
0.23
0.23
0.52
0.06
0.19
0.38
0.18
0.47000000000000003
0.2
0.23
0.3
0.03
0.59
1.11
0.55
0.32
0.05
0.8
0.16
0.18
0.6
0.71
0.24
0.37
0.43
0.99
0.76
0.88
0.22
1.17
1.23
1.25
0.44
0.03
0.85
0.92
0.0
0.33
0.71
0.79
0.43
0.11
0.47000000000000003
1.07
0.96
0.39
1.19
0.3
0.41000000000000003
0.92
0.49
0.12
0.62
0.49
0.14
0.24
0.27
0.78
1.26
1.06
0.1
0.26
0.1
0.02
1.17
0.47000000000000003
0.55
0.62
1.17
1.1
0.85
0.09
1.03
1.03
0.55
0.86
0.06
0.04
0.56
0.07
0.63
0.16
0.62
0.13
0.5700000000000001
0.45
0.77
0.47000000000000003
1.22
1.0
0.44
0.36
0.67
0.78
0.41000000000000003
0.44
0.07
1.01
0.55
0.4
1.17
0.02
0.53
0.3
0.79
0.65
0.31
0.28
0.35000000000000003
0.55
0.72
1.06
0.53
0.55
0.08
0.47000000000000003
0.73
1.1
0.39
1.1500000000000001
0.04
0.86
0.8
0.98
0.72
0.77
0.65
1.21
0.79
0.6900000000000001
0.44
1.18
0.37
1.26
0.02
0.26
0.59
0.3
0.39
0.84
0.44
0.26
0.34
0.49
0.56
0.02
0.56
0.06
0.49
0.6
0.23
1.23
0.76
0.9
0.76
0.63
0.11
0.36
0.6900000000000001
0.88
0.98
0.6900000000000001
0.7000000000000001
0.36
0.2
0.56
1.01
0.4
0.04
0.59
0.13
0.7000000000000001
0.77
0.15
0.56
0.04
0.65
0.75
0.8200000000000001
1.12
0.25
1.08
0.28
0.52
1.17
0.68
0.87
0.64
0.93
0.55
1.12
0.28
0.9400000000000001
0.35000000000000003
0.6900000000000001
0.0
0.28
0.8200000000000001
0.98
0.28
0.76
1.27
0.3
0.44
0.37
1.21
0.32
0.51
0.49
0.44
0.96
0.47000000000000003
0.78
1.1500000000000001
0.12
0.45
0.81
0.5
0.74
0.3
1.07
0.96
1.1
1.27
0.19
0.12
0.39
0.13
0.5700000000000001
0.43
0.46
1.1500000000000001
0.33
0.65
0.43
1.26
0.7000000000000001
0.09
0.93
0.9
0.68
1.18
1.04
0.04
1.1300000000000001
0.01
1.21
1.24
0.6
0.32
0.19
0.5700000000000001
0.41000000000000003
0.34
0.6900000000000001
0.71
1.02
1.07
0.55
0.61
0.59
0.43
0.79
0.77
0.12
0.36
0.06
1.04
0.44
0.03
0.03
0.55
0.3
0.05
0.33
1.1400000000000001
0.76
0.76
0.5700000000000001
0.97
0.17
0.35000000000000003
0.62
0.2
0.42
0.73
0.38
1.03
0.27
0.49
0.44
0.85
0.09
0.78
0.42
0.44
0.13
0.76
0.6900000000000001
0.17
1.1500000000000001
1.24
1.1400000000000001
0.64
1.04
0.12
0.61
0.89
0.78
0.85
0.64
0.28
0.36
0.87
0.35000000000000003
0.27
1.02
0.45
0.35000000000000003
0.05
0.38
1.1
0.03
0.47000000000000003
0.28
0.04
0.51
0.48
1.11
0.47000000000000003
0.11
0.01
1.1500000000000001
1.19
0.33
0.89
1.0
0.5
0.9500000000000001
0.8200000000000001
0.1
0.71
0.9400000000000001
0.28
0.74
0.8200000000000001
0.85
0.71
0.77
0.55
0.87
0.97
0.05
1.27
1.1300000000000001
0.5700000000000001
1.21
0.65
0.35000000000000003
1.21
0.64
1.02
0.04
0.77
0.73
0.38
1.09
1.22
1.2
1.01
0.75
0.62
0.49
0.65
0.11
0.27
0.74
0.55
0.72
0.23
0.41000000000000003
0.3
1.19
0.74
0.88
0.5
1.18
1.01
0.33
0.8300000000000001
1.05
1.06
0.81
0.72
0.05
1.17
0.72
0.3
1.09
0.78
0.2
1.08
0.68
0.8200000000000001
0.51
0.36
0.98
0.04
0.73
0.96
0.24
0.09
0.13
0.91
0.96
1.27
1.11
0.23
1.26
1.22
0.65
0.84
0.27
0.38
0.06
1.0
0.97
1.1500000000000001
0.85
0.09
0.74
0.49
0.03
0.71
0.03
1.1
0.87
0.3
1.22
0.32
0.72
0.52
0.59
0.28
0.9400000000000001
0.08
0.03
0.84
0.21
0.48
0.8
0.78
0.8300000000000001
0.0
0.03
1.11
0.73
0.21
1.09
0.25
1.09
0.02
0.76
0.74
0.5700000000000001
1.02
0.77
0.91
0.04
0.87
0.16
0.88
0.31
0.34
1.04
0.58
0.62
0.6900000000000001
0.59
0.06
0.56
0.2
0.91
0.03
0.45
0.9
1.21
1.25
0.97
0.06
0.38
0.67
0.2
1.23
0.71
1.21
0.51
0.75
0.03
0.1
0.02
0.27
0.14
0.76
0.76
1.1500000000000001
0.37
0.45
0.52
0.8300000000000001
1.24
0.43
0.06
0.44
0.51
1.03
0.81
1.21
0.19
0.52
0.43
0.75
0.06
0.9
0.36
0.6900000000000001
0.88
0.6900000000000001
0.49
0.66
1.09
0.5700000000000001
1.11
0.38
0.93
1.27
0.28
1.1500000000000001
0.35000000000000003
0.01
1.1500000000000001
0.61
1.16
1.12
0.91
0.28
0.06
1.1500000000000001
0.46
0.27
0.46
0.3
0.09
0.6900000000000001
0.07
0.76
0.99
0.41000000000000003
1.05
1.19
1.03
0.3
0.0
0.31
0.51
1.12
1.19
0.2
1.1300000000000001
0.66
0.72
0.87
0.25
1.01
0.49
0.12
0.47000000000000003
0.56
1.17
0.92
0.97
0.26
0.04
0.89
1.18
0.81
0.5
0.9
1.01
0.3
0.25
0.86
0.25
1.05
1.01
0.33
0.71
0.88
0.6
0.16
0.77
0.31
1.17
1.22
1.09
1.26
0.65
0.35000000000000003
0.18
1.09
0.91
0.46
0.28
0.52
1.01
0.43
0.21
0.63
0.75
1.19
0.44
1.25
1.04
0.62
1.1500000000000001
0.05
0.37
0.36
0.3
0.66
0.44
0.77
1.22
1.19
0.32
0.02
0.28
0.77
0.5700000000000001
1.2
0.48
0.36
0.38
0.79
0.93
0.35000000000000003
0.5700000000000001
0.14
0.6900000000000001
0.26
0.19
0.36
0.66
0.9
0.41000000000000003
0.06
0.42
0.71
0.0
0.9500000000000001
0.1
0.93
0.91
0.98
0.8200000000000001
0.06
0.99
1.17
0.04
1.07
1.19
0.01
1.12
0.9
1.12
0.63
1.01
0.09
0.37
0.62
0.03
0.4
0.64
0.04
0.75
0.26
0.8200000000000001
0.28
0.49
1.1
0.89
0.84
0.47000000000000003
0.18
1.11
0.3
0.5
0.14
0.8
0.2
0.44
1.26
0.16
0.04
0.0
0.3
1.09
0.38
0.64
0.88
1.1400000000000001
0.42
0.99
0.8
1.25
0.34
0.86
0.01
0.12
0.74
0.46
0.61
1.1500000000000001
0.5700000000000001
0.93
0.33
0.87
0.22
1.21
0.64
0.84
0.5700000000000001
0.5700000000000001
0.07
0.06
1.2
0.2
1.17
0.17
0.19
0.1
0.28
0.02
1.1300000000000001
0.71
0.62
0.04
0.51
1.2
0.37
1.01
0.38
0.01
0.14
1.02
0.8
0.11
0.6
0.06
0.09
0.9400000000000001
0.24
0.23
0.37
0.03
0.6
0.79
0.73
0.65
0.4
0.03
0.62
0.11
0.5
0.97
0.41000000000000003
0.34
1.2
0.27
0.89
0.8
0.18
1.01
0.51
1.1300000000000001
0.48
0.11
0.49
0.59
0.07
0.81
0.66
0.75
1.27
0.72
0.15
0.88
0.22
0.37
0.0
0.6
1.23
1.24
1.17
0.06
1.2
0.06
0.87
1.1400000000000001
0.61
0.7000000000000001
0.79
0.4
0.41000000000000003
1.21
0.01
0.9
0.26
0.86
0.12
0.45
1.1300000000000001
0.6
1.25
0.49
0.5700000000000001
0.2
0.22
0.59
0.71
0.3
1.1500000000000001
0.05
0.12
0.24
0.7000000000000001
0.34
0.22
0.43
1.21
0.12
0.14
0.5
0.59
0.85
1.18
0.72
0.66
0.66
0.88
0.41000000000000003
0.48
0.31
1.12
0.5700000000000001
0.96
1.1500000000000001
1.06
0.46
1.17
0.05
0.59
0.11
0.73
0.97
0.56
0.1
0.73
1.05
0.16
0.96
0.5700000000000001
1.08
0.67
0.46
0.55
1.1
0.79
0.71
0.92
0.55
0.98
0.8200000000000001
0.08
1.19
0.72
0.51
0.25
0.09
0.49
0.55
0.99
0.9400000000000001
0.48
0.9400000000000001
0.47000000000000003
0.2
1.27
0.01
0.48
0.02
1.2
0.3
0.6
1.19
0.12
1.01
0.4
0.65
0.15
1.22
0.14
0.24
0.28
1.27
0.17
0.9400000000000001
0.77
1.1500000000000001
0.93
1.12
0.13
0.22
1.1
0.23
0.9500000000000001
0.48
1.1400000000000001
1.21
0.3
1.04
1.21
0.04
0.02
0.09
0.6900000000000001
0.01
0.24
0.19
0.65
0.72
0.7000000000000001
1.1400000000000001
1.1400000000000001
0.72
0.65
0.85
0.44
0.53
0.18
0.84
0.02
0.84
0.08
1.23
0.65
0.52
0.65
0.47000000000000003
0.15
0.76
0.85
1.04
1.19
1.25
0.34
0.7000000000000001
0.13
0.7000000000000001
0.73
0.26
0.93
1.07
0.18
0.65
0.52
0.14
1.1300000000000001
0.56
0.73
1.0
0.05
0.68
1.03
1.25
0.38
0.4
0.9
1.12
1.0
0.18
0.66
0.31
1.02
0.75
0.6900000000000001
0.67
1.07
0.42
0.1
0.67
0.89
0.28
0.55
0.14
0.97
0.98
0.9500000000000001
1.12
0.0
0.71
1.27
0.91
0.18
0.16
1.02
0.2
0.1
0.92
0.35000000000000003
0.6900000000000001
1.05
0.44
0.47000000000000003
1.19
0.77
0.98
1.1400000000000001
0.96
1.08
0.85
0.01
0.42
0.41000000000000003
0.43
0.17
0.9
0.39
0.5700000000000001
1.12
0.2
0.25
1.07
0.27
0.6
1.22
0.13
0.45
0.21
1.23
0.49
0.3
0.55
0.13
0.8300000000000001
0.54
1.11
0.97
0.98
1.02
0.15
0.89
0.54
0.66
0.37
0.49
0.9
0.33
0.66
1.22
0.01
0.59
0.52
1.07
0.59
0.26
0.51
1.05
0.55
1.03
1.21
0.51
0.07
1.21
0.23
1.1300000000000001
0.22
0.54
0.47000000000000003
0.09
0.76
0.4
1.12
0.14
0.84
1.17
0.73
0.33
0.08
1.08
1.26
0.3
0.28
0.8
0.71
0.04
0.01
0.43
0.19
0.02
1.21
0.86
0.35000000000000003
0.78
0.9400000000000001
0.5700000000000001
0.77
0.99
0.79
0.56
1.1300000000000001
0.81
0.63
0.67
0.26
0.67
0.31
0.77
1.12
0.46
0.27
0.61
0.3
0.44
0.18
0.56
0.59
0.15
0.5700000000000001
0.84
0.41000000000000003
0.62
0.9400000000000001
0.39
1.06
0.78
0.46
0.41000000000000003
0.9500000000000001
0.6
0.55
0.5700000000000001
0.48
0.16
0.03
0.49
0.51
0.99
0.48
1.25
1.05
0.23
0.32
0.32
0.86
1.1
1.04
0.55
0.8
0.37
0.38
0.55
1.06
1.1500000000000001
0.09
0.25
0.79
0.07
0.75
0.0
0.84
0.72
1.1300000000000001
1.05
1.21
0.85
0.33
0.97
0.6900000000000001
0.2
0.01
1.12
1.07
0.62
0.27
0.2
0.5
0.41000000000000003
0.56
0.39
0.49
1.1300000000000001
0.07
0.3
0.63
0.8200000000000001
1.12
0.37
0.16
0.18
0.47000000000000003
0.6
1.19
0.7000000000000001
0.49
0.67
1.07
0.71
0.6
1.17
1.17
0.75
0.27
0.64
0.28
0.24
1.1300000000000001
0.75
0.34
0.66
0.77
0.33
0.32
0.52
1.26
1.03
1.04
0.67
1.06
0.28
0.28
1.02
0.46
0.0
0.05
0.24
1.04
0.99
1.05
1.23
0.76
1.09
0.56
0.12
1.06
0.06
0.81
0.48
0.39
1.23
0.45
0.71
0.65
0.9400000000000001
0.28
0.01
0.72
0.66
0.5
1.05
0.56
1.21
0.33
0.75
0.36
0.49
0.07
0.72
0.52
0.78
0.35000000000000003
0.1
0.97
0.99
0.37
1.09
0.21
1.04
0.72
0.35000000000000003
0.91
1.01
1.07
0.86
0.75
0.77
0.63
1.02
0.0
0.92
0.16
0.79
0.01
0.66
0.48
1.05
0.19
1.02
1.17
0.23
0.17
1.1400000000000001
0.4
1.02
0.66
0.22
1.18
0.3
0.88
1.0
0.68
0.8
0.8200000000000001
0.62
0.25
0.56
0.0
1.02
0.5700000000000001
1.05
0.16
0.92
0.8
1.01
0.03
0.7000000000000001
1.05
0.11
0.42
1.17
0.54
0.45
0.96
0.78
0.64
0.23
1.01
1.27
0.62
0.43
1.26
1.01
0.09
0.92
0.6
1.21
0.48
0.28
0.64
0.51
0.98
1.26
0.84
1.22
1.01
0.98
1.24
0.67
0.45
0.41000000000000003
0.16
0.68
0.45
0.99
1.27
1.03
0.37
0.5
0.8200000000000001
0.41000000000000003
0.5700000000000001
0.25
0.08
0.33
1.2
0.14
0.87
1.19
1.07
1.25
1.18
1.1
0.04
1.21
0.04
0.54
0.78
1.09
0.18
0.5700000000000001
0.59
0.05
0.37
1.11
0.52
0.17
1.09
0.96
0.85
0.8300000000000001
0.56
0.25
0.23
0.99
0.92
0.42
0.26
0.02
1.2
1.09
0.45
0.6
0.2
1.03
0.72
0.32
0.26
1.1500000000000001
0.67
1.08
1.21
0.71
1.19
0.02
0.25
0.87
0.22
0.87
1.01
0.96
0.87
0.21
0.84
0.9400000000000001
0.73
0.47000000000000003
0.06
0.8
0.5700000000000001
1.1400000000000001
1.2
0.77
0.91
0.36
1.1400000000000001
0.56
0.48
1.1400000000000001
0.21
0.75
1.1500000000000001
0.8300000000000001
0.34
1.26
0.5700000000000001
0.24
0.4
1.03
0.76
0.64
1.02
1.24
1.11
1.09
1.19
0.45
0.15
0.91
0.44
0.18
0.93
0.72
0.03
0.55
0.75
0.29
1.1500000000000001
0.15
1.1300000000000001
0.22
0.93
0.81
0.24
0.01
1.1
0.7000000000000001
1.25
1.01
0.91
0.92
0.47000000000000003
0.98
1.05
0.61
0.54
0.41000000000000003
0.0
0.03
0.92
0.22
0.93
0.26
0.09
1.07
0.7000000000000001
0.28
0.14
1.21
1.09
0.02
0.99
0.97
0.85
0.4
0.92
1.21
0.28
0.12
0.27
1.06
0.11
1.1500000000000001
0.08
0.62
0.72
0.38
0.23
0.14
1.26
0.14
0.84
0.89
0.3
0.59
0.15
0.5
1.17
0.48
1.12
0.56
1.05
0.31
0.41000000000000003
1.03
0.05
0.35000000000000003
0.1
0.39
0.73
0.71
0.6
1.02
0.43
0.76
0.51
0.09
0.86
0.74
0.15
0.11
0.9400000000000001
0.45
1.21
0.13
0.33
1.25
0.19
0.63
1.18
0.42
0.18
1.26
1.1
0.18
0.2
1.1300000000000001
0.14
0.87
0.73
0.56
0.06
1.22
1.11
0.9500000000000001
0.43
0.56
0.87
0.72
0.96
0.06
0.23
0.22
0.04
0.61
1.23
0.11
0.5700000000000001
0.53
1.27
0.87
0.52
0.04
0.55
0.24
1.2
0.93
0.53
1.1400000000000001
0.33
0.4
0.65
1.1400000000000001
1.23
0.78
0.5700000000000001
0.7000000000000001
0.52
0.46
0.72
0.15
0.49
0.37
0.08
0.4
0.34
0.96
1.23
0.91
0.68
1.09
0.09
0.6900000000000001
1.2
0.17
0.97
1.11
0.39
1.1
0.99
0.73
0.73
1.11
0.9400000000000001
0.12
0.06
0.24
0.8
0.42
0.8300000000000001
0.65
0.96
0.33
0.19
0.99
1.26
0.41000000000000003
0.34
0.99
0.78
0.78
0.75
0.27
1.22
0.31
0.65
0.97
1.03
0.41000000000000003
0.05
0.78
0.21
0.08
0.28
0.81
0.8
0.09
0.49
1.2
0.67
1.1500000000000001
0.89
0.81
0.8200000000000001
0.98
0.78
1.1300000000000001
1.08
1.25
0.16
0.28
0.35000000000000003
0.64
0.61
0.62
1.25
1.1400000000000001
0.63
0.34
0.81
0.97
1.05
0.06
0.42
0.07
0.96
0.28
0.12
0.0
0.12
0.27
0.8300000000000001
0.98
0.88
0.76
1.07
0.5700000000000001
0.65
0.07
0.47000000000000003
0.5700000000000001
0.67
0.79
0.75
1.22
0.8
0.6
1.1
0.93
0.01
0.14
0.24
0.62
0.39
0.63
0.28
1.07
0.02
1.22
0.36
1.17
0.23
0.14
1.23
0.6
0.19
1.27
0.36
0.97
0.05
0.03
1.01
1.19
0.93
0.06
1.22
0.75
0.17
0.25
1.1400000000000001
0.15
0.53
0.76
0.6900000000000001
0.47000000000000003
0.56
0.15
1.07
0.44
0.89
0.12
0.74
0.06
1.23
0.75
0.55
0.36
0.1
0.46
1.06
0.02
0.45
1.27
0.35000000000000003
0.26
0.99
0.13
1.0
0.64
0.92
0.99
1.06
0.08
0.78
0.46
0.26
0.41000000000000003
0.72
0.2
0.52
0.61
1.1500000000000001
0.54
0.72
1.21
0.3
1.26
0.25
1.03
0.63
1.06
0.74
0.97
0.17
0.79
0.72
1.06
1.08
0.8
1.24
0.92
0.44
0.2
0.05
1.08
0.25
0.8300000000000001
0.07
0.7000000000000001
1.08
0.62
1.0
0.06
1.03
1.19
0.89
0.23
0.68
0.59
0.43
0.07
0.4
0.92
0.28
0.5700000000000001
0.89
0.52
0.79
0.03
0.6
0.28
0.62
0.42
1.26
1.2
0.76
0.74
0.72
0.16
0.55
0.19
0.09
0.18
0.19
1.01
0.63
0.9400000000000001
0.9400000000000001
1.04
1.09
0.96
1.04
0.46
0.93
0.87
0.76
0.2
0.85
1.18
0.55
0.03
0.4
1.01
0.77
0.23
0.06
0.27
0.1
0.74
0.54
0.1
0.73
0.03
0.6
0.42
0.89
0.28
0.42
0.98
1.23
0.28
0.19
0.12
0.39
0.16
0.46
0.1
0.97
1.22
1.0
0.28
0.04
0.34
1.1500000000000001
1.03
1.06
1.1400000000000001
0.2
0.66
0.28
0.39
0.41000000000000003
0.8300000000000001
0.05
1.09
0.26
1.05
0.35000000000000003
0.66
0.04
1.04
0.35000000000000003
0.21
0.86
0.23
0.2
0.74
1.25
1.05
0.6
0.79
0.59
0.9500000000000001
0.02
0.76
0.14
0.76
1.12
0.25
0.15
0.24
1.1400000000000001
1.0
1.1
0.5
0.37
0.65
0.68
1.1400000000000001
0.32
0.15
0.38
1.26
0.24
0.61
0.91
1.06
0.72
0.75
0.07
0.36
0.24
1.11
0.78
1.08
0.78
0.32
0.62
1.19
0.37
0.52
0.36
0.6900000000000001
1.04
0.31
1.06
0.91
0.16
0.86
1.25
0.47000000000000003
0.54
0.71
0.19
0.61
1.08
1.22
1.2
0.15
0.44
0.19
0.45
1.1300000000000001
0.16
0.86
0.68
0.73
0.48
0.72
0.63
0.76
1.1300000000000001
1.04
0.87
0.49
1.1400000000000001
0.71
0.72
0.13
1.04
0.34
0.15
0.19
1.05
0.9500000000000001
1.06
1.1500000000000001
0.99
0.18
0.15
0.41000000000000003
1.09
0.17
0.86
1.03
1.05
0.0
0.38
0.44
0.35000000000000003
0.9400000000000001
1.2
0.73
0.96
0.29
0.11
0.08
0.08
0.05
0.85
0.34
0.2
0.09
0.14
0.77
0.74
0.87
0.8200000000000001
1.01
0.49
1.26
0.9500000000000001
1.05
0.48
0.16
0.62
0.97
0.1
0.52
0.03
0.4
1.06
0.97
0.03
0.28
0.5700000000000001
1.21
0.65
0.06
0.56
0.6900000000000001
0.21
1.27
0.03
1.12
0.28
0.01
0.55
0.73
0.8300000000000001
0.65
1.1400000000000001
0.43
0.41000000000000003
1.21
0.28
0.76
0.28
0.68
0.38
1.04
1.27
0.36
1.07
0.71
0.13
0.43
0.61
0.96
0.67
0.23
0.99
0.48
1.2
0.45
0.61
0.12
0.71
0.52
1.12
1.02
0.48
0.66
1.05
0.92
1.17
0.18
1.01
0.38
0.64
0.12
0.54
0.59
0.37
0.7000000000000001
0.38
0.3
0.66
0.12
0.13
1.07
0.77
0.12
0.02
1.08
1.1
1.11
0.51
0.6900000000000001
0.14
0.06
1.25
0.06
0.98
0.22
1.12
0.16
0.13
0.66
0.71
1.04
0.36
0.24
0.71
1.07
0.5
0.15
1.2
0.6900000000000001
1.21
0.12
0.9
0.18
0.56
1.1500000000000001
0.05
0.11
0.81
1.1500000000000001
0.71
0.4
0.5700000000000001
0.63
0.51
0.84
0.97
1.19
0.23
0.2
0.8200000000000001
0.45
0.64
0.23
1.21
0.71
0.25
1.11
0.92
0.99
0.8200000000000001
0.56
0.79
1.07
0.0
0.64
1.04
0.8
0.08
1.18
0.12
0.13
0.9
0.28
0.64
0.79
0.65
0.03
1.18
0.25
0.67
0.81
0.0
1.21
0.51
0.72
0.76
1.1500000000000001
0.81
0.81
0.7000000000000001
1.2
0.75
0.1
0.11
0.41000000000000003
0.67
0.03
0.51
1.11
0.47000000000000003
1.12
0.86
0.16
0.45
0.37
0.92
0.78
0.87
0.54
0.66
0.41000000000000003
0.66
0.32
0.35000000000000003
0.02
1.1300000000000001
0.47000000000000003
0.88
0.72
0.68
0.75
0.0
1.27
1.12
0.15
0.91
0.79
0.39
0.97
1.01
0.41000000000000003
0.13
0.79
0.52
0.09
0.67
1.03
0.23
1.03
1.23
1.1400000000000001
1.25
0.04
1.26
1.24
0.64
0.36
0.59
1.19
0.4
1.1300000000000001
0.9400000000000001
0.73
1.1300000000000001
1.05
1.23
0.81
0.59
0.41000000000000003
0.55
0.6
0.12
1.0
0.6
0.88
1.07
0.86
0.34
0.23
0.8300000000000001
1.2
0.5700000000000001
0.02
0.78
0.1
0.32
0.67
1.11
0.84
0.03
0.6
0.12
0.09
0.43
1.03
1.1500000000000001
0.47000000000000003
0.48
0.5
0.64
0.28
0.24
1.07
0.17
1.06
0.27
0.89
0.31
0.36
0.97
1.1300000000000001
0.44
0.88
0.38
0.86
0.27
0.34
1.23
0.65
1.17
0.5700000000000001
0.54
0.13
0.66
0.1
0.61
1.22
0.7000000000000001
1.06
0.47000000000000003
0.47000000000000003
0.22
0.24
0.61
0.6900000000000001
0.05
0.07
0.67
1.1500000000000001
0.42
1.1400000000000001
0.85
0.25
0.81
0.01
0.5
1.06
0.49
0.17
0.1
0.08
0.81
1.06
0.72
0.1
0.16
1.24
0.35000000000000003
0.9400000000000001
0.06
1.0
0.64
0.42
0.67
1.21
0.61
1.11
0.64
0.91
0.25
1.1
0.91
1.0
0.78
0.08
0.93
1.08
0.13
0.9
0.8300000000000001
1.1300000000000001
0.81
0.22
0.9
0.51
1.08
0.6900000000000001
0.9
1.25
0.85
0.62
0.06
0.53
0.5
1.1500000000000001
0.28
1.04
1.03
0.78
0.93
0.07
0.88
1.07
0.84
0.56
0.14
0.77
1.1300000000000001
0.98
0.3
0.18
0.2
1.17
1.19
0.3
0.27
0.16
1.17
0.41000000000000003
0.2
1.25
0.65
0.77
0.01
0.45
0.96
0.5700000000000001
0.24
0.55
0.48
0.04
0.18
0.17
0.42
0.9500000000000001
1.1300000000000001
0.63
0.97
1.1400000000000001
0.6900000000000001
0.01
0.25
0.31
1.01
1.0
0.74
1.05
0.17
0.24
0.36
0.77
0.48
0.07
0.52
0.06
0.28
0.0
0.75
0.73
0.64
0.55
0.18
0.02
1.1500000000000001
0.99
0.23
0.24
1.1
0.76
1.05
1.1
0.3
1.22
0.08
0.39
0.6900000000000001
0.5700000000000001
0.01
0.16
0.87
0.56
1.1
1.18
0.32
0.07
0.6900000000000001
0.97
0.26
1.1500000000000001
0.8
0.17
0.8200000000000001
0.92
0.47000000000000003
0.14
0.4
0.12
0.84
0.19
0.74
0.87
0.35000000000000003
1.1300000000000001
1.08
0.2
1.09
0.74
0.47000000000000003
1.1500000000000001
0.98
0.68
0.5700000000000001
0.3
0.47000000000000003
0.01
0.1
0.04
0.85
1.24
0.37
0.2
0.08
0.04
0.06
1.26
0.55
0.31
0.16
0.26
0.16
1.1500000000000001
0.56
1.05
0.3
0.66
0.9500000000000001
0.89
0.5700000000000001
0.76
0.6
0.19
1.18
0.38
0.11
1.12
0.13
0.37
0.38
1.09
0.28
0.71
0.66
0.81
1.24
0.88
0.8
0.8200000000000001
0.09
1.25
1.06
0.4
0.24
0.5
1.25
0.05
0.53
0.51
1.25
0.08
1.26
0.89
1.08
0.0
1.02
0.25
1.07
0.9400000000000001
0.96
0.86
0.89
0.39
0.98
0.77
1.05
0.68
0.65
0.65
1.11
0.14
0.61
0.52
0.6
0.86
0.2
0.14
1.1500000000000001
0.54
0.48
0.43
1.07
1.26
1.1300000000000001
1.12
0.38
1.1300000000000001
0.28
0.28
0.56
1.1400000000000001
0.13
0.51
0.81
0.63
1.0
0.34
0.35000000000000003
0.8
0.03
0.92
0.6900000000000001
0.67
0.54
0.8
0.86
0.44
0.71
0.44
0.04
0.36
0.81
0.08
0.98
0.23
0.5700000000000001
0.49
0.22
0.46
0.66
0.88
0.53
0.56
0.67
0.22
0.07
0.19
0.96
0.64
0.43
0.92
0.5
1.01
0.4
0.08
0.06
0.04
0.71
0.66
1.01
0.18
0.3
0.75
0.48
0.77
1.09
0.1
0.88
1.17
0.02
0.81
0.74
0.8300000000000001
0.97
0.86
1.06
1.1
1.24
0.64
1.17
1.0
1.09
1.2
1.09
0.25
0.11
0.01
0.53
0.16
0.51
0.49
0.24
0.76
0.75
0.04
1.1300000000000001
1.21
0.14
0.17
1.26
1.11
0.28
0.04
1.03
0.24
0.56
1.1300000000000001
0.43
0.27
1.08
0.68
0.6
0.24
0.97
1.04
0.9
0.59
0.4
0.56
1.08
0.03
0.39
0.12
0.35000000000000003
0.77
0.88
0.88
0.15
0.12
1.06
0.3
0.15
0.37
0.14
0.66
0.21
0.38
0.09
0.47000000000000003
0.39
0.2
0.16
0.7000000000000001
0.41000000000000003
0.19
0.4
0.63
1.1500000000000001
0.48
0.45
0.55
0.55
0.98
1.25
1.17
0.71
0.73
0.99
0.25
1.1500000000000001
1.17
1.19
0.18
0.01
0.44
1.27
0.47000000000000003
0.44
0.51
0.56
0.73
0.8200000000000001
0.47000000000000003
0.2
1.26
0.56
0.79
1.24
0.18
0.0
1.23
0.62
0.05
0.32
0.53
0.71
0.36
0.27
1.05
0.32
0.96
0.87
1.1500000000000001
0.37
0.14
0.08
1.1400000000000001
0.16
1.25
1.06
0.04
0.01
0.93
1.17
1.26
1.25
0.8300000000000001
0.5
0.89
0.64
1.25
0.28
0.14
0.14
0.31
1.03
0.07
0.74
0.16
0.45
0.12
1.04
0.14
0.1
0.19
0.66
0.21
1.09
0.12
0.92
0.91
0.21
0.8
0.13
0.15
1.12
0.08
0.36
0.24
0.99
0.48
1.19
0.61
1.1
0.25
0.31
0.17
0.8300000000000001
0.68
0.99
1.1300000000000001
0.28
1.1400000000000001
0.27
0.59
1.09
1.11
0.54
1.12
1.2
0.99
1.1300000000000001
0.5700000000000001
1.02
0.61
0.0
1.04
0.62
0.87
1.1500000000000001
0.25
0.32
0.48
1.1300000000000001
0.9500000000000001
1.25
0.18
0.33
0.22
0.39
1.17
0.48
0.78
0.6900000000000001
0.37
0.38
0.68
0.26
0.54
0.24
1.19
0.9500000000000001
0.33
1.09
0.45
0.23
0.32
0.26
0.92
0.64
0.08
0.51
0.79
0.4
0.07
0.48
1.04
0.11
0.5700000000000001
0.44
0.62
0.37
0.36
1.21
0.17
0.35000000000000003
0.12
0.36
0.05
0.39
0.19
0.31
0.6
0.37
0.61
0.16
0.54
1.22
0.61
0.5
0.6
0.06
0.51
0.97
1.03
1.23
0.96
0.17
0.45
0.97
0.1
0.96
0.65
0.28
0.34
0.47000000000000003
0.88
0.4
0.97
0.8300000000000001
0.86
0.79
0.67
0.91
0.35000000000000003
0.01
1.22
0.66
0.27
1.1300000000000001
0.26
0.03
1.27
0.08
0.37
0.09
1.1300000000000001
0.2
0.91
1.24
0.91
0.4
0.72
0.78
0.8300000000000001
1.1400000000000001
0.87
0.22
1.07
1.21
1.24
0.8300000000000001
1.02
1.27
0.35000000000000003
0.4
0.04
0.46
0.76
0.8300000000000001
0.47000000000000003
0.23
1.24
0.96
0.65
0.41000000000000003
1.0
0.13
0.78
0.24
1.01
0.62
0.49
0.2
1.17
0.89
0.23
0.38
0.75
0.09
0.1
0.39
0.54
0.61
0.98
1.08
1.19
0.74
0.2
0.68
0.23
0.11
0.48
0.56
1.21
1.1
1.21
0.92
0.09
0.56
0.01
0.42
0.86
0.58
0.93
0.44
0.76
0.93
1.25
0.18
0.24
0.89
1.1400000000000001
1.22
0.85
0.9400000000000001
0.22
1.03
0.09
0.47000000000000003
0.77
0.08
0.2
0.97
0.39
1.05
0.88
0.98
0.61
0.66
0.46
1.17
1.1500000000000001
0.59
0.31
0.75
0.8200000000000001
1.1
1.27
0.88
0.22
0.6900000000000001
0.53
0.7000000000000001
0.13
0.41000000000000003
0.48
0.04
0.98
1.1300000000000001
1.03
1.04
1.17
0.77
0.51
0.06
0.15
0.73
0.5
1.26
0.29
0.63
0.74
0.15
1.11
0.26
0.6900000000000001
1.26
0.37
0.01
0.65
0.61
0.87
0.68
0.6900000000000001
1.07
0.75
0.05
1.27
0.8300000000000001
0.92
0.66
0.72
1.19
0.11
0.5700000000000001
0.98
0.36
0.28
0.84
0.39
0.73
0.8300000000000001
0.0
0.31
0.42
0.17
1.23
0.55
0.75
0.74
0.92
0.1
0.61
1.26
0.19
0.81
0.42
0.41000000000000003
1.1500000000000001
0.43
0.9500000000000001
0.41000000000000003
0.93
0.64
0.62
0.25
0.31
0.79
0.54
0.45
0.51
0.22
0.9500000000000001
0.63
0.8200000000000001
0.0
0.66
0.92
0.63
0.41000000000000003
0.25
0.09
0.7000000000000001
0.21
1.11
0.44
0.84
0.41000000000000003
0.8
0.32
0.4
1.03
0.18
0.91
0.5700000000000001
0.35000000000000003
0.59
0.37
0.14
0.38
0.64
0.97
0.02
0.08
0.98
0.61
0.11
1.03
0.72
1.21
0.63
0.8
0.9500000000000001
1.09
0.14
1.12
1.27
0.22
0.0
0.32
0.51
0.26
0.87
0.47000000000000003
1.2
0.34
0.09
0.81
1.0
0.6
1.25
1.19
0.33
0.58
0.01
0.63
0.08
0.51
0.8200000000000001
0.78
0.91
0.77
0.91
0.54
0.35000000000000003
0.21
0.52
0.15
0.34
0.09
0.84
0.52
0.19
0.67
0.75
0.22
0.79
0.37
0.8200000000000001
0.72
0.56
0.61
0.86
1.21
0.51
0.71
0.64
0.01
0.93
1.05
0.9
0.96
0.38
1.06
0.36
0.1
0.0
0.27
0.15
1.11
1.12
0.24
1.17
1.26
1.27
0.3
0.72
1.27
0.17
1.19
0.99
0.36
0.9500000000000001
0.22
1.01
0.15
0.51
0.52
0.9500000000000001
0.65
1.06
0.35000000000000003
0.9500000000000001
0.9
0.36
1.1300000000000001
0.78
0.22
0.9400000000000001
0.27
0.09
0.01
0.32
0.49
0.43
0.31
1.11
0.53
0.73
0.8200000000000001
1.2
0.33
0.34
0.28
0.61
0.74
0.68
1.09
0.28
0.09
0.8300000000000001
0.91
0.17
0.87
1.0
0.49
0.25
1.05
0.98
0.72
0.03
0.42
1.2
0.59
0.7000000000000001
0.99
1.26
1.1400000000000001
0.01
0.59
1.0
0.87
0.56
1.1300000000000001
0.8200000000000001
0.71
1.1300000000000001
0.56
0.6
0.6
0.78
0.68
0.53
0.34
0.73
0.9500000000000001
0.13
0.02
0.37
1.27
0.54
0.1
0.01
0.74
0.66
1.04
1.09
1.12
0.66
1.1300000000000001
1.09
0.05
1.0
0.44
0.79
0.44
0.22
0.72
0.28
0.85
0.77
0.66
0.98
1.18
1.21
0.72
0.99
0.23
1.1500000000000001
0.84
0.55
0.22
0.92
0.02
0.5700000000000001
0.65
0.64
0.54
0.26
0.98
0.13
0.96
0.68
0.08
0.9500000000000001
0.68
0.27
0.9500000000000001
0.56
0.05
1.0
1.04
1.23
1.26
0.43
0.27
0.28
0.15
0.18
0.6
1.27
0.05
0.52
0.17
0.93
0.42
0.49
0.16
0.04
1.06
1.24
1.11
0.8300000000000001
0.55
0.34
0.85
0.9
0.77
0.19
0.87
0.28
1.27
0.77
0.07
1.1400000000000001
1.1500000000000001
0.9400000000000001
0.53
0.11
0.36
1.1
0.97
1.08
0.25
0.25
0.36
0.23
0.12
0.68
0.89
1.25
0.11
0.79
0.48
0.37
0.23
0.64
1.11
0.22
0.92
0.51
0.62
1.1300000000000001
1.1500000000000001
1.03
1.17
0.35000000000000003
0.16
0.49
0.41000000000000003
1.18
0.65
0.32
0.36
0.8300000000000001
0.14
0.91
1.02
0.53
0.79
0.15
0.68
0.9
1.02
0.3
0.4
0.56
1.2
0.45
0.08
0.62
0.34
1.22
0.15
0.64
0.3
0.09
1.08
0.36
0.7000000000000001
0.0
0.38
0.5700000000000001
0.3
0.96
0.5700000000000001
0.76
1.26
0.63
0.19
0.09
0.12
0.23
0.41000000000000003
0.41000000000000003
0.0
0.92
0.4
0.1
0.56
1.21
0.31
0.73
1.23
1.09
0.4
0.05
0.12
0.18
0.68
1.25
0.64
0.96
0.99
0.84
1.27
0.34
0.55
0.12
0.16
0.35000000000000003
0.74
0.08
1.1
0.91
0.78
0.75
0.9500000000000001
0.97
0.48
0.77
1.23
0.41000000000000003
0.9400000000000001
0.72
0.29
0.8200000000000001
0.3
0.03
0.96
0.91
0.54
0.44
0.32
1.2
0.47000000000000003
0.26
0.9400000000000001
1.12
1.2
0.86
0.32
1.11
0.39
0.55
0.41000000000000003
0.18
0.6
0.16
0.5
0.4
0.59
0.02
1.07
0.9500000000000001
0.8200000000000001
0.89
1.25
1.02
0.02
0.27
0.11
0.09
1.1500000000000001
0.56
0.55
1.19
0.07
0.08
0.12
0.73
0.16
1.0
0.23
0.6
1.09
1.01
0.0
1.23
1.1300000000000001
0.04
0.09
0.9400000000000001
0.87
0.72
0.16
0.93
0.04
0.73
0.55
0.49
0.04
1.21
0.21
0.65
0.73
0.33
0.35000000000000003
1.1500000000000001
0.37
1.04
0.89
0.51
0.45
0.75
0.62
0.87
0.73
0.65
1.17
0.97
1.09
0.63
0.66
0.6
0.81
0.04
0.13
0.17
0.89
1.27
0.79
0.42
0.35000000000000003
0.25
0.22
0.07
0.38
0.78
1.03
0.52
0.32
0.14
0.75
1.12
0.36
0.05
1.07
0.47000000000000003
0.96
0.97
0.85
0.38
1.12
0.7000000000000001
0.68
0.03
0.46
0.76
0.14
1.25
1.0
0.92
0.6
0.37
0.99
0.01
1.09
0.33
0.02
0.3
0.88
0.35000000000000003
0.91
0.46
0.28
0.92
0.52
0.02
0.9
0.89
0.91
0.22
0.85
0.23
1.04
0.22
1.09
0.76
1.1500000000000001
1.19
0.32
0.8300000000000001
0.46
1.0
1.02
0.04
0.63
1.1500000000000001
1.22
0.98
0.32
0.6
0.43
0.96
0.43
0.28
0.99
0.9500000000000001
1.19
0.4
1.1300000000000001
0.51
0.8
0.41000000000000003
0.4
0.65
1.06
1.22
0.46
1.02
0.89
0.22
0.88
0.97
0.99
0.77
0.32
0.8200000000000001
0.15
0.11
0.27
0.22
0.74
0.04
0.37
1.02
1.12
1.22
0.64
0.39
0.24
1.24
0.6
0.04
0.84
0.84
0.76
0.81
0.24
0.6900000000000001
0.77
1.1
0.11
0.9400000000000001
0.02
0.19
0.97
1.2
0.88
0.28
0.59
0.79
1.24
0.87
0.78
0.31
0.75
0.64
0.61
0.38
0.78
1.0
0.75
0.16
1.18
0.02
0.61
0.6900000000000001
1.1
0.19
1.1400000000000001
1.2
0.5700000000000001
1.01
0.37
0.68
0.8200000000000001
0.78
1.18
0.68
1.17
0.68
0.0
0.77
1.0
1.04
0.88
1.24
0.72
0.0
0.07
0.4
1.03
0.48
1.1
1.19
0.41000000000000003
0.32
1.02
0.85
0.14
1.22
1.2
0.87
0.8200000000000001
0.51
0.42
0.86
1.2
0.06
0.45
1.17
1.19
0.4
0.5
1.01
0.18
1.18
0.97
0.81
0.88
0.74
1.22
0.58
0.1
0.81
1.1400000000000001
0.54
0.61
0.4
0.9
0.27
0.88
0.43
0.28
0.49
1.1400000000000001
0.53
1.1500000000000001
1.07
1.0
1.07
0.51
0.06
0.47000000000000003
0.9500000000000001
0.76
1.06
0.56
1.01
0.66
0.76
0.91
0.42
0.04
0.17
0.17
0.08
0.79
1.1500000000000001
1.02
1.01
0.05
0.77
0.51
1.2
0.87
