0.4
0.16
1.12
0.0
1.12
0.49
1.26
0.64
0.24
1.08
0.8
0.53
0.68
0.8200000000000001
0.11
1.08
1.16
0.62
0.23
0.63
0.04
0.59
1.22
0.9500000000000001
0.09
0.77
0.36
0.13
0.47000000000000003
1.05
0.35000000000000003
1.22
0.17
1.17
0.02
0.73
1.03
0.29
0.89
0.63
0.54
0.53
0.23
1.06
0.6
0.6900000000000001
0.18
0.6
0.9500000000000001
0.47000000000000003
0.45
0.63
1.17
0.65
0.44
0.47000000000000003
0.14
0.77
0.64
0.49
0.49
0.15
0.24
0.5700000000000001
1.18
0.17
1.25
0.37
0.87
0.41000000000000003
1.19
0.88
0.25
0.09
0.16
1.07
0.71
0.76
0.09
0.18
0.37
0.9500000000000001
1.12
0.6900000000000001
0.02
0.5700000000000001
0.98
0.52
0.37
0.8300000000000001
0.39
0.48
0.85
0.89
1.2
0.34
1.09
0.6900000000000001
0.3
0.63
1.12
1.17
0.0
0.55
0.61
1.03
0.04
1.26
1.1300000000000001
1.17
1.19
0.67
0.71
1.11
0.73
0.74
1.27
0.26
1.19
0.9
0.74
0.34
0.43
1.2
0.52
0.7000000000000001
1.1
0.67
1.1400000000000001
0.37
0.34
0.28
0.19
0.84
0.5700000000000001
0.99
0.68
0.86
0.16
0.9500000000000001
1.07
0.84
0.72
0.81
0.19
1.27
1.1
0.15
0.76
0.59
1.26
0.22
1.24
0.5700000000000001
0.91
0.48
0.72
0.85
0.93
0.64
0.0
1.0
0.37
0.45
1.06
0.2
0.8300000000000001
0.03
0.08
0.64
0.25
0.21
0.04
0.24
1.1500000000000001
0.87
0.23
0.54
0.73
1.22
0.86
0.45
0.99
0.75
0.35000000000000003
0.9
0.39
0.92
0.54
0.93
0.9
0.0
1.16
1.06
0.45
0.81
0.9
0.56
1.19
0.65
0.92
0.27
1.1300000000000001
0.32
0.2
1.1300000000000001
0.66
1.23
0.5700000000000001
0.11
0.75
0.07
0.46
0.18
0.39
0.74
0.53
0.39
0.5
1.19
1.19
0.51
0.35000000000000003
0.17
1.06
0.27
0.96
0.56
0.44
0.6900000000000001
1.07
1.22
0.04
1.03
0.18
0.39
0.8
1.1400000000000001
0.9400000000000001
1.1300000000000001
0.59
1.1
1.1400000000000001
0.56
0.98
0.05
0.96
1.1300000000000001
0.88
1.24
0.28
0.09
1.27
0.59
0.27
1.05
0.67
1.02
0.92
0.0
0.17
0.93
0.16
1.27
0.5700000000000001
0.54
1.1300000000000001
1.12
0.41000000000000003
0.84
0.8200000000000001
0.96
0.17
0.13
0.26
0.59
0.8200000000000001
0.33
0.02
0.02
0.84
1.24
0.19
1.06
0.09
0.81
0.04
0.31
1.19
0.76
1.1
0.51
0.5700000000000001
1.21
0.4
0.9
1.02
0.44
0.89
0.61
0.71
0.99
1.18
0.21
1.02
0.64
0.08
1.1400000000000001
0.58
0.33
0.67
1.03
0.05
0.67
0.61
0.05
0.0
0.53
0.6
1.2
0.24
0.0
0.76
0.66
0.09
0.55
0.17
0.25
0.93
0.25
0.35000000000000003
0.11
0.25
0.9
0.47000000000000003
0.16
0.46
0.72
0.65
0.34
0.12
0.53
0.67
0.17
1.0
1.05
1.19
0.25
1.25
1.1300000000000001
0.54
0.21
0.12
0.56
0.31
0.34
0.28
0.59
1.2
0.8
1.09
0.7000000000000001
0.52
0.75
0.65
0.64
0.79
1.0
1.06
0.01
0.03
0.64
1.25
0.45
1.26
0.33
0.66
0.44
1.03
0.55
1.0
0.22
0.08
0.51
0.48
1.12
0.5
0.6900000000000001
0.31
0.85
0.49
0.0
0.2
0.19
0.1
1.1300000000000001
1.26
0.45
0.71
0.48
0.64
1.26
0.1
0.34
0.61
1.12
0.39
0.13
0.09
0.72
0.74
1.22
0.1
1.1400000000000001
0.15
0.97
0.36
0.01
0.8200000000000001
0.63
0.72
0.6900000000000001
0.59
0.19
0.98
0.78
0.1
0.88
1.07
0.01
0.65
0.11
1.17
0.07
0.16
1.0
0.27
0.51
0.8200000000000001
0.84
0.9400000000000001
0.33
0.73
0.04
0.92
0.21
0.41000000000000003
0.76
0.6900000000000001
0.31
1.05
0.8
0.91
0.4
0.98
0.36
0.31
0.59
1.05
1.09
1.02
0.54
0.4
0.67
0.03
1.07
0.7000000000000001
1.04
0.72
0.66
0.37
0.18
1.0
0.35000000000000003
0.66
0.71
0.38
0.78
0.49
1.11
0.07
0.25
0.71
0.1
0.15
0.44
0.0
1.01
0.18
0.34
0.8200000000000001
0.49
1.22
0.3
0.18
1.06
0.23
0.15
0.02
0.33
0.75
0.65
1.21
0.49
0.91
1.12
0.9500000000000001
0.34
0.85
0.05
0.47000000000000003
1.26
0.43
0.32
1.04
0.17
0.9400000000000001
0.8200000000000001
0.99
0.41000000000000003
0.6900000000000001
0.03
0.64
0.16
0.32
0.06
0.4
0.75
0.51
0.61
0.31
0.32
0.63
0.35000000000000003
0.16
0.24
0.67
0.58
0.11
0.68
1.01
0.48
0.22
0.51
0.63
0.0
0.92
0.87
0.13
0.35000000000000003
0.89
0.39
0.08
0.38
1.21
0.0
1.22
1.1300000000000001
0.45
0.8200000000000001
0.92
0.23
1.12
0.62
0.22
1.18
0.52
0.43
1.05
0.43
1.09
0.65
0.91
0.54
0.8300000000000001
0.53
0.6
0.9400000000000001
0.01
0.35000000000000003
0.93
0.5
1.1500000000000001
0.63
0.3
0.21
1.09
0.16
0.33
0.92
0.27
0.34
0.56
0.4
0.53
0.41000000000000003
0.4
1.05
1.1300000000000001
0.15
0.15
1.1500000000000001
0.49
0.48
0.97
0.4
1.19
0.64
1.1300000000000001
1.1400000000000001
0.79
0.8300000000000001
0.46
0.08
0.92
0.87
1.0
0.29
0.34
1.1500000000000001
0.93
0.92
0.5
1.0
0.25
0.31
1.07
1.12
0.86
0.79
0.07
0.66
0.09
0.29
0.17
0.5
0.28
1.11
0.19
0.2
0.09
0.04
0.43
0.93
0.86
0.12
0.74
0.8300000000000001
0.38
0.75
0.1
1.07
0.34
1.21
0.01
0.86
1.08
0.5700000000000001
0.43
0.86
0.29
1.1400000000000001
1.21
0.07
0.75
1.19
0.85
0.9500000000000001
0.63
1.21
0.33
1.06
0.71
0.04
1.01
0.01
0.98
0.6
0.42
0.33
0.15
0.48
0.14
0.37
0.18
0.24
0.46
1.11
0.26
0.5
0.87
1.1400000000000001
1.1
0.96
0.9500000000000001
0.59
0.5700000000000001
0.16
0.74
1.1400000000000001
0.9500000000000001
0.42
1.0
0.7000000000000001
0.52
0.73
0.5700000000000001
0.59
0.75
0.88
0.05
0.55
0.39
0.9
0.21
0.48
0.78
0.74
0.75
0.51
0.11
0.37
0.75
1.18
0.26
1.01
1.1300000000000001
0.76
0.27
0.73
1.17
1.22
0.8300000000000001
0.27
0.27
0.9500000000000001
0.91
0.2
1.19
0.03
0.14
1.0
0.96
0.45
1.26
0.34
0.51
1.04
0.28
0.14
1.1300000000000001
0.33
0.36
0.8
0.73
0.68
0.1
0.86
1.04
0.63
0.55
0.73
1.1500000000000001
0.98
0.06
0.98
0.12
0.27
0.54
0.89
0.87
0.43
0.48
0.36
0.68
0.44
0.9
0.07
0.16
0.25
0.68
0.8
0.24
0.56
0.97
0.76
0.7000000000000001
0.43
1.24
0.49
0.06
0.5
0.22
0.67
0.6
1.25
0.52
0.8
0.03
0.8200000000000001
1.23
1.17
0.7000000000000001
0.21
0.29
0.88
1.23
0.16
1.07
0.66
0.34
1.2
0.61
0.44
0.45
0.14
0.07
1.09
0.86
1.05
0.93
0.07
1.1500000000000001
0.9500000000000001
0.48
1.1500000000000001
1.06
0.93
0.72
1.21
0.36
0.49
0.52
0.9400000000000001
0.28
0.77
1.07
0.06
0.68
0.43
0.87
0.6900000000000001
0.15
1.07
0.3
0.6
1.21
0.72
1.2
1.02
0.35000000000000003
0.49
1.27
0.09
0.49
0.67
0.42
1.1500000000000001
0.31
1.1
0.66
1.23
0.72
1.1500000000000001
1.1500000000000001
0.32
0.4
0.44
0.0
0.51
0.3
0.0
1.24
0.1
0.1
1.27
1.1500000000000001
0.2
0.24
0.02
0.02
0.54
1.09
0.39
0.31
0.26
0.26
0.6
1.11
0.67
1.19
0.37
1.21
1.05
0.41000000000000003
1.1400000000000001
0.8
0.09
1.21
0.51
0.7000000000000001
0.61
1.18
0.89
1.2
1.08
0.59
0.64
0.6
0.88
1.17
0.34
0.0
1.24
1.1300000000000001
0.02
0.7000000000000001
0.61
0.22
1.1300000000000001
0.77
1.25
0.9400000000000001
0.56
0.49
0.99
1.1
1.1500000000000001
0.9400000000000001
0.62
0.04
0.76
0.05
0.51
1.11
0.8
1.22
0.12
1.21
0.21
1.25
1.1300000000000001
0.8200000000000001
0.96
0.6900000000000001
0.35000000000000003
0.87
0.91
0.2
0.37
0.19
0.91
0.45
0.42
1.2
0.59
0.12
0.66
1.06
0.61
0.79
0.81
0.46
0.18
0.9400000000000001
0.71
0.92
1.25
0.04
0.32
0.15
0.78
0.18
0.05
0.65
0.18
1.11
0.8200000000000001
0.51
1.24
0.81
0.3
0.99
0.35000000000000003
0.12
1.22
1.09
0.32
0.88
0.18
1.06
0.51
0.24
0.97
0.54
0.38
0.14
1.2
0.9400000000000001
0.81
0.92
0.86
0.07
0.3
0.67
1.19
1.05
0.47000000000000003
0.9400000000000001
0.22
0.04
0.5
0.65
0.3
0.8200000000000001
1.0
0.78
1.1300000000000001
1.03
1.02
0.45
0.71
0.76
0.17
0.29
0.13
0.0
1.07
0.97
0.24
0.0
0.3
0.18
0.91
0.06
0.23
0.01
0.9500000000000001
1.0
0.22
1.19
0.76
0.77
0.79
0.66
0.11
0.89
1.1300000000000001
0.18
0.49
0.09
1.1
0.36
1.24
0.09
1.23
0.23
0.34
1.1500000000000001
1.03
1.01
1.1500000000000001
1.16
1.1300000000000001
0.08
0.19
1.26
0.0
0.47000000000000003
1.27
0.41000000000000003
0.86
0.3
0.9500000000000001
0.6
1.16
1.1400000000000001
1.04
0.23
0.64
0.56
1.27
0.97
0.34
1.1300000000000001
0.31
0.75
0.64
0.32
0.7000000000000001
0.51
0.93
0.48
0.53
1.22
0.28
0.37
0.74
0.46
0.9500000000000001
0.12
0.41000000000000003
0.56
0.61
0.23
0.0
1.19
0.9400000000000001
1.03
1.25
0.72
1.19
0.28
0.4
0.34
0.34
0.87
0.75
0.21
0.05
0.49
1.07
1.24
0.5700000000000001
0.65
0.17
0.13
0.8
0.45
0.17
1.21
0.53
0.2
0.93
0.9500000000000001
0.2
1.26
0.98
0.81
0.78
0.89
1.0
0.24
0.24
0.36
0.43
0.43
0.31
0.53
1.27
0.3
1.1
1.03
0.84
1.26
0.43
0.45
0.99
0.27
0.62
0.18
1.26
0.79
0.33
1.01
1.04
1.07
1.0
0.8300000000000001
0.46
0.08
0.24
1.12
0.3
0.12
1.06
1.04
0.79
0.58
0.54
0.05
0.88
0.51
0.22
1.18
1.11
1.1
0.32
0.08
0.54
0.26
0.35000000000000003
0.5700000000000001
0.66
0.04
1.27
1.01
0.16
1.12
0.17
0.15
0.03
0.1
0.3
0.4
0.85
0.8300000000000001
0.56
0.52
0.93
0.91
0.07
0.87
0.0
0.51
1.16
0.97
0.58
0.08
0.86
0.51
0.36
1.27
0.55
0.8200000000000001
1.11
0.21
0.53
0.73
0.39
0.64
0.6900000000000001
1.18
0.05
0.8
0.74
0.09
0.66
1.27
0.76
0.02
0.23
0.5700000000000001
0.11
0.46
0.38
0.13
0.89
0.53
1.22
0.84
0.11
1.25
1.1400000000000001
0.93
0.8
0.06
0.88
1.2
0.79
1.27
0.9500000000000001
0.76
0.49
1.11
0.17
0.33
0.36
0.35000000000000003
0.8300000000000001
0.09
0.87
0.07
0.34
0.74
1.1
0.91
0.54
1.25
0.49
0.86
0.49
1.09
0.34
1.2
0.59
1.23
0.87
0.9500000000000001
0.84
0.18
0.36
1.01
0.86
0.05
0.52
0.36
0.11
1.24
0.92
0.75
1.2
0.79
0.16
0.23
0.49
0.24
0.28
0.62
1.16
0.98
0.8200000000000001
0.26
0.33
0.47000000000000003
1.1400000000000001
0.64
1.2
0.5700000000000001
0.96
0.71
1.04
0.49
0.24
0.63
1.06
1.08
1.2
0.14
0.99
0.87
1.07
1.03
0.26
0.18
0.8
0.1
0.6900000000000001
0.49
1.24
0.54
0.52
0.71
0.78
1.17
0.66
1.09
0.86
1.18
1.09
0.52
0.76
0.9500000000000001
1.0
0.73
1.03
0.04
0.06
0.89
0.6
0.54
0.39
1.05
0.05
1.26
0.85
0.31
0.92
0.63
0.71
0.2
1.21
0.8300000000000001
0.71
0.77
0.25
0.65
0.65
1.23
1.01
0.84
0.91
0.45
0.36
0.08
1.25
0.38
0.36
0.9500000000000001
0.44
1.09
0.7000000000000001
0.42
0.85
0.9
0.14
1.05
1.08
1.1400000000000001
0.49
0.72
0.61
0.99
0.64
0.52
0.6
0.78
0.61
0.04
0.28
0.15
0.5
1.07
0.2
0.42
0.76
1.19
1.06
0.24
0.44
1.1300000000000001
0.67
0.98
0.1
0.48
1.21
1.06
0.46
0.67
0.75
1.12
0.5
0.4
0.67
0.49
1.1500000000000001
1.0
0.46
0.3
0.78
1.11
1.21
0.23
0.75
1.11
0.76
0.36
0.59
0.44
0.76
0.23
0.9
0.44
1.2
0.09
0.67
1.24
0.68
0.6900000000000001
0.71
0.8300000000000001
0.72
0.51
1.23
1.1500000000000001
0.73
0.87
1.26
0.99
0.3
0.8
0.55
0.6
1.12
0.91
0.46
0.89
1.02
0.55
1.1500000000000001
0.27
0.35000000000000003
0.66
1.18
0.92
0.45
1.05
0.49
1.27
0.34
0.43
0.55
0.1
0.28
0.05
0.06
0.21
0.51
1.08
0.19
0.2
0.59
0.06
0.19
0.16
1.03
1.16
0.8200000000000001
0.01
0.85
0.7000000000000001
0.32
1.24
1.08
1.1
0.92
0.31
0.9400000000000001
0.63
0.65
1.04
1.19
0.87
0.01
0.93
0.85
0.36
0.8
0.56
0.58
0.68
0.38
0.64
1.25
0.9500000000000001
0.07
0.55
0.04
0.62
0.27
0.24
0.3
1.01
1.09
1.04
0.28
0.56
0.27
0.84
0.66
0.9
0.12
0.64
0.61
0.71
0.97
1.03
1.05
0.22
0.63
0.51
0.09
0.07
0.74
1.22
0.81
0.66
0.59
0.22
0.8300000000000001
0.68
0.9
0.43
0.44
1.07
0.13
0.8300000000000001
0.79
0.36
1.09
1.23
0.34
0.6
0.64
0.91
0.73
1.01
1.09
0.19
0.5
0.61
0.4
0.43
0.78
0.15
0.85
0.85
1.06
0.63
0.9400000000000001
1.19
0.11
0.53
0.28
1.06
0.37
0.29
0.66
1.1500000000000001
0.08
1.24
1.02
0.5700000000000001
0.77
0.44
1.21
0.97
0.73
0.5700000000000001
1.03
0.0
0.72
1.08
0.93
0.17
1.11
0.24
0.01
0.14
0.44
0.27
0.18
1.16
0.21
0.78
0.41000000000000003
0.62
1.11
0.74
0.89
0.04
0.43
0.6
0.91
0.59
0.18
0.88
0.81
1.24
0.68
0.07
1.02
0.18
0.98
0.78
0.8300000000000001
0.85
0.3
0.5700000000000001
1.1400000000000001
0.93
1.0
0.31
0.27
0.9
0.17
0.62
1.06
1.02
1.19
0.44
0.62
1.09
1.24
0.79
1.1500000000000001
0.05
0.08
0.5700000000000001
0.24
0.58
0.72
1.0
0.2
1.21
1.01
0.28
0.74
0.91
0.8300000000000001
1.18
0.86
0.93
0.88
0.98
0.27
0.8
0.03
1.22
0.81
0.78
1.04
0.18
1.16
0.11
0.09
0.23
0.37
0.34
0.48
0.1
0.63
0.02
0.81
1.06
0.73
0.46
1.1300000000000001
0.79
0.2
0.6900000000000001
0.25
0.5700000000000001
0.16
0.79
0.53
0.48
0.22
1.03
1.12
0.44
0.91
0.38
0.12
0.25
0.65
0.9
0.8300000000000001
0.81
0.17
0.81
0.35000000000000003
0.16
0.09
0.23
0.33
0.38
0.68
0.8
0.31
0.93
0.49
0.9400000000000001
0.62
0.72
0.32
0.56
0.48
0.84
0.12
0.38
0.36
0.04
0.72
0.3
0.37
1.03
1.21
0.22
1.26
0.01
0.33
0.72
0.8200000000000001
1.22
0.25
0.8300000000000001
0.52
0.51
0.16
0.51
0.44
0.61
0.1
0.25
0.56
1.2
0.43
1.04
0.97
0.7000000000000001
0.6
0.6900000000000001
0.85
0.53
1.17
0.66
0.58
1.07
0.35000000000000003
0.77
1.19
0.91
0.85
0.38
0.06
1.1
0.28
1.0
0.84
0.87
0.34
0.31
0.31
1.21
0.79
0.4
0.93
0.68
0.24
0.23
0.31
0.39
1.17
0.13
0.76
0.63
0.02
0.96
1.1
1.2
0.14
0.2
0.2
0.7000000000000001
0.84
0.08
0.71
0.32
0.5700000000000001
0.3
0.89
0.48
0.79
0.88
0.6900000000000001
0.61
1.22
0.87
1.1500000000000001
0.79
1.27
0.37
0.59
1.06
0.0
0.09
0.61
1.05
1.1300000000000001
0.21
0.79
0.9400000000000001
0.18
0.34
0.46
1.09
0.39
0.32
0.65
0.99
0.98
0.64
0.73
0.53
0.49
0.52
1.27
0.91
0.71
0.8
0.1
0.27
0.06
0.22
0.6900000000000001
0.91
0.9400000000000001
1.04
0.91
1.02
0.27
0.59
0.39
0.76
0.01
0.2
0.17
0.19
0.37
0.32
0.89
0.93
0.66
0.14
0.9
0.6
0.73
0.24
0.27
0.74
0.19
0.49
0.14
0.31
0.19
0.43
0.71
0.88
1.22
0.38
0.37
1.1400000000000001
1.17
0.8200000000000001
0.61
0.25
0.38
1.2
0.48
0.61
1.27
1.07
1.11
1.03
0.39
0.25
0.44
0.16
0.65
0.65
0.93
0.29
0.21
0.61
1.26
0.45
0.96
0.84
0.34
0.24
1.17
1.26
0.34
0.13
0.88
0.6
0.84
0.16
0.3
1.08
1.25
1.1400000000000001
1.01
0.63
0.5700000000000001
0.86
0.41000000000000003
0.01
0.28
0.99
1.18
0.97
0.89
0.19
0.55
0.8200000000000001
1.1400000000000001
1.1300000000000001
0.72
0.19
1.19
0.35000000000000003
0.41000000000000003
0.6900000000000001
0.78
0.86
1.07
1.03
0.28
1.02
1.02
0.39
0.59
0.93
0.8300000000000001
0.92
0.31
0.46
0.87
0.76
1.05
0.56
0.1
0.36
0.5
0.11
0.0
1.1300000000000001
0.86
0.78
0.55
0.77
1.19
0.31
1.02
0.6900000000000001
0.96
0.8200000000000001
1.04
0.4
1.1300000000000001
0.9500000000000001
0.81
1.17
0.8200000000000001
1.09
0.89
0.42
1.1500000000000001
0.29
0.29
1.1400000000000001
0.25
0.13
0.54
0.53
0.8200000000000001
1.1300000000000001
1.12
0.59
0.7000000000000001
1.19
0.0
0.19
0.37
1.1400000000000001
0.55
0.13
0.9400000000000001
0.13
1.19
0.51
1.01
1.23
0.86
0.9
0.33
0.91
0.09
0.36
1.23
1.27
0.29
0.42
1.23
1.21
1.18
1.1300000000000001
1.25
0.13
0.93
1.1400000000000001
1.09
0.88
0.4
0.32
0.58
0.31
0.9
0.35000000000000003
0.92
1.0
0.76
1.05
0.64
0.03
1.07
0.75
1.18
1.27
1.16
1.03
0.6
1.07
0.02
0.84
1.17
0.13
0.34
1.25
1.25
0.04
1.1400000000000001
0.8
0.1
1.18
0.61
1.19
0.12
0.1
1.04
0.71
0.06
0.64
0.93
0.58
1.26
0.42
0.04
1.27
0.84
0.42
0.51
0.8200000000000001
1.03
0.56
0.71
0.14
0.27
0.01
0.92
0.7000000000000001
0.48
0.38
0.21
0.35000000000000003
0.99
0.47000000000000003
1.1500000000000001
0.49
1.16
0.7000000000000001
0.73
0.06
0.51
1.06
1.1300000000000001
0.49
0.97
0.65
0.21
0.81
0.29
0.38
0.52
0.03
1.09
0.59
0.58
0.3
0.0
0.52
0.01
0.98
0.0
1.03
0.08
0.23
1.1500000000000001
1.26
1.17
0.28
0.6
0.54
0.38
0.43
0.66
0.41000000000000003
0.58
0.35000000000000003
0.9400000000000001
1.22
0.9400000000000001
0.16
0.21
0.32
1.26
0.7000000000000001
0.22
0.53
0.3
0.97
0.6900000000000001
0.68
0.97
1.1
0.36
0.97
0.65
0.49
0.03
1.2
0.32
0.13
0.42
0.17
0.71
0.48
0.51
0.74
0.64
1.01
0.55
0.25
0.65
0.99
0.79
1.11
0.9500000000000001
0.8
0.02
1.21
0.7000000000000001
1.1500000000000001
1.03
0.38
0.67
0.62
0.5700000000000001
0.12
0.79
0.19
0.87
0.04
0.23
0.39
0.59
0.06
0.7000000000000001
1.21
1.22
0.46
0.07
1.04
0.38
0.72
1.1
0.9500000000000001
1.2
0.86
1.25
0.47000000000000003
1.2
1.08
0.15
0.75
0.98
1.01
0.19
0.36
0.38
0.18
0.42
1.22
0.28
0.11
0.47000000000000003
0.53
0.62
0.46
0.39
0.85
0.27
0.52
0.05
0.79
0.31
0.74
1.17
0.55
0.75
1.21
0.2
0.78
0.89
0.41000000000000003
0.12
1.11
0.97
0.8300000000000001
0.86
0.15
0.26
0.74
1.0
0.3
0.08
0.65
0.85
0.84
0.55
1.23
1.2
0.8200000000000001
1.16
0.53
0.49
0.8
0.08
1.03
1.12
0.75
0.91
0.72
0.99
0.71
0.46
0.89
0.04
0.46
1.27
1.16
0.39
0.8
0.15
0.34
0.92
0.44
0.88
0.28
0.34
0.5700000000000001
1.2
0.65
0.07
0.97
0.56
0.25
1.1
0.8300000000000001
0.18
0.41000000000000003
0.67
1.22
0.87
0.65
1.21
0.53
1.12
0.08
0.66
0.72
1.21
1.12
0.19
0.55
1.26
0.5700000000000001
0.19
0.47000000000000003
0.12
0.73
0.28
0.99
0.63
0.06
1.21
1.23
0.79
0.17
0.9400000000000001
1.04
1.1300000000000001
1.25
0.47000000000000003
1.18
0.64
0.87
0.23
0.64
0.59
0.66
0.18
1.08
0.89
0.06
1.16
0.14
0.37
0.4
0.71
0.39
0.37
0.19
0.02
0.51
0.66
1.24
0.41000000000000003
1.07
0.91
0.06
0.36
0.09
0.9500000000000001
0.45
0.41000000000000003
0.17
0.22
0.4
0.17
0.05
0.71
0.34
0.59
0.45
0.92
1.19
0.28
0.1
0.65
0.99
0.67
0.22
0.86
0.34
0.96
0.65
0.35000000000000003
0.59
1.06
0.27
0.6900000000000001
0.0
0.23
1.0
0.44
0.34
0.75
0.88
1.09
0.74
0.32
1.2
0.66
1.23
0.49
0.14
0.14
0.5
1.21
0.79
0.87
0.0
0.7000000000000001
0.45
0.21
1.16
0.91
0.67
0.51
0.49
0.05
0.3
0.55
1.16
1.0
1.02
1.03
0.06
0.07
0.53
0.72
1.08
0.29
1.23
0.9500000000000001
0.09
0.9
0.79
0.28
0.03
0.03
0.15
0.29
0.97
0.8200000000000001
0.01
1.07
0.92
1.05
0.41000000000000003
0.73
0.85
0.5700000000000001
1.1400000000000001
0.28
0.53
0.18
0.54
0.55
0.46
0.15
0.48
0.8200000000000001
0.6900000000000001
1.1
0.4
0.61
0.56
0.11
0.51
0.87
0.68
1.12
0.28
0.71
0.48
0.96
0.49
0.51
0.85
0.98
0.61
1.02
0.96
0.27
0.59
0.24
0.73
0.46
0.5700000000000001
1.27
0.6
0.14
0.05
0.68
0.51
0.17
1.23
0.49
0.98
0.53
0.07
0.81
1.1500000000000001
0.28
1.04
1.07
1.26
0.33
0.23
0.67
1.1500000000000001
0.11
0.35000000000000003
0.77
0.73
0.5700000000000001
0.15
1.07
0.84
0.66
0.55
1.07
0.63
0.3
0.8300000000000001
0.52
1.18
1.27
0.6
0.9
0.32
0.12
0.77
0.66
0.35000000000000003
0.51
1.21
0.36
1.03
0.9
0.66
0.48
0.7000000000000001
0.87
0.3
0.01
0.53
0.7000000000000001
0.66
1.06
0.29
0.18
0.02
0.25
0.48
0.37
1.01
0.3
0.49
0.79
0.75
0.25
0.43
0.96
0.23
1.23
0.74
0.55
1.02
0.59
1.16
0.68
0.38
0.84
0.15
1.12
1.18
0.88
0.56
0.39
0.52
0.13
0.71
0.46
0.08
0.26
0.92
1.11
0.99
0.59
0.65
0.8
0.67
1.06
1.1
1.1500000000000001
1.26
0.41000000000000003
1.04
1.0
0.21
1.1
0.73
0.18
0.11
0.55
1.1
0.11
0.8
0.93
0.77
1.17
0.78
1.1400000000000001
1.17
0.97
1.27
0.47000000000000003
0.29
0.72
0.32
0.53
0.23
0.91
0.08
0.38
0.64
0.7000000000000001
0.45
1.08
0.43
0.13
0.48
0.9
1.01
0.5700000000000001
1.05
1.1
1.03
0.38
0.41000000000000003
0.77
1.18
0.85
0.37
1.1500000000000001
0.9500000000000001
0.55
0.25
1.12
0.5
0.72
1.07
0.02
0.64
0.17
0.68
0.41000000000000003
1.11
0.59
0.55
0.98
0.4
1.02
0.88
0.26
0.74
0.53
0.96
0.6
0.52
0.45
1.01
0.49
0.86
0.34
0.35000000000000003
0.51
0.49
1.11
0.23
0.6
1.01
1.06
0.36
1.12
0.65
1.26
0.16
1.1300000000000001
0.53
1.17
0.86
1.24
0.09
0.88
0.23
0.48
0.71
0.58
0.49
0.9400000000000001
1.03
1.09
1.24
0.2
0.37
0.62
0.7000000000000001
1.06
0.02
0.4
0.4
0.63
0.77
0.51
0.14
0.37
0.65
0.2
0.1
1.1500000000000001
0.17
0.48
0.59
0.99
1.18
0.0
0.05
0.98
0.65
0.29
0.35000000000000003
0.6
1.1400000000000001
0.17
0.73
0.43
0.43
0.65
0.06
0.8300000000000001
0.88
0.3
0.68
0.33
0.24
0.37
1.2
0.6900000000000001
0.36
0.48
0.52
0.77
1.1500000000000001
1.1
1.04
1.19
0.45
0.09
0.6900000000000001
1.1400000000000001
0.97
1.22
0.75
0.53
0.01
0.87
0.08
0.24
0.29
1.1
0.26
1.26
0.23
0.24
0.8
0.11
0.72
0.85
0.04
0.73
0.81
0.58
0.14
0.58
0.44
1.24
0.96
1.01
1.04
0.8
0.75
0.5700000000000001
1.01
0.44
0.66
0.81
0.73
0.11
0.96
1.24
1.02
0.32
0.77
0.61
0.05
1.1400000000000001
1.0
0.91
0.48
1.1500000000000001
0.78
0.68
1.1
0.49
0.91
0.25
0.97
0.78
0.06
1.21
0.2
1.24
0.63
0.51
0.65
0.59
0.15
0.06
1.1300000000000001
0.46
0.22
0.22
0.27
1.1500000000000001
0.48
0.74
0.5700000000000001
0.03
0.5
0.79
0.9
0.67
0.56
0.63
0.6
1.1
1.08
0.41000000000000003
1.08
0.8300000000000001
0.35000000000000003
1.04
0.76
0.16
1.1500000000000001
0.41000000000000003
0.45
0.9
0.3
0.3
0.07
0.2
1.07
0.18
0.62
0.48
0.76
0.23
0.26
0.36
0.39
0.21
0.34
0.17
0.27
0.5700000000000001
0.59
0.8200000000000001
0.13
0.7000000000000001
0.39
0.48
0.34
1.24
1.1300000000000001
1.1500000000000001
0.31
0.9500000000000001
0.48
1.07
0.71
0.45
1.1400000000000001
0.14
0.52
0.09
1.1300000000000001
0.78
0.48
0.8300000000000001
0.46
1.02
0.73
0.34
0.73
0.66
0.75
0.8300000000000001
0.08
0.39
0.11
0.12
0.18
0.12
0.46
0.81
0.8300000000000001
1.1500000000000001
0.62
0.18
0.9400000000000001
0.5700000000000001
0.48
0.6900000000000001
0.51
0.8300000000000001
0.03
1.06
0.77
1.17
1.19
0.24
0.32
1.23
0.73
1.17
0.6900000000000001
0.45
0.75
0.67
1.2
1.26
0.2
0.44
0.8200000000000001
0.41000000000000003
0.22
0.92
0.04
0.8
1.05
0.31
0.78
1.0
0.75
0.5
0.16
0.62
0.8
0.85
0.34
0.8300000000000001
0.24
0.55
0.07
0.27
0.72
1.21
0.06
0.89
0.97
0.43
0.73
0.34
0.02
0.45
0.64
0.21
0.79
0.65
0.58
0.24
0.02
0.31
1.05
0.99
0.18
1.19
1.06
0.1
0.74
0.6
1.07
0.68
1.12
0.65
1.24
0.85
0.37
0.8300000000000001
1.02
0.9400000000000001
0.92
0.47000000000000003
0.37
1.2
0.68
0.17
0.34
0.51
1.1500000000000001
0.86
0.4
0.5700000000000001
0.29
1.1500000000000001
0.49
0.6
0.12
0.09
1.05
0.64
1.08
0.17
0.6
0.74
0.53
1.02
0.6900000000000001
0.5700000000000001
1.1300000000000001
0.32
0.8300000000000001
0.07
1.1500000000000001
0.8300000000000001
1.07
0.54
0.62
0.35000000000000003
0.25
1.18
0.34
0.4
0.44
0.62
1.11
0.35000000000000003
0.51
1.16
0.77
0.14
0.54
0.59
1.1300000000000001
0.2
0.99
0.28
0.63
0.09
1.21
1.17
1.2
1.1300000000000001
0.68
0.3
0.6900000000000001
1.24
0.62
1.23
0.42
0.91
1.1500000000000001
0.79
0.9500000000000001
0.52
0.67
0.24
1.17
1.1500000000000001
0.07
1.17
0.2
0.65
1.25
0.27
0.24
0.49
0.18
0.35000000000000003
0.9400000000000001
0.3
0.54
0.8
0.44
0.47000000000000003
0.55
1.1
0.97
0.79
0.49
0.55
1.07
0.49
1.26
0.17
0.59
1.1500000000000001
1.01
0.05
0.7000000000000001
0.37
0.5
0.53
0.42
0.01
1.05
0.4
1.05
0.13
1.25
0.89
0.65
0.53
1.19
0.77
0.5
0.66
0.9
1.22
0.31
0.59
0.68
0.49
0.5
0.08
0.14
0.77
0.99
0.14
0.66
0.4
0.54
0.7000000000000001
0.1
1.02
0.29
1.21
0.8200000000000001
1.04
1.1300000000000001
1.11
0.62
0.86
0.96
0.84
0.49
0.48
0.46
0.77
0.52
0.78
0.35000000000000003
0.91
0.55
0.78
0.13
0.01
0.99
1.24
0.12
0.9500000000000001
0.44
0.71
0.16
0.66
0.67
0.68
0.27
0.63
0.17
0.39
0.8
0.1
0.59
1.09
0.11
0.96
0.8300000000000001
0.9500000000000001
0.81
0.03
1.12
1.16
0.89
0.35000000000000003
0.41000000000000003
0.91
0.49
0.4
0.99
0.21
1.19
1.02
1.12
0.17
0.97
1.1400000000000001
0.05
0.38
0.28
0.86
0.08
0.39
1.08
1.2
0.35000000000000003
0.46
1.1500000000000001
0.55
0.5
0.12
0.43
0.25
1.1500000000000001
1.1400000000000001
0.07
0.24
0.68
0.04
0.28
0.62
0.24
0.67
0.6
0.0
0.6
0.43
0.36
0.92
0.78
0.81
0.8
0.17
0.73
0.21
1.2
0.59
0.26
0.41000000000000003
0.9400000000000001
0.56
1.01
1.07
0.67
0.23
0.07
1.1500000000000001
0.31
1.1400000000000001
1.0
0.1
0.67
0.98
0.23
0.06
0.8
1.11
1.12
0.11
0.8
0.38
0.33
0.67
0.64
0.15
1.03
0.74
1.01
1.24
0.8
0.84
1.07
0.33
0.8300000000000001
0.59
0.12
0.48
0.44
0.93
0.14
0.0
0.5
0.42
0.11
1.11
0.34
1.07
0.7000000000000001
1.08
0.6
0.35000000000000003
1.21
0.87
1.11
0.08
1.08
0.79
1.1500000000000001
0.07
0.72
0.33
1.02
1.25
0.19
0.51
0.17
0.59
0.93
0.8300000000000001
1.0
0.11
0.65
1.24
1.17
1.09
1.21
0.51
0.6
0.75
0.19
0.07
0.49
0.04
0.6900000000000001
1.27
0.31
0.35000000000000003
0.11
1.23
0.02
1.17
1.17
0.44
0.32
0.25
1.05
1.24
1.2
0.97
0.34
0.96
1.0
1.24
0.64
0.08
1.04
0.13
1.11
0.29
0.25
0.14
0.6900000000000001
0.67
0.72
1.0
0.85
0.37
0.99
0.98
0.68
0.44
0.11
0.2
1.12
0.37
1.04
0.93
1.23
0.39
0.96
0.58
0.84
0.44
0.44
0.52
0.12
0.5700000000000001
0.92
0.67
0.34
0.22
1.09
1.22
0.71
0.87
1.1300000000000001
0.11
1.11
0.89
0.92
1.05
0.06
0.63
0.24
0.56
0.79
0.41000000000000003
0.07
0.3
0.45
0.18
1.1400000000000001
0.66
1.01
0.49
1.08
1.03
0.76
0.71
0.09
0.05
0.24
0.93
0.59
0.84
0.5
0.54
1.22
0.44
1.1400000000000001
0.04
1.18
0.3
0.51
1.09
0.16
0.6
0.02
0.04
0.2
0.9400000000000001
0.21
0.18
1.22
1.11
0.92
0.84
0.79
0.19
0.5
0.06
0.4
0.73
0.52
0.05
1.26
0.0
0.15
0.84
0.9
0.5700000000000001
0.8300000000000001
0.79
1.03
0.6
1.04
0.02
1.26
0.81
0.1
1.1
0.81
0.47000000000000003
0.92
1.05
0.8200000000000001
0.42
0.74
0.05
0.53
0.14
0.7000000000000001
0.8200000000000001
0.28
0.59
0.34
0.17
0.76
1.01
1.17
0.08
0.61
0.34
0.36
0.9500000000000001
0.35000000000000003
1.1300000000000001
1.21
0.8300000000000001
1.23
0.27
0.22
0.41000000000000003
0.41000000000000003
0.42
0.5700000000000001
0.64
0.75
0.59
0.96
0.98
0.39
0.44
0.23
1.27
0.49
1.25
1.12
1.12
0.45
0.2
0.78
1.04
1.22
0.73
0.72
0.25
0.28
0.13
0.06
1.03
0.9
1.23
0.11
0.71
0.84
1.1300000000000001
1.05
0.5700000000000001
0.41000000000000003
0.48
0.99
0.7000000000000001
0.47000000000000003
0.59
0.54
0.35000000000000003
0.89
0.15
0.59
0.64
1.05
1.21
0.74
0.81
0.46
0.8300000000000001
0.0
0.71
0.96
1.07
0.78
1.05
0.08
0.05
0.8300000000000001
0.86
1.24
0.05
1.1300000000000001
0.25
0.31
0.27
1.11
0.45
0.86
1.21
0.73
0.39
0.28
0.47000000000000003
0.0
1.0
0.75
0.9400000000000001
0.33
0.17
0.5700000000000001
0.44
0.6900000000000001
0.35000000000000003
0.48
0.75
0.03
0.65
0.14
0.9
0.12
0.48
0.29
0.11
0.31
0.91
0.43
0.73
1.16
0.84
0.7000000000000001
1.0
0.86
1.24
0.49
0.74
0.15
0.5700000000000001
0.72
0.6900000000000001
0.63
0.46
0.59
0.66
0.64
0.08
0.33
0.4
1.1400000000000001
0.75
0.15
0.89
1.05
0.07
0.88
0.14
0.59
1.21
0.05
0.25
0.03
0.89
1.07
1.11
0.9400000000000001
1.22
0.68
0.0
0.98
0.01
0.54
0.52
0.49
0.5700000000000001
0.32
0.3
0.78
0.06
0.63
0.93
0.74
1.08
0.38
0.6900000000000001
1.01
0.38
0.47000000000000003
0.54
0.2
1.21
0.86
0.42
0.99
0.25
0.62
0.26
1.01
0.6900000000000001
1.1300000000000001
0.77
0.67
0.63
0.61
0.8300000000000001
0.16
0.14
1.06
0.04
0.16
0.73
1.03
0.6900000000000001
0.71
0.05
0.89
0.36
1.23
0.76
0.55
0.35000000000000003
0.35000000000000003
0.9
0.5700000000000001
0.89
0.22
1.1500000000000001
1.04
0.61
0.99
0.46
0.54
0.87
0.27
0.66
0.32
0.38
0.9400000000000001
0.89
0.48
1.2
0.09
1.05
0.01
0.61
0.25
1.06
0.6900000000000001
0.15
1.25
0.01
1.08
0.01
0.16
0.86
0.8200000000000001
0.92
0.15
1.1500000000000001
0.6900000000000001
0.63
0.49
0.98
0.36
0.14
1.18
0.47000000000000003
0.13
0.86
1.12
1.2
1.25
0.5
0.08
0.99
1.1300000000000001
0.21
1.1
0.74
0.91
1.26
0.26
1.22
0.1
0.25
0.59
0.24
0.81
0.75
1.19
0.53
1.21
0.63
0.51
1.25
0.36
0.6
0.31
1.08
0.04
0.9500000000000001
0.81
0.86
0.15
0.99
0.27
0.23
0.54
0.72
0.27
0.73
0.78
0.2
0.8300000000000001
0.84
1.1500000000000001
0.91
0.5700000000000001
1.21
0.19
1.03
0.17
0.88
0.17
0.9400000000000001
0.24
0.49
0.62
0.52
0.56
1.25
0.22
0.44
0.38
1.1300000000000001
0.49
0.98
1.26
0.2
0.14
0.44
0.67
0.03
0.2
0.42
1.21
1.24
0.51
0.37
0.7000000000000001
0.35000000000000003
0.44
0.6900000000000001
0.9500000000000001
0.05
1.1400000000000001
0.48
0.42
0.61
1.12
0.5
0.39
0.9400000000000001
0.08
0.42
1.2
0.5
0.79
0.46
1.05
0.21
1.1500000000000001
1.22
0.01
0.38
1.27
0.91
1.05
1.1500000000000001
1.04
0.9400000000000001
0.99
1.07
1.1500000000000001
0.35000000000000003
0.16
0.87
0.99
0.33
0.09
0.9400000000000001
0.93
0.37
0.79
1.06
0.8200000000000001
0.88
1.19
0.6
0.8300000000000001
0.55
0.17
0.47000000000000003
0.73
0.41000000000000003
0.55
0.55
0.28
0.99
0.3
1.1400000000000001
1.07
0.16
0.2
0.96
0.76
0.89
0.33
0.26
0.27
0.76
0.05
0.7000000000000001
1.06
1.1
0.65
0.08
0.16
0.9
0.1
0.22
0.3
0.6
0.85
0.59
0.93
0.91
0.35000000000000003
1.04
0.16
0.37
0.08
1.26
0.08
0.99
0.84
1.26
0.08
0.34
1.06
0.42
0.86
0.98
1.0
0.79
1.1500000000000001
0.11
0.71
0.8
0.14
0.31
0.49
0.86
0.14
0.15
0.12
0.28
0.62
0.03
1.18
0.58
0.7000000000000001
0.16
1.05
1.26
0.6
0.71
0.8200000000000001
0.85
0.59
0.32
0.71
0.59
0.97
0.93
1.27
1.04
1.07
0.63
0.91
0.9
0.76
0.16
0.6900000000000001
0.27
0.5700000000000001
1.0
0.78
0.16
0.78
1.19
0.72
0.51
0.91
1.17
1.02
0.86
0.9
0.36
0.77
0.36
0.01
1.25
0.54
0.92
1.03
0.53
0.7000000000000001
0.09
0.37
0.5
0.9500000000000001
0.5700000000000001
0.59
0.53
0.24
0.33
0.55
1.08
0.33
1.22
1.11
1.04
0.5700000000000001
1.19
0.14
0.5
0.63
1.07
0.93
1.02
0.47000000000000003
1.27
0.71
0.79
0.53
0.77
1.21
0.5
0.28
0.09
1.1400000000000001
0.99
0.29
0.24
0.6
0.03
1.05
0.43
0.72
0.08
0.46
0.76
0.61
1.12
0.99
1.22
0.98
1.05
0.72
0.54
0.09
0.36
0.68
0.47000000000000003
0.9
0.31
0.32
0.5700000000000001
0.89
0.45
1.25
0.17
0.64
1.23
0.5700000000000001
0.1
1.1
0.56
0.93
0.96
1.11
1.18
0.33
0.67
1.18
0.75
1.0
0.52
0.17
0.6
0.41000000000000003
1.21
0.81
0.89
0.08
0.8
0.27
1.06
0.15
0.93
0.15
0.6
0.36
0.5
1.21
1.26
0.72
0.49
0.2
0.65
1.1400000000000001
0.85
0.46
0.99
0.53
1.16
0.8200000000000001
0.1
1.05
0.54
0.18
0.85
0.67
0.19
0.45
1.02
0.6900000000000001
1.19
1.03
1.19
0.16
0.2
1.26
0.8200000000000001
0.59
1.16
1.11
0.25
0.04
1.03
1.07
0.72
0.59
0.81
0.8200000000000001
1.03
0.12
0.01
1.23
1.04
0.26
0.28
0.5700000000000001
0.59
1.11
0.9500000000000001
0.09
0.25
1.08
0.45
0.15
0.68
0.87
0.35000000000000003
0.58
1.1400000000000001
0.62
0.46
1.2
0.89
0.85
0.49
0.59
1.01
1.06
0.73
0.55
0.62
0.51
0.49
0.3
0.1
0.14
0.89
0.88
0.52
0.48
1.26
0.61
0.53
0.9500000000000001
0.14
0.98
1.21
0.78
1.07
0.86
0.12
0.61
1.08
0.18
0.33
0.15
0.76
0.73
0.81
0.18
0.89
0.98
1.1300000000000001
0.73
0.49
0.86
1.1300000000000001
1.12
0.08
0.9500000000000001
0.75
0.12
1.04
0.26
0.71
1.04
0.93
1.23
0.01
0.8200000000000001
0.17
0.02
0.74
0.88
0.52
0.45
0.88
0.78
0.13
0.21
0.6900000000000001
0.71
0.8300000000000001
0.47000000000000003
0.49
0.52
0.66
0.12
0.89
1.02
0.18
0.88
0.72
0.33
0.24
0.01
1.04
0.97
0.13
0.07
1.1500000000000001
0.19
0.26
0.14
0.91
0.41000000000000003
0.91
0.02
0.85
0.22
0.31
1.26
0.71
0.1
0.87
0.9400000000000001
0.02
0.53
0.05
1.1500000000000001
0.11
0.86
0.05
0.9400000000000001
0.75
0.25
1.17
0.35000000000000003
0.24
0.53
1.27
1.1300000000000001
0.5700000000000001
1.1
1.1400000000000001
1.21
0.5
0.14
1.1500000000000001
0.99
0.76
0.31
0.55
0.19
0.38
0.9400000000000001
0.59
0.65
0.17
1.02
0.75
1.1
0.39
1.19
0.39
0.1
1.0
0.58
0.7000000000000001
1.1400000000000001
0.8
0.09
0.65
0.05
0.85
1.1300000000000001
0.79
0.45
0.92
1.04
0.24
1.11
0.61
0.67
0.12
0.7000000000000001
0.92
1.07
0.92
0.4
0.41000000000000003
1.1400000000000001
1.24
0.32
0.19
0.41000000000000003
0.28
1.08
0.9400000000000001
0.77
1.18
0.91
0.4
0.05
0.42
0.91
0.35000000000000003
0.55
1.02
0.92
0.92
1.24
0.67
0.37
0.08
0.92
0.0
1.06
1.26
0.25
0.09
1.1500000000000001
0.38
1.09
0.14
1.12
1.18
0.18
0.7000000000000001
0.71
0.51
0.59
1.23
0.56
1.03
0.55
0.8
0.15
0.96
1.11
0.25
0.28
0.9500000000000001
0.85
0.24
0.38
0.68
1.02
0.9500000000000001
0.7000000000000001
0.14
0.8300000000000001
0.6
0.52
0.47000000000000003
0.56
0.43
0.43
0.08
0.18
0.9
1.24
0.59
0.09
0.66
0.81
0.05
1.04
0.25
0.72
0.63
0.79
0.91
0.93
1.27
1.01
0.02
0.17
0.39
0.34
0.9500000000000001
1.26
1.23
1.17
0.9500000000000001
0.88
0.05
0.09
0.44
0.01
0.1
0.49
1.1300000000000001
0.5700000000000001
0.53
1.26
0.32
0.72
0.22
0.66
0.73
0.93
0.04
1.1500000000000001
0.6
0.15
0.9400000000000001
0.9500000000000001
0.21
0.49
0.72
1.1
0.26
1.11
0.8200000000000001
0.0
0.78
1.1500000000000001
0.16
0.9
0.17
0.16
0.52
0.51
0.23
0.62
1.1400000000000001
0.81
0.14
0.11
0.09
0.14
0.33
0.9
0.44
0.79
1.0
1.16
0.8300000000000001
1.03
1.1300000000000001
0.9500000000000001
1.26
1.24
0.51
1.1500000000000001
0.97
0.72
1.03
0.25
0.48
0.33
0.37
0.52
0.71
0.17
0.39
0.24
1.2
0.0
1.03
1.23
0.47000000000000003
0.07
0.5700000000000001
0.47000000000000003
0.43
1.1300000000000001
0.79
0.06
0.41000000000000003
1.1500000000000001
0.16
0.39
0.61
0.3
0.05
0.89
0.26
1.2
0.67
0.53
0.28
0.79
0.61
0.24
1.02
0.64
0.4
0.32
0.97
0.62
0.78
0.44
0.92
1.23
1.11
0.38
1.17
0.61
0.37
0.4
0.45
0.8
0.01
0.1
0.9500000000000001
0.8200000000000001
1.1400000000000001
0.13
0.6
0.14
0.3
0.34
1.07
0.44
0.1
0.58
0.93
0.51
0.38
1.07
1.05
1.27
0.65
1.1300000000000001
0.3
0.88
0.33
0.6900000000000001
0.52
0.0
1.12
0.66
1.21
0.9500000000000001
1.02
0.28
0.24
0.49
0.1
1.27
0.28
0.32
0.56
0.16
0.48
0.62
0.16
1.04
0.4
1.02
0.49
0.71
0.85
0.21
0.73
0.86
0.74
0.91
0.24
0.6
0.11
0.93
1.1400000000000001
0.7000000000000001
0.15
0.73
1.04
0.61
1.04
0.74
0.49
0.9400000000000001
0.55
0.81
0.46
0.61
0.8
0.9400000000000001
0.01
0.6
0.26
0.38
0.52
0.54
0.5
0.3
0.49
1.22
0.17
1.22
0.7000000000000001
0.44
1.08
0.19
0.31
0.46
0.01
1.27
0.34
0.42
0.02
0.65
0.44
0.11
0.17
0.14
0.72
0.31
0.99
0.31
0.35000000000000003
0.21
0.97
1.2
0.53
0.34
0.75
0.49
0.49
0.59
0.03
1.03
0.05
0.97
0.06
1.05
0.12
0.81
1.21
0.98
1.01
1.09
0.96
0.63
1.07
1.09
0.27
0.48
0.3
0.8200000000000001
0.6900000000000001
0.35000000000000003
0.48
0.26
1.06
0.34
0.72
0.98
0.26
0.1
0.21
0.43
0.59
1.24
0.79
0.72
0.48
0.35000000000000003
0.65
0.39
0.59
0.67
0.8
1.26
0.7000000000000001
1.23
1.0
0.3
1.1500000000000001
0.5700000000000001
1.07
1.1300000000000001
1.05
1.16
0.14
0.65
0.28
0.52
0.5700000000000001
0.73
1.22
0.74
0.8200000000000001
0.6900000000000001
1.23
0.07
0.16
0.16
0.09
1.17
1.21
0.84
0.56
0.78
0.0
0.59
0.59
1.16
0.37
0.84
0.38
0.9500000000000001
1.21
1.1300000000000001
0.89
0.09
0.76
0.45
0.04
0.08
0.62
0.02
1.17
0.27
1.26
0.55
0.58
0.71
0.96
0.39
0.23
1.25
0.17
0.1
0.8200000000000001
1.06
0.68
0.03
0.67
0.26
0.9500000000000001
0.66
0.37
0.34
0.47000000000000003
0.81
0.88
0.11
0.37
0.48
0.77
0.38
0.09
1.03
0.28
0.6
0.86
0.43
1.07
1.21
0.55
1.05
0.13
0.34
0.31
0.02
0.4
1.1300000000000001
1.12
0.29
0.89
1.1300000000000001
1.02
0.86
0.44
1.01
1.18
1.09
0.4
0.7000000000000001
0.24
0.7000000000000001
0.55
0.86
0.01
0.96
0.31
0.64
0.12
0.59
1.23
0.07
1.02
0.65
0.84
0.67
1.05
0.72
0.42
0.34
0.23
0.85
0.54
0.72
0.68
0.75
0.64
1.11
0.27
0.67
1.19
0.52
0.6
0.99
1.22
0.8200000000000001
0.61
1.24
0.42
0.77
1.2
1.1300000000000001
0.7000000000000001
0.15
0.4
1.2
0.07
0.49
1.02
0.28
0.73
1.24
1.1
0.7000000000000001
1.11
0.1
0.47000000000000003
0.11
1.24
0.99
0.89
0.87
0.81
0.85
1.19
0.99
0.34
0.6900000000000001
0.28
0.06
1.25
0.18
0.89
0.37
0.03
1.08
0.48
1.08
0.96
0.26
1.09
0.03
0.41000000000000003
0.84
0.99
0.4
0.99
0.87
0.64
0.33
0.67
1.02
0.8200000000000001
0.9
0.98
0.61
0.18
0.68
0.74
0.67
0.5700000000000001
0.11
0.61
0.21
0.61
0.1
1.09
0.8
0.9500000000000001
1.25
0.77
0.01
0.88
0.54
0.71
0.9400000000000001
0.62
0.56
0.19
0.97
0.08
0.6900000000000001
1.17
1.03
0.9500000000000001
0.1
0.56
0.12
0.74
0.9
0.03
0.29
0.3
0.44
0.62
1.1500000000000001
0.43
0.6900000000000001
0.54
0.03
1.1300000000000001
1.12
0.59
1.0
0.02
1.21
0.24
0.71
0.89
0.35000000000000003
0.75
1.1300000000000001
0.84
0.18
1.1300000000000001
0.47000000000000003
1.08
0.62
1.2
0.2
0.63
1.02
1.22
1.12
1.0
1.25
0.71
0.8200000000000001
0.32
0.76
0.36
0.5
0.8300000000000001
1.26
1.12
0.91
0.23
0.01
0.55
0.27
1.07
0.06
0.81
0.18
0.29
0.34
0.43
1.19
0.77
0.8200000000000001
1.2
0.16
0.41000000000000003
1.09
0.56
0.28
0.04
0.9500000000000001
1.23
0.18
1.23
1.12
0.33
0.8
0.61
1.02
0.0
0.9
0.8300000000000001
0.27
0.62
1.1500000000000001
0.87
0.28
1.12
0.29
0.59
0.43
0.88
0.51
1.19
0.66
0.23
0.15
0.45
0.74
0.79
0.5700000000000001
0.75
1.11
0.08
0.93
0.45
0.9
0.96
0.89
0.0
0.8
0.52
0.15
0.25
0.76
0.38
0.2
0.13
1.07
0.52
0.04
0.8
1.27
0.56
0.33
1.03
0.54
0.35000000000000003
0.01
0.15
0.73
0.98
0.97
0.6
0.54
1.06
0.38
0.24
0.3
0.56
1.06
0.76
0.17
0.01
0.03
0.63
0.5700000000000001
0.1
0.12
0.2
0.75
0.56
0.5700000000000001
0.6
0.06
0.04
0.31
0.05
0.8
0.65
1.1400000000000001
0.43
0.21
0.66
0.86
0.0
0.09
0.53
0.91
0.26
0.76
0.26
0.03
0.43
0.2
0.9500000000000001
0.27
1.2
0.88
0.53
0.16
0.8300000000000001
1.22
1.02
0.07
0.91
0.11
1.1500000000000001
0.15
0.73
0.68
0.7000000000000001
0.32
0.28
0.87
0.73
0.49
0.32
0.16
0.06
0.12
0.76
0.11
1.03
1.0
0.51
1.21
0.46
0.39
0.74
1.27
0.13
0.23
1.27
0.96
0.38
0.5
0.93
1.1500000000000001
1.1500000000000001
0.4
0.47000000000000003
0.21
0.15
0.33
0.26
0.63
1.26
0.38
0.73
1.06
0.7000000000000001
0.19
0.23
1.03
0.27
1.1400000000000001
0.06
0.8200000000000001
0.41000000000000003
1.1
0.66
0.63
1.2
0.42
0.37
1.16
0.6900000000000001
0.5700000000000001
0.31
0.87
0.6
0.04
0.41000000000000003
0.26
0.56
0.68
0.25
0.7000000000000001
0.5700000000000001
0.88
0.88
0.32
0.89
0.72
0.96
1.22
0.25
1.1400000000000001
0.9
1.23
0.41000000000000003
0.99
1.2
0.43
0.91
0.4
1.07
0.16
0.97
1.1300000000000001
0.37
0.0
0.5700000000000001
1.17
0.88
0.84
0.28
0.31
0.87
0.93
0.42
0.9400000000000001
0.38
0.19
0.39
1.05
0.86
1.17
0.8200000000000001
0.12
1.12
0.2
1.2
0.67
0.16
0.98
1.08
0.55
0.03
0.43
1.07
0.67
0.05
0.54
1.07
1.03
0.14
0.61
1.22
0.33
0.51
0.62
0.43
0.24
0.68
0.52
0.97
1.26
1.11
1.27
0.66
0.24
0.35000000000000003
0.87
1.1400000000000001
0.89
0.38
1.09
1.06
0.79
1.02
0.53
1.04
0.06
0.68
0.48
0.88
0.56
0.24
0.9
1.01
0.84
0.41000000000000003
0.61
0.49
0.51
1.1
0.64
0.3
0.01
0.9
0.26
0.96
1.17
0.09
0.14
0.72
1.0
0.35000000000000003
1.1400000000000001
1.1500000000000001
0.79
0.68
0.6900000000000001
0.55
0.25
0.08
1.17
0.09
0.99
1.21
0.51
0.67
0.07
0.02
1.2
1.03
1.04
0.77
0.87
0.18
0.92
0.25
1.03
0.66
0.28
0.71
0.49
0.32
1.1
0.11
0.5700000000000001
1.02
1.16
0.77
0.4
0.78
0.06
0.76
0.9500000000000001
0.35000000000000003
0.5700000000000001
0.32
1.2
0.53
1.1
0.28
0.16
0.99
0.7000000000000001
1.09
0.65
0.45
0.37
1.09
0.91
0.99
0.15
0.85
0.6
0.59
0.84
0.48
1.01
0.25
1.0
0.73
0.78
0.78
0.9400000000000001
0.39
0.67
0.4
0.12
1.27
1.21
0.43
0.63
0.67
1.19
0.42
0.03
0.37
1.22
0.48
0.39
0.49
0.72
1.05
1.24
0.48
1.02
1.0
0.51
1.09
0.66
0.78
0.87
0.8
0.66
0.29
0.07
1.09
0.5
0.5700000000000001
1.11
0.64
0.9500000000000001
1.1300000000000001
0.32
0.5
1.27
1.25
1.23
0.9
0.43
0.7000000000000001
0.31
0.68
0.09
0.74
0.06
0.62
0.27
0.44
0.88
0.81
0.3
0.24
0.51
0.53
0.03
1.2
0.9
0.88
0.08
1.06
0.43
0.44
0.7000000000000001
0.8200000000000001
0.33
0.74
0.76
0.73
0.12
0.44
1.2
0.73
0.06
0.02
1.01
1.08
0.05
1.1
0.08
0.22
1.01
0.85
1.05
0.24
0.86
1.12
0.35000000000000003
0.71
0.86
1.03
0.34
1.12
0.19
0.44
0.66
0.09
1.11
0.76
0.16
0.28
1.26
0.07
0.19
0.02
0.97
1.22
0.76
0.34
0.43
0.74
0.18
0.54
0.11
0.54
1.03
0.79
1.02
1.2
0.12
0.99
1.1400000000000001
0.53
0.19
0.61
1.09
0.31
0.19
0.28
0.78
0.9500000000000001
0.63
0.59
0.19
0.86
0.9400000000000001
0.1
1.17
0.03
0.07
1.24
0.8300000000000001
0.74
0.65
0.22
0.7000000000000001
0.9400000000000001
0.85
0.77
0.36
0.73
1.01
0.28
0.61
0.61
1.1
0.19
1.07
0.05
0.12
0.39
0.99
0.03
0.15
0.33
1.1500000000000001
0.1
0.23
0.45
1.25
0.98
0.26
0.61
0.5700000000000001
0.35000000000000003
0.1
0.52
0.8200000000000001
1.16
0.06
0.73
0.8
0.22
0.85
0.9500000000000001
1.17
0.9500000000000001
1.03
0.22
1.03
0.62
0.8300000000000001
0.63
1.1400000000000001
0.05
0.26
0.8300000000000001
0.1
0.73
0.13
0.65
0.8200000000000001
0.87
0.42
0.45
0.5700000000000001
0.31
0.74
0.98
0.02
0.7000000000000001
0.44
0.78
0.15
1.12
0.19
0.19
0.16
0.84
0.05
0.96
0.37
1.01
0.96
1.05
1.07
0.74
0.51
0.99
0.38
1.05
0.88
0.78
0.68
0.38
0.92
1.09
1.11
0.3
0.17
0.9
0.88
0.56
0.22
0.8200000000000001
0.55
1.25
0.98
0.87
0.36
0.41000000000000003
0.5
0.07
0.05
0.49
0.6900000000000001
0.37
0.11
0.33
0.84
0.2
0.26
0.74
0.55
0.07
1.06
0.87
1.04
1.23
0.2
0.08
0.22
0.38
0.52
0.04
0.88
0.33
0.35000000000000003
0.36
1.03
0.71
1.04
0.25
0.6900000000000001
0.65
0.48
0.92
0.98
0.76
1.25
0.59
0.93
0.18
0.5
0.71
0.56
0.92
0.01
0.14
0.21
0.99
0.16
0.29
0.63
0.4
0.9400000000000001
0.3
0.14
0.16
0.84
0.54
0.5
0.43
0.34
1.08
0.34
0.26
0.66
1.22
0.17
1.18
0.99
0.03
0.02
1.22
1.01
0.5700000000000001
0.27
1.01
0.68
1.0
0.05
0.27
0.2
0.88
1.21
0.92
0.79
0.35000000000000003
0.39
0.22
1.25
0.77
0.5700000000000001
0.65
0.71
0.27
0.26
0.31
1.2
0.71
0.98
0.7000000000000001
0.19
0.98
0.6900000000000001
0.64
0.38
1.05
0.61
0.66
0.68
0.0
1.08
0.49
0.01
0.26
0.96
0.6900000000000001
0.8
1.0
0.08
0.01
0.01
0.23
0.14
1.21
1.21
0.72
0.26
0.1
0.97
0.8300000000000001
0.88
0.28
1.18
0.38
0.81
0.52
1.24
0.11
1.09
1.03
0.54
0.25
0.14
1.09
0.56
1.25
0.96
1.16
0.17
0.88
0.28
1.21
0.25
1.1500000000000001
0.55
0.55
0.08
0.23
0.0
0.47000000000000003
1.04
0.48
0.08
0.25
0.76
0.49
0.15
1.21
0.13
0.79
0.12
0.49
1.06
0.88
1.1500000000000001
0.1
0.76
0.46
0.0
0.12
0.77
0.17
1.11
0.03
0.64
0.51
0.9
0.38
0.13
0.72
0.27
0.3
0.14
0.96
0.78
0.14
0.9
0.78
1.07
0.19
0.97
0.37
1.2
0.49
0.6900000000000001
0.86
1.08
0.41000000000000003
0.89
0.54
0.61
0.8
0.76
0.74
0.03
0.85
0.61
1.25
0.5
0.46
0.23
0.42
0.75
0.92
0.43
0.9
0.02
1.09
0.05
0.6
0.42
0.63
0.63
0.49
0.75
1.1500000000000001
0.88
0.22
0.99
0.09
0.22
1.1400000000000001
0.23
0.86
0.65
1.1
1.02
1.2
1.0
0.5
1.05
0.38
0.28
0.75
0.6900000000000001
0.04
0.15
1.01
0.13
0.54
0.28
0.28
0.15
0.93
1.01
0.02
0.65
1.1500000000000001
1.07
0.09
0.31
0.8300000000000001
0.19
0.85
0.8200000000000001
0.74
1.08
0.9500000000000001
1.18
0.3
1.12
0.49
0.6
0.16
0.91
1.16
1.21
0.59
0.0
0.39
1.1300000000000001
0.84
0.75
0.85
0.92
0.09
1.04
0.6900000000000001
0.18
0.48
0.47000000000000003
1.19
0.35000000000000003
0.53
0.9500000000000001
1.11
0.44
0.39
0.03
0.11
0.08
0.56
0.61
1.1300000000000001
0.24
0.0
0.19
0.08
1.1500000000000001
0.27
1.1500000000000001
0.71
0.06
0.8
0.97
0.1
1.22
1.05
0.54
0.8
0.71
0.51
0.25
1.2
0.63
0.05
0.9400000000000001
1.18
0.85
0.03
0.11
1.18
1.1500000000000001
0.9400000000000001
1.08
1.19
0.53
0.47000000000000003
0.06
1.05
0.04
0.07
1.04
1.26
0.99
0.18
0.85
0.92
0.52
0.3
0.51
0.59
0.48
0.08
0.56
0.51
0.24
0.65
0.07
0.2
1.23
0.86
0.77
0.8
0.51
0.74
0.23
0.32
0.16
0.49
0.8200000000000001
0.4
0.27
0.17
0.18
0.68
0.13
1.11
0.44
0.59
0.45
0.65
0.54
0.28
1.25
0.46
1.16
0.62
1.16
0.19
0.51
0.13
0.91
0.67
1.21
0.56
0.1
0.1
0.49
1.01
0.38
0.7000000000000001
0.36
0.37
0.47000000000000003
0.35000000000000003
0.04
0.51
1.23
0.27
0.51
0.49
0.63
0.55
0.86
0.12
0.86
0.24
0.21
0.27
0.42
0.67
1.18
1.18
0.79
0.42
0.25
0.25
0.03
0.34
0.37
0.33
0.93
0.84
0.12
0.19
0.75
0.12
0.97
0.92
0.08
1.23
0.59
0.45
0.99
1.2
1.03
0.88
0.5700000000000001
0.64
0.55
0.98
1.21
0.65
0.39
0.47000000000000003
0.76
0.63
0.55
0.36
0.77
1.04
0.41000000000000003
0.2
1.1500000000000001
0.61
0.99
0.8300000000000001
0.0
0.38
1.09
0.9
1.12
0.56
0.52
0.68
0.99
0.98
1.1
0.11
0.35000000000000003
0.75
0.39
1.02
0.81
0.01
0.2
0.49
0.38
0.48
0.47000000000000003
0.42
0.29
1.05
0.65
0.18
0.34
0.41000000000000003
1.2
0.5700000000000001
0.64
0.05
1.07
0.9400000000000001
0.6
0.56
1.05
0.97
0.46
0.53
0.62
1.04
0.48
0.71
0.17
0.75
0.39
0.86
0.81
1.1
0.89
0.16
0.54
0.99
0.11
0.36
1.1
0.72
0.67
0.25
0.56
0.16
0.56
1.19
1.09
0.11
0.75
0.23
0.16
0.34
0.33
0.18
0.53
0.27
1.1300000000000001
1.01
0.45
0.76
1.23
0.48
0.4
0.66
1.19
1.16
0.9
0.76
0.5
1.1300000000000001
0.2
0.01
0.47000000000000003
0.17
0.78
0.04
0.8200000000000001
1.0
0.03
0.59
0.47000000000000003
0.65
0.18
1.27
0.07
0.33
0.22
0.49
0.12
1.05
0.91
0.06
0.54
0.54
0.55
0.98
0.15
0.39
0.9500000000000001
0.8
1.01
0.37
1.21
0.42
1.1400000000000001
1.1400000000000001
0.59
0.1
0.59
0.32
1.03
0.62
0.36
0.5700000000000001
1.1500000000000001
0.02
0.37
0.63
0.43
0.8
0.5
1.0
0.28
1.19
0.43
1.11
0.43
0.58
0.31
0.23
0.27
0.87
0.11
0.5700000000000001
0.62
1.05
0.32
0.8
0.79
0.11
0.06
0.9
1.25
0.5700000000000001
0.67
0.77
0.16
0.25
0.68
0.86
0.0
1.04
0.26
0.19
0.9
0.81
1.1500000000000001
0.27
0.25
0.46
0.61
0.31
0.8200000000000001
0.76
0.15
1.09
1.2
0.1
0.21
0.67
1.1
0.52
0.73
0.75
0.9
0.12
0.47000000000000003
1.27
0.54
1.03
0.85
0.49
0.08
0.79
0.97
0.11
0.09
0.36
0.91
0.56
0.8
0.38
1.04
0.62
0.88
0.87
0.07
0.38
0.03
0.35000000000000003
0.59
0.2
0.54
0.99
0.37
1.02
0.22
0.97
1.17
0.79
0.44
0.35000000000000003
1.04
0.78
1.2
0.41000000000000003
0.79
0.05
0.58
0.8300000000000001
0.73
0.9400000000000001
0.51
0.64
1.25
0.56
0.11
0.13
1.21
0.34
1.27
0.89
0.07
1.18
0.53
0.28
1.0
0.73
1.1400000000000001
0.55
0.17
1.03
0.89
1.23
1.1400000000000001
0.78
0.43
0.47000000000000003
0.6900000000000001
0.42
0.32
0.47000000000000003
0.11
0.6900000000000001
1.04
0.8300000000000001
0.9500000000000001
0.24
1.07
0.72
0.44
0.19
0.19
0.62
0.73
1.26
1.07
1.01
0.33
0.84
0.01
0.36
0.53
0.98
0.54
1.22
0.35000000000000003
0.54
1.06
0.76
1.22
0.54
1.12
0.65
0.41000000000000003
0.9400000000000001
0.97
0.73
0.8200000000000001
1.09
0.45
0.08
0.39
0.6900000000000001
0.31
1.03
0.87
0.9400000000000001
0.42
0.24
0.65
0.52
1.25
0.79
0.84
0.25
0.01
0.1
0.56
0.87
0.37
0.55
0.38
0.33
0.24
0.65
0.4
0.06
0.64
0.37
0.6900000000000001
0.89
0.42
0.06
0.79
0.84
0.87
1.26
1.04
0.43
0.31
0.6900000000000001
0.29
0.55
1.21
0.16
0.6900000000000001
0.55
0.73
0.13
0.5
0.76
0.04
0.72
0.41000000000000003
0.52
0.61
0.5
1.1500000000000001
0.15
0.26
0.22
0.46
1.07
0.19
0.86
0.84
0.28
1.04
0.07
0.02
0.5700000000000001
0.21
1.1400000000000001
0.84
1.1500000000000001
0.48
0.51
0.71
1.21
1.04
0.06
0.58
0.81
0.63
0.61
0.22
0.61
0.0
1.16
0.56
0.68
0.47000000000000003
0.17
0.88
0.47000000000000003
0.91
0.47000000000000003
0.46
1.0
0.64
1.03
0.25
0.98
0.93
0.7000000000000001
0.1
1.05
0.46
0.91
1.18
0.04
0.63
0.28
0.61
0.76
0.0
0.09
1.24
1.03
1.12
0.36
1.23
0.1
0.56
0.62
0.66
0.19
1.1500000000000001
0.81
0.85
0.29
0.6
0.1
0.45
1.19
0.14
0.13
1.19
0.84
0.19
0.72
0.0
0.38
0.49
1.01
0.74
0.65
1.1500000000000001
1.23
1.18
0.61
1.19
0.8200000000000001
0.08
0.41000000000000003
0.9400000000000001
0.5700000000000001
1.17
0.14
0.31
0.7000000000000001
0.71
0.6900000000000001
0.11
1.26
0.08
0.16
0.02
0.49
0.31
0.85
1.0
0.5700000000000001
0.79
1.24
0.24
0.22
0.02
0.23
0.78
1.1
0.12
0.5700000000000001
1.26
0.84
0.38
1.21
0.28
0.63
0.89
0.4
0.39
0.43
0.72
1.1500000000000001
0.39
1.05
0.45
0.32
0.99
0.92
0.56
0.23
0.14
0.26
0.18
0.06
0.66
0.89
0.71
1.05
0.73
1.19
0.9500000000000001
0.72
0.72
0.79
0.67
0.21
0.79
0.99
0.09
0.33
0.53
0.85
0.77
0.34
0.24
0.8300000000000001
0.9
0.73
1.08
0.07
0.56
0.12
1.1500000000000001
0.2
0.72
0.88
1.02
0.53
1.18
0.6900000000000001
0.17
0.88
1.2
0.72
0.97
0.33
1.23
0.68
0.41000000000000003
1.2
0.91
0.27
0.89
0.47000000000000003
0.43
0.34
0.28
1.25
0.8
0.44
0.99
1.04
0.23
1.1300000000000001
1.24
0.65
0.43
0.56
1.05
0.97
0.22
1.01
0.26
1.08
0.75
1.1500000000000001
1.25
0.13
0.71
0.13
0.72
0.64
0.42
0.75
0.98
1.17
0.23
1.04
0.36
1.11
0.22
0.78
0.9500000000000001
0.9500000000000001
0.43
0.46
0.56
0.67
1.24
1.21
1.21
0.63
0.56
0.97
1.12
1.0
0.99
0.37
0.25
0.77
0.1
1.23
0.53
1.27
0.74
1.27
0.31
0.37
0.37
1.1300000000000001
1.02
0.31
0.98
0.64
1.06
0.5
1.19
0.59
0.55
1.19
0.96
0.27
1.08
0.41000000000000003
0.11
1.24
0.21
0.9500000000000001
1.2
0.97
0.1
1.1500000000000001
0.1
0.16
0.16
0.79
1.17
0.88
1.0
0.9
1.16
0.38
0.8
0.21
0.51
0.54
0.12
0.33
0.4
0.74
0.86
0.46
0.74
0.63
0.21
0.71
0.12
1.06
0.85
1.26
0.45
0.51
0.58
1.25
0.05
0.74
1.1500000000000001
0.78
1.06
0.88
0.7000000000000001
0.04
1.08
0.18
1.2
1.26
0.8200000000000001
0.38
0.59
0.27
0.76
0.73
1.2
1.09
1.08
0.27
0.38
0.5700000000000001
0.2
0.45
0.45
0.86
0.62
0.74
1.16
1.01
0.52
0.68
0.15
0.16
0.59
0.58
0.17
0.55
1.0
0.49
0.6900000000000001
0.14
0.07
0.9400000000000001
0.39
1.1400000000000001
1.1500000000000001
0.74
0.93
1.03
1.16
0.8300000000000001
1.1500000000000001
0.21
1.19
0.28
1.09
0.27
0.8200000000000001
1.09
0.9400000000000001
0.8200000000000001
0.07
0.76
0.24
1.09
0.12
0.78
0.37
0.11
1.19
1.1300000000000001
0.67
0.49
0.24
0.66
0.67
0.23
0.93
0.47000000000000003
1.1300000000000001
0.64
1.09
0.0
0.68
0.39
0.12
1.18
0.42
0.99
1.24
1.0
1.26
1.19
0.85
0.98
1.05
0.74
1.22
0.05
0.71
0.47000000000000003
1.1500000000000001
0.19
0.48
1.23
0.01
0.44
0.65
0.75
0.5700000000000001
1.1500000000000001
0.71
1.11
1.2
0.87
0.31
0.7000000000000001
1.1500000000000001
0.5
1.2
1.1300000000000001
0.86
0.54
0.34
0.81
0.41000000000000003
0.65
1.19
0.5700000000000001
0.42
1.06
0.93
0.06
0.39
0.45
0.0
0.18
0.59
0.6
0.45
0.63
0.31
0.26
1.18
0.63
0.47000000000000003
0.91
0.85
1.22
0.88
0.33
0.54
1.07
1.07
0.66
0.46
0.18
0.0
0.19
1.09
0.87
0.63
0.02
0.45
1.1
0.49
0.6
0.13
1.25
0.22
0.5700000000000001
0.05
0.47000000000000003
1.02
0.08
0.34
0.85
0.44
0.98
0.36
1.27
0.55
1.19
0.02
1.03
0.29
0.22
0.5700000000000001
0.89
0.34
0.52
0.51
1.09
0.41000000000000003
0.93
0.35000000000000003
0.67
0.28
0.32
0.5700000000000001
0.25
0.68
0.8300000000000001
0.8200000000000001
0.28
0.41000000000000003
0.11
1.05
0.46
0.59
1.04
0.08
0.7000000000000001
1.04
0.8300000000000001
0.21
0.6
0.5
0.62
0.8300000000000001
0.02
0.4
1.01
0.49
0.21
1.26
0.65
1.1400000000000001
1.06
0.56
0.43
0.76
0.38
0.38
0.15
1.25
0.3
0.39
0.79
0.76
0.03
0.08
0.56
0.81
0.52
0.72
0.8
0.17
0.14
0.9
1.01
0.06
0.04
0.66
0.73
0.17
1.04
0.78
1.17
0.13
0.63
0.79
0.15
0.62
0.5
0.56
0.85
0.55
0.44
0.03
0.5700000000000001
1.05
1.04
0.51
0.42
0.49
0.2
0.45
1.1300000000000001
0.67
0.45
1.1400000000000001
1.1500000000000001
1.09
1.18
0.24
0.15
0.6
0.6
1.1300000000000001
0.98
0.88
0.44
1.05
0.36
0.27
1.0
1.1400000000000001
0.38
0.0
0.07
0.23
1.19
1.1
0.47000000000000003
0.39
1.05
0.32
0.19
0.97
0.38
0.3
1.02
0.9500000000000001
0.74
0.16
0.11
0.53
0.67
0.5700000000000001
0.17
1.05
0.43
0.87
0.73
0.67
0.98
1.2
0.29
0.46
1.1400000000000001
0.01
0.8200000000000001
0.74
0.7000000000000001
0.0
0.28
1.1400000000000001
0.45
1.2
1.1
0.63
0.01
1.21
0.48
0.06
0.98
0.11
0.39
0.73
0.18
0.59
0.74
0.89
1.23
0.98
1.18
0.32
0.3
1.05
1.06
0.99
1.01
0.02
0.6900000000000001
0.11
0.9500000000000001
0.04
0.78
0.37
0.65
0.24
1.11
0.26
0.8300000000000001
1.26
0.29
0.13
0.88
0.79
0.35000000000000003
0.51
1.25
0.37
0.61
1.24
0.8
0.52
0.6900000000000001
0.26
0.2
1.23
0.77
0.44
0.35000000000000003
1.0
0.36
0.66
0.12
0.43
0.96
1.09
0.18
0.1
0.53
0.62
0.14
0.23
0.72
0.98
0.89
0.24
0.91
0.54
0.32
1.2
0.19
0.58
0.84
0.7000000000000001
1.12
0.01
0.9400000000000001
0.66
0.51
0.41000000000000003
1.0
0.47000000000000003
1.19
0.89
0.65
0.77
0.8
0.67
0.64
0.68
0.97
0.86
0.68
0.79
0.86
0.06
0.75
0.52
0.4
1.11
0.7000000000000001
1.21
0.53
0.78
0.25
0.17
0.66
1.0
0.96
0.63
0.79
0.48
0.34
0.21
0.66
1.03
1.06
0.9400000000000001
0.22
0.6
0.48
0.08
0.33
0.93
0.66
0.74
1.21
1.22
0.54
0.2
1.19
0.89
0.34
0.75
0.64
0.54
0.61
1.1300000000000001
0.63
0.21
0.02
0.9500000000000001
1.06
1.08
0.6
0.37
0.46
1.1300000000000001
0.54
0.02
0.4
0.31
1.1500000000000001
0.21
0.2
0.53
0.67
0.5
0.19
0.3
0.59
0.37
0.05
0.11
0.85
0.9500000000000001
0.4
0.35000000000000003
1.01
1.08
0.6900000000000001
0.5700000000000001
0.68
0.19
0.26
0.67
1.12
0.73
0.79
0.39
0.0
0.49
1.27
1.17
0.5700000000000001
1.11
0.71
0.34
0.04
0.54
0.8200000000000001
1.21
0.43
0.59
0.88
0.9400000000000001
0.49
0.11
1.1400000000000001
1.03
1.02
0.98
0.37
1.1500000000000001
0.3
1.1
0.9400000000000001
0.24
0.07
0.55
0.7000000000000001
0.87
1.1
0.92
0.98
0.36
0.07
0.87
0.28
0.31
0.6
0.2
0.9500000000000001
1.1500000000000001
1.05
0.9400000000000001
1.21
1.23
1.23
0.18
1.1500000000000001
0.19
0.45
1.02
0.85
0.62
1.24
0.5
1.21
0.29
0.99
1.23
0.85
0.65
0.3
0.75
1.2
1.07
0.77
0.15
0.06
0.22
0.55
0.12
0.01
0.72
0.9
0.46
0.17
0.9500000000000001
1.21
1.07
0.79
0.62
0.1
1.05
0.7000000000000001
0.85
0.58
1.0
0.38
1.06
1.27
1.1400000000000001
1.01
0.81
1.1500000000000001
0.19
0.77
0.21
0.32
0.81
0.37
1.0
1.18
0.65
1.24
0.06
1.08
1.25
0.08
0.6900000000000001
0.85
0.51
0.35000000000000003
0.3
0.02
0.55
0.76
0.03
0.88
0.39
0.5
0.35000000000000003
0.75
0.19
0.41000000000000003
1.11
0.17
0.41000000000000003
0.87
0.79
0.99
0.64
0.38
0.04
0.29
0.8300000000000001
0.01
1.07
0.25
1.0
0.8300000000000001
1.04
0.12
1.25
0.81
1.07
0.74
1.02
0.86
1.21
0.12
0.17
0.18
0.09
0.0
0.1
1.04
1.07
0.58
0.62
1.27
0.24
0.12
1.04
0.89
0.52
0.38
0.29
0.12
0.74
0.03
0.59
0.79
0.11
0.6
1.22
0.89
0.61
0.77
1.24
0.26
0.44
0.91
1.11
0.81
1.25
0.72
1.19
0.06
0.55
1.27
0.52
0.31
1.05
1.02
1.1300000000000001
1.1500000000000001
0.2
0.19
1.09
1.27
0.01
1.2
0.39
1.02
0.47000000000000003
0.76
0.38
1.1500000000000001
0.39
0.87
0.02
0.39
1.07
0.08
0.17
0.3
1.18
0.59
0.81
0.6
0.6
0.72
1.27
1.12
0.2
0.61
0.97
0.23
0.28
1.27
0.5
0.4
0.16
0.2
0.4
0.19
0.07
1.0
0.08
0.03
0.62
0.6
0.31
1.0
0.55
1.02
0.1
0.11
0.32
1.21
1.07
0.39
1.24
0.99
0.44
0.86
0.59
0.71
1.02
0.0
0.63
0.24
0.17
0.98
0.8
0.43
0.27
0.9400000000000001
0.5
0.65
0.47000000000000003
0.35000000000000003
0.6
0.58
1.07
0.53
1.18
0.61
1.08
1.23
0.92
0.3
0.19
0.5700000000000001
0.26
1.2
1.05
0.8300000000000001
0.86
0.9
0.39
1.0
0.74
0.62
0.53
0.16
0.28
1.12
0.48
0.12
1.16
0.92
0.8
0.92
0.74
0.6900000000000001
0.18
0.06
0.06
0.63
0.74
0.63
0.56
1.11
0.71
0.5700000000000001
0.65
0.3
0.29
0.65
0.5700000000000001
1.1300000000000001
0.24
1.06
0.98
1.06
0.84
0.29
0.8200000000000001
0.91
0.19
0.04
0.11
0.52
0.78
0.77
1.09
0.42
0.25
0.3
0.6900000000000001
0.24
0.19
0.8
0.89
0.39
0.28
0.17
0.27
0.35000000000000003
0.65
0.8
0.78
0.07
1.26
0.29
0.16
1.27
1.2
0.18
0.28
1.1
0.81
1.12
0.11
0.03
0.77
0.88
0.87
0.26
0.42
0.56
0.04
0.32
0.37
0.8300000000000001
1.0
1.1300000000000001
0.18
1.09
0.63
0.37
0.12
0.33
0.17
0.15
1.1400000000000001
0.11
0.62
0.19
1.19
0.26
1.23
1.19
0.8300000000000001
0.1
0.46
0.93
0.13
0.12
0.52
0.5
0.19
0.92
0.68
0.32
0.76
1.1300000000000001
0.91
0.28
1.22
0.01
0.47000000000000003
0.67
0.92
0.98
1.03
0.27
0.08
0.31
0.98
0.44
0.0
0.43
0.29
1.1500000000000001
0.15
0.81
0.34
1.03
0.59
0.09
0.19
0.02
0.56
0.23
1.04
1.21
1.05
1.21
0.96
0.86
0.13
0.98
0.81
0.1
0.07
0.67
0.42
0.96
1.19
0.24
0.75
0.01
0.8
0.05
0.39
0.03
1.02
0.64
0.79
1.08
0.49
0.46
0.18
0.66
0.87
0.13
0.74
0.86
0.5700000000000001
1.19
1.1500000000000001
0.89
1.05
1.05
0.08
0.35000000000000003
1.22
1.22
1.0
0.67
0.06
1.1300000000000001
0.19
0.93
0.46
0.85
0.22
1.11
0.99
0.52
0.87
0.98
0.39
0.9
1.0
1.12
1.27
1.03
1.1500000000000001
1.25
0.15
0.14
0.6
0.8300000000000001
0.72
0.13
0.8200000000000001
1.1500000000000001
1.1
0.15
1.0
1.07
0.44
0.7000000000000001
1.09
0.9500000000000001
0.49
0.87
0.8200000000000001
0.54
1.22
1.22
0.23
0.34
0.31
0.05
0.31
0.91
0.8200000000000001
0.06
0.81
0.75
0.77
0.04
0.73
0.24
0.1
0.5700000000000001
0.39
0.34
1.04
0.35000000000000003
0.73
0.15
0.9
0.96
0.31
0.32
0.37
0.6900000000000001
0.48
0.72
1.23
0.11
0.31
0.89
0.72
0.8200000000000001
1.1500000000000001
0.5
0.65
0.54
0.38
0.65
0.99
0.45
0.5
0.33
0.34
0.79
0.3
0.18
1.09
1.24
0.18
1.2
0.42
1.01
0.9500000000000001
0.7000000000000001
0.46
0.77
0.17
0.41000000000000003
1.19
0.31
1.12
0.71
0.63
1.05
0.65
0.65
0.63
1.25
0.07
0.02
0.44
0.14
0.31
0.27
0.35000000000000003
0.02
0.6900000000000001
0.21
0.27
0.49
1.21
1.0
0.45
1.23
0.9500000000000001
0.84
0.56
0.2
0.37
0.23
0.67
0.81
0.73
0.62
1.23
0.1
1.19
0.98
1.07
0.08
0.18
0.9500000000000001
0.47000000000000003
1.1300000000000001
0.75
0.32
0.56
0.01
1.05
0.22
0.29
0.28
0.18
1.21
0.7000000000000001
1.09
0.12
0.9500000000000001
0.61
0.98
0.03
0.37
0.07
0.02
1.25
0.79
1.02
0.55
0.24
0.41000000000000003
0.25
0.63
0.19
0.22
0.44
0.93
0.06
0.74
0.5700000000000001
0.86
0.17
0.92
0.25
0.76
0.26
0.18
0.71
0.05
0.15
1.11
0.31
0.13
0.16
0.18
0.21
0.39
0.47000000000000003
0.88
0.5700000000000001
0.29
0.12
0.09
0.8
0.41000000000000003
0.16
0.53
1.27
0.65
0.15
1.22
0.1
0.84
1.23
0.25
0.5700000000000001
0.96
0.9500000000000001
0.1
0.64
0.34
1.09
0.5700000000000001
1.19
0.21
0.48
0.06
0.49
1.05
1.21
0.26
1.0
0.66
0.98
1.24
0.6900000000000001
0.17
0.54
0.47000000000000003
0.08
0.81
0.3
0.42
0.19
1.04
0.36
0.37
0.4
0.11
0.63
1.1300000000000001
0.47000000000000003
1.09
1.1500000000000001
0.48
0.4
0.5
0.17
0.1
0.63
0.7000000000000001
0.91
0.84
0.1
0.1
0.5700000000000001
0.8
0.32
0.0
0.32
0.0
1.1500000000000001
0.53
0.05
0.45
0.26
0.05
1.18
0.16
0.92
0.85
0.62
1.17
0.36
0.06
0.54
0.58
1.22
0.49
0.11
0.47000000000000003
0.8
0.96
0.8
0.79
0.0
0.67
1.04
0.33
0.11
0.34
0.03
1.23
0.92
0.45
1.06
0.99
0.04
1.18
1.0
0.25
0.31
0.76
0.19
0.21
0.99
0.31
0.28
0.8200000000000001
0.5
0.15
1.18
0.9400000000000001
0.61
0.76
0.89
