0.36
0.81
0.17
0.81
0.44
0.9
0.08
0.06
0.22
1.03
0.76
0.47000000000000003
0.86
0.38
0.02
0.53
0.85
0.15
1.1400000000000001
0.65
0.24
0.55
1.27
0.6
0.25
0.41000000000000003
1.05
0.46
0.96
0.96
1.18
1.27
0.8300000000000001
0.8
0.43
0.4
0.09
0.47000000000000003
1.01
0.28
0.15
0.21
0.54
1.05
0.97
0.08
0.24
0.72
1.07
0.25
0.9
0.9400000000000001
0.35000000000000003
0.8300000000000001
0.31
0.9400000000000001
0.85
1.06
1.22
0.96
1.1
0.47000000000000003
0.44
0.0
1.1400000000000001
0.6900000000000001
1.03
0.29
0.36
1.08
0.36
0.91
0.42
0.9
0.66
1.25
0.84
0.62
0.21
1.02
0.58
0.62
0.36
0.5700000000000001
1.09
0.21
0.8300000000000001
1.25
1.18
0.71
0.36
0.64
0.76
0.5700000000000001
0.7000000000000001
0.17
1.01
0.03
1.24
0.38
0.65
0.28
0.44
0.56
1.01
1.12
0.09
0.27
0.61
0.89
0.7000000000000001
0.71
0.04
0.5
0.32
0.43
0.72
0.46
0.4
0.53
0.79
0.91
0.25
1.19
1.21
0.0
1.17
0.62
1.27
0.31
1.27
0.12
1.01
0.51
0.35000000000000003
0.96
1.1500000000000001
0.08
0.92
0.01
0.13
0.96
0.75
1.06
0.67
0.26
0.28
0.61
0.58
0.74
0.45
0.63
0.51
0.78
1.04
0.68
1.27
0.63
0.26
0.14
0.04
0.98
0.53
0.5
0.81
1.19
0.79
0.92
1.05
0.36
0.03
1.0
0.37
0.03
1.24
0.93
0.0
0.11
0.6900000000000001
0.64
1.1300000000000001
1.1
0.73
0.77
0.8200000000000001
1.21
0.3
1.02
0.9
0.79
1.07
0.18
0.79
0.86
0.7000000000000001
0.13
0.26
0.09
0.88
0.54
0.24
1.24
1.1500000000000001
0.16
0.64
0.88
0.73
0.1
1.23
0.5700000000000001
0.67
0.78
0.84
1.17
0.06
0.45
0.78
0.22
0.03
0.43
0.23
0.8
1.27
0.88
0.14
0.48
1.19
1.2
1.1300000000000001
0.47000000000000003
0.78
0.97
0.01
0.29
1.06
1.25
0.08
0.87
0.07
0.28
0.9
0.61
0.14
1.18
1.08
1.2
0.19
0.97
0.12
0.44
0.33
1.1
1.19
0.92
0.3
1.01
0.04
1.1500000000000001
0.93
0.18
0.18
0.68
0.04
0.26
0.36
0.13
1.01
0.58
0.49
0.61
0.6900000000000001
0.93
1.0
1.1300000000000001
0.9500000000000001
0.3
0.25
1.12
0.09
0.7000000000000001
0.48
1.0
0.34
0.03
0.48
0.5700000000000001
0.89
0.49
0.18
0.1
0.91
0.42
0.67
1.1
0.38
0.26
0.8200000000000001
0.37
1.19
0.04
0.43
0.5700000000000001
0.48
0.97
0.17
0.73
0.46
0.5700000000000001
0.62
1.07
0.81
0.3
0.44
0.8300000000000001
1.02
0.74
0.05
0.26
1.27
0.9
1.06
0.9400000000000001
0.56
0.9
0.65
0.6
0.44
1.21
0.84
1.06
1.02
0.27
0.33
0.81
1.16
0.23
0.34
0.75
1.12
0.28
1.04
1.24
1.02
0.93
0.22
0.0
1.21
0.9500000000000001
0.98
1.27
0.43
0.15
1.1400000000000001
1.05
0.51
0.45
0.68
0.76
0.92
0.86
1.2
1.17
0.81
1.01
0.98
0.97
1.19
0.55
0.75
0.0
0.2
0.3
0.41000000000000003
0.86
1.1300000000000001
0.6
1.18
0.47000000000000003
0.75
0.32
0.26
0.36
0.8300000000000001
0.7000000000000001
0.35000000000000003
0.39
0.79
0.28
0.87
1.01
0.47000000000000003
0.9
0.5
1.2
1.03
0.85
0.25
0.08
0.97
0.81
0.54
0.91
0.89
0.27
0.27
0.05
1.21
1.21
0.4
1.06
0.99
0.96
0.58
0.14
0.05
0.08
1.24
0.78
1.03
0.67
0.26
0.73
0.03
0.13
0.14
0.9400000000000001
1.27
0.02
0.88
1.1300000000000001
0.28
0.5700000000000001
0.01
1.25
1.24
0.47000000000000003
0.33
0.42
0.8200000000000001
0.02
0.6
0.64
0.06
0.07
0.05
0.67
0.33
0.5700000000000001
1.1
0.5
0.73
0.85
1.12
0.38
1.25
0.91
0.23
1.08
0.75
0.53
0.27
0.9400000000000001
0.81
0.3
0.96
0.2
1.23
0.9500000000000001
0.77
0.53
0.11
0.54
0.41000000000000003
0.8
0.77
1.06
0.64
0.28
0.39
1.27
0.92
0.91
0.08
0.87
0.31
0.28
0.41000000000000003
0.09
1.1500000000000001
0.8
1.1
0.64
1.1300000000000001
0.6900000000000001
0.31
0.24
0.77
0.9
0.74
0.59
1.11
0.08
1.2
0.16
0.39
0.04
0.06
1.04
0.97
1.03
0.67
0.6900000000000001
1.05
0.5
0.11
0.09
1.01
1.21
0.77
0.3
0.12
0.8
0.51
0.03
1.1
0.03
0.06
0.43
0.31
0.28
0.67
0.1
0.98
0.52
0.2
0.67
1.0
0.43
0.1
0.8
0.11
1.26
0.05
1.1
0.47000000000000003
0.5700000000000001
0.17
1.21
0.4
1.06
0.02
1.1500000000000001
0.58
0.8
1.27
0.16
0.03
0.26
0.09
0.6
0.11
0.9500000000000001
0.03
1.21
0.66
1.02
0.8200000000000001
0.19
1.2
0.48
0.02
0.36
1.11
0.55
0.33
0.86
0.12
0.59
0.16
0.8
0.13
0.61
0.85
0.35000000000000003
0.22
0.49
0.77
0.14
0.68
0.9400000000000001
0.74
1.24
0.72
0.36
0.31
1.18
0.55
0.71
0.49
0.31
0.84
0.47000000000000003
1.12
0.38
0.91
0.12
1.19
0.67
0.16
0.91
1.25
0.87
0.86
1.21
1.21
0.31
0.39
0.68
1.22
1.0
0.36
1.27
0.84
1.01
0.99
1.24
0.21
1.02
0.05
0.75
0.61
0.93
0.72
1.24
0.5700000000000001
0.77
0.15
0.49
0.37
1.06
0.88
0.4
0.68
0.08
1.25
0.38
1.1400000000000001
0.5
1.03
0.91
0.9500000000000001
1.03
1.2
0.31
0.53
0.74
0.51
0.03
0.16
0.02
0.05
0.03
0.8
0.56
0.8300000000000001
1.04
1.18
0.16
0.34
0.8300000000000001
0.6900000000000001
1.24
1.09
0.78
0.55
0.54
0.98
1.09
0.62
1.27
0.91
0.7000000000000001
0.98
0.16
0.28
0.34
0.07
1.1300000000000001
0.56
1.06
0.4
0.13
0.0
0.8
1.16
0.07
1.23
0.67
0.65
0.78
0.99
0.53
0.22
0.18
0.9
0.76
0.99
0.13
1.1500000000000001
0.77
0.65
0.5700000000000001
0.3
0.3
1.26
0.5700000000000001
0.28
0.63
1.19
0.8300000000000001
0.04
0.99
1.25
0.62
0.33
0.19
0.22
0.8300000000000001
0.92
0.75
0.07
0.45
0.87
0.18
0.28
0.31
0.65
0.9400000000000001
0.02
1.21
1.2
0.16
1.06
0.75
1.07
0.9400000000000001
0.49
0.01
0.38
0.35000000000000003
0.59
1.02
0.23
0.65
0.76
1.18
0.0
0.99
1.02
0.55
0.49
0.81
1.11
0.36
1.05
0.87
0.8
1.07
0.9500000000000001
1.16
0.8
0.7000000000000001
1.2
1.1500000000000001
0.06
0.71
0.85
0.17
0.14
0.6
0.9400000000000001
1.12
0.54
1.09
0.9500000000000001
0.66
0.88
0.91
0.36
0.72
0.03
0.76
0.52
0.32
0.04
1.25
0.48
0.66
0.06
0.07
0.3
0.6
0.66
0.15
1.07
1.01
0.46
0.27
0.76
1.25
0.42
0.84
0.05
0.9
1.25
1.01
0.51
1.02
0.37
0.15
0.1
1.27
0.99
1.12
0.12
0.28
0.78
0.96
0.56
0.6900000000000001
0.6900000000000001
0.9500000000000001
0.92
0.21
0.5700000000000001
0.96
0.63
0.42
0.5700000000000001
0.44
0.21
0.31
0.29
0.66
0.05
0.02
0.97
0.9
0.9400000000000001
0.13
0.16
0.5
1.1300000000000001
1.1300000000000001
0.27
0.6900000000000001
0.07
0.5700000000000001
0.64
0.48
0.63
0.9500000000000001
0.27
0.09
1.21
1.2
0.62
0.73
1.05
0.24
1.26
0.21
0.43
0.04
0.49
0.8200000000000001
0.6
0.19
0.33
0.24
0.31
1.26
0.92
0.5700000000000001
0.23
0.72
0.65
0.87
0.78
0.49
0.16
0.14
1.19
1.0
0.14
0.93
0.99
1.27
1.18
1.21
0.16
0.6
0.11
0.87
1.19
0.24
0.06
1.0
1.19
0.9400000000000001
1.1
0.12
0.38
1.08
1.22
0.53
0.81
1.09
0.14
0.2
0.43
0.32
1.12
1.07
1.24
0.14
0.1
0.12
0.15
0.92
0.8300000000000001
1.03
0.9400000000000001
0.03
1.19
0.11
0.5
0.97
0.93
0.9500000000000001
0.17
1.08
0.48
1.06
0.42
0.42
0.84
0.2
0.06
0.07
0.43
1.01
1.22
0.33
0.76
0.9
0.89
0.45
0.01
1.22
0.7000000000000001
0.5
0.1
0.8200000000000001
0.9400000000000001
0.2
1.27
0.72
0.68
0.17
0.67
1.1300000000000001
1.27
1.09
1.12
0.19
0.16
1.11
0.73
0.05
0.32
0.73
0.96
0.23
0.76
0.22
0.17
0.85
0.23
1.08
0.17
0.7000000000000001
0.23
1.26
0.49
1.2
0.17
0.66
1.08
1.24
0.81
0.09
1.01
0.6
0.48
0.99
0.3
0.86
1.06
0.23
0.51
0.27
0.56
0.81
0.9
0.45
1.02
1.25
0.22
0.76
0.17
0.87
0.03
1.04
0.15
0.22
0.6
0.16
0.2
0.01
0.36
0.0
0.06
0.8200000000000001
0.48
0.79
0.92
0.78
0.86
0.3
0.14
0.5700000000000001
0.26
0.6
0.24
0.32
0.7000000000000001
0.24
1.0
0.64
0.31
0.41000000000000003
0.72
0.08
0.05
0.19
0.88
0.59
0.11
0.9500000000000001
0.17
0.97
0.31
0.44
0.28
1.0
0.47000000000000003
0.9400000000000001
0.9
0.4
0.8
0.08
0.42
0.41000000000000003
0.27
0.74
0.7000000000000001
0.93
1.06
0.99
0.13
0.21
0.41000000000000003
0.34
0.31
0.84
0.0
0.26
0.89
0.81
0.01
0.56
1.25
1.21
0.24
1.06
0.06
0.44
0.6
0.8300000000000001
0.12
0.9
1.07
0.26
1.05
0.75
0.74
0.78
0.52
1.18
0.18
1.21
0.33
0.49
0.93
0.22
0.38
0.68
0.8200000000000001
0.61
0.66
0.92
0.81
0.37
1.24
0.7000000000000001
0.9
0.85
0.2
0.35000000000000003
1.09
0.17
0.67
1.12
0.31
1.24
0.99
0.85
1.1
0.27
1.11
0.4
1.19
0.37
0.7000000000000001
0.25
0.24
1.02
0.07
1.1500000000000001
0.04
0.49
0.51
0.9
1.22
0.48
0.54
1.21
0.63
0.22
1.25
0.89
0.55
0.22
1.1500000000000001
0.9500000000000001
0.12
0.71
0.05
0.1
0.85
1.0
0.8
0.75
0.45
1.08
0.12
1.06
0.91
0.93
0.35000000000000003
0.26
1.02
0.27
1.23
0.27
0.37
1.1300000000000001
0.25
0.03
0.24
0.48
0.49
0.68
0.6
0.66
0.59
0.72
0.91
1.12
1.03
1.23
0.3
1.16
1.11
1.08
0.12
1.02
1.05
0.7000000000000001
0.6
0.72
1.02
0.52
0.34
0.32
0.86
1.23
0.9500000000000001
0.06
0.29
0.9
0.31
0.53
0.24
0.28
1.1500000000000001
0.32
0.89
0.56
0.11
0.65
0.43
0.35000000000000003
0.86
0.5
0.86
0.03
0.39
0.07
0.6900000000000001
1.0
0.37
0.61
0.0
0.37
0.8
0.19
1.0
0.9500000000000001
0.55
0.07
1.17
0.85
0.29
0.31
1.01
1.02
1.08
0.29
0.36
0.38
0.92
0.62
1.1400000000000001
1.02
0.4
0.09
0.31
0.43
0.02
0.7000000000000001
0.93
0.67
0.03
0.71
0.51
0.91
0.79
0.01
0.4
0.05
0.91
1.2
1.01
0.64
1.05
0.92
1.19
0.7000000000000001
0.97
0.13
0.09
0.68
0.77
0.36
0.45
0.75
0.93
0.47000000000000003
0.73
0.03
0.98
0.66
0.11
1.21
0.54
0.65
0.48
1.01
0.34
0.53
0.92
0.25
1.21
0.86
0.1
0.74
0.92
0.07
0.54
0.64
0.72
0.52
0.16
0.66
0.03
0.93
0.25
1.1
0.88
0.59
0.6900000000000001
0.91
0.81
0.56
1.1400000000000001
0.51
1.21
0.73
0.5700000000000001
1.23
1.04
0.55
0.9500000000000001
1.06
0.01
0.7000000000000001
1.05
0.32
0.98
0.62
1.25
0.05
0.16
0.91
1.22
1.18
0.47000000000000003
0.06
0.48
1.05
1.04
0.48
0.88
0.79
0.68
0.08
1.1300000000000001
0.65
0.72
0.21
0.97
0.5700000000000001
0.52
1.01
0.09
0.81
0.5700000000000001
0.8
0.66
0.61
0.74
0.04
1.1500000000000001
0.28
0.44
0.47000000000000003
0.25
0.24
1.18
0.56
0.81
0.45
0.19
0.19
0.31
1.26
0.16
0.06
0.93
0.81
1.07
0.73
0.81
0.01
0.73
0.59
1.22
1.1300000000000001
0.59
0.43
1.0
0.99
0.44
0.49
0.23
1.1500000000000001
0.21
0.88
0.8200000000000001
0.93
0.67
0.03
1.2
0.93
0.12
0.8200000000000001
0.98
0.39
0.46
0.88
0.8300000000000001
0.18
0.01
0.09
0.28
0.89
0.59
0.91
0.19
1.24
0.12
1.05
0.41000000000000003
0.42
0.18
0.23
0.3
0.19
0.9
0.74
0.63
1.1400000000000001
0.7000000000000001
0.9
0.12
0.31
0.71
0.66
0.79
0.8200000000000001
0.5700000000000001
1.1300000000000001
1.07
0.34
1.25
0.28
0.08
0.78
1.1300000000000001
0.16
0.97
0.99
0.49
0.89
0.76
0.9
0.91
0.56
0.32
1.0
0.77
0.5700000000000001
0.84
0.23
0.96
0.9500000000000001
0.54
0.27
0.86
0.15
1.02
1.27
0.8300000000000001
0.06
0.53
0.09
0.41000000000000003
0.56
0.9
0.9500000000000001
0.09
1.25
0.98
0.28
0.09
0.59
0.63
0.02
0.0
0.38
0.91
0.54
0.06
0.6
0.79
0.65
0.71
0.02
1.23
1.11
0.27
1.1500000000000001
1.26
0.56
0.37
0.68
1.25
0.01
0.34
0.2
0.03
0.2
0.61
0.3
0.84
0.77
0.12
0.22
1.03
0.21
0.42
0.63
1.03
0.5700000000000001
1.1300000000000001
0.35000000000000003
0.36
0.07
0.44
0.9500000000000001
0.88
1.1500000000000001
1.04
0.34
0.5700000000000001
0.33
0.72
1.08
1.19
0.8200000000000001
1.06
0.89
0.74
0.8300000000000001
1.09
0.92
1.2
0.81
1.21
0.28
0.9400000000000001
0.98
1.27
0.66
0.84
0.24
1.03
0.15
0.12
0.84
0.33
1.1
0.5
0.17
1.04
0.04
0.97
1.01
0.79
0.84
0.4
0.55
0.79
0.19
0.2
0.41000000000000003
0.9500000000000001
0.39
0.34
0.43
0.0
0.25
0.66
0.54
1.17
1.23
0.46
0.73
0.81
0.37
0.08
0.78
1.12
1.16
1.03
0.55
0.38
0.3
0.67
0.8300000000000001
0.68
0.61
0.25
0.46
1.17
0.22
0.0
0.77
0.7000000000000001
0.67
0.0
0.52
0.23
1.1
0.19
0.61
0.0
0.27
0.62
1.02
1.03
1.1400000000000001
1.2
0.42
0.6
0.37
0.42
0.9
0.03
0.35000000000000003
0.5700000000000001
1.06
1.1500000000000001
1.08
0.9400000000000001
0.16
0.22
0.5
1.1500000000000001
0.66
0.28
1.2
0.87
0.5700000000000001
0.56
0.51
0.26
0.4
0.41000000000000003
1.24
0.65
0.87
0.75
0.49
0.1
0.93
0.99
0.33
0.26
0.2
0.38
0.85
1.17
0.16
0.07
0.37
0.6900000000000001
0.13
0.8300000000000001
0.0
0.45
0.27
0.47000000000000003
0.92
1.25
0.66
1.1500000000000001
0.6
0.84
0.15
0.5700000000000001
0.9500000000000001
0.15
0.88
0.64
0.7000000000000001
0.54
0.33
0.66
0.37
0.16
0.8
0.6
0.55
0.55
0.48
0.98
0.93
1.1500000000000001
0.42
1.25
0.85
1.2
1.09
1.1300000000000001
0.12
0.55
0.7000000000000001
0.6900000000000001
0.15
0.61
0.92
0.07
0.99
0.89
0.49
0.55
0.01
0.08
0.68
0.87
1.1
1.02
0.91
0.59
1.21
0.16
0.67
0.03
1.1300000000000001
1.22
0.4
0.47000000000000003
1.1300000000000001
1.19
0.93
0.97
1.03
1.08
0.02
0.02
0.87
0.39
0.28
0.55
0.89
1.03
1.19
0.53
0.27
1.02
1.23
1.12
0.9400000000000001
0.75
0.77
0.05
0.53
0.42
0.38
0.06
1.1500000000000001
1.26
0.86
0.81
0.17
0.88
0.15
0.86
0.98
0.06
0.78
1.12
0.63
0.25
0.67
1.18
0.98
0.85
0.6
1.05
0.88
0.2
0.75
0.2
1.01
0.5
0.11
0.05
0.26
0.26
0.09
0.56
0.28
0.85
0.17
0.19
0.99
1.21
0.09
1.12
1.24
0.41000000000000003
0.93
0.9400000000000001
0.8
0.1
0.8200000000000001
0.03
0.03
0.9500000000000001
1.11
0.99
0.74
1.25
0.5
0.31
0.93
1.18
1.1
0.18
0.24
1.09
0.75
1.09
0.7000000000000001
0.14
0.12
0.06
0.52
0.3
0.67
0.36
1.17
1.25
0.8200000000000001
0.89
0.37
0.39
0.92
1.0
0.99
0.0
0.99
0.3
1.21
1.01
0.8200000000000001
0.44
0.32
0.44
0.13
1.03
0.43
0.46
0.72
1.07
0.86
0.24
0.8300000000000001
0.61
0.87
0.13
0.19
1.19
1.22
1.2
0.14
0.28
0.01
1.27
0.64
0.2
0.87
0.43
0.01
0.8300000000000001
0.06
0.48
0.73
0.35000000000000003
1.21
0.33
1.02
0.76
0.8300000000000001
0.06
0.93
0.09
0.73
1.08
0.61
0.39
0.54
0.38
0.72
0.36
0.93
0.71
1.05
1.22
0.04
0.25
0.66
0.46
0.84
0.5700000000000001
0.9500000000000001
0.74
0.25
0.63
0.11
0.16
0.15
0.56
0.39
0.21
1.18
1.17
1.19
0.9500000000000001
1.06
0.31
0.39
0.7000000000000001
1.19
0.3
0.25
1.05
0.76
0.9
0.97
1.2
0.58
0.64
1.1500000000000001
0.56
0.38
0.28
0.54
0.27
0.5700000000000001
0.09
0.65
0.33
0.49
0.93
0.04
1.1
0.9400000000000001
1.02
1.18
0.13
0.45
0.7000000000000001
0.9500000000000001
0.73
0.9
0.61
0.11
0.21
0.21
0.9500000000000001
0.05
0.5
1.24
0.81
1.17
0.37
0.9400000000000001
0.0
0.5700000000000001
0.97
0.61
0.74
0.06
0.8
0.54
1.06
0.6
0.87
0.37
1.04
1.1500000000000001
0.28
1.26
1.23
1.1500000000000001
0.39
0.3
0.3
0.36
0.6900000000000001
1.05
0.41000000000000003
1.22
0.0
1.1500000000000001
0.63
0.17
0.66
0.61
0.31
1.09
1.19
0.55
0.03
0.64
0.5700000000000001
0.0
1.0
1.1
0.49
1.07
0.16
0.34
0.44
0.93
0.27
1.0
0.12
0.91
1.05
0.1
0.04
0.92
1.05
1.25
0.05
1.05
1.19
0.45
1.17
1.24
1.22
1.07
0.77
1.07
0.79
0.74
1.03
0.67
0.9
0.54
1.19
0.01
1.1400000000000001
0.33
0.71
1.0
0.96
1.06
1.1500000000000001
0.77
0.15
0.85
0.31
0.47000000000000003
0.64
1.1500000000000001
1.1500000000000001
1.03
1.07
0.04
0.8
0.5700000000000001
0.72
0.9400000000000001
1.05
0.45
0.5700000000000001
0.01
1.21
0.5700000000000001
0.13
0.31
0.73
0.99
1.26
1.07
0.17
0.33
0.0
0.46
0.54
0.77
0.13
0.98
0.55
0.61
0.08
0.53
0.42
0.5700000000000001
1.06
0.9
1.1
0.5700000000000001
0.96
0.17
0.9400000000000001
0.34
0.13
0.5700000000000001
0.11
0.9400000000000001
0.48
1.12
0.18
1.26
1.1300000000000001
0.8
0.43
0.19
0.74
1.1
0.98
0.61
1.27
1.17
0.44
0.73
0.96
0.97
0.18
0.89
0.13
0.9
1.1300000000000001
0.12
1.11
0.89
1.1500000000000001
0.4
1.26
0.89
0.51
0.6900000000000001
0.04
1.23
0.91
0.22
1.18
0.79
0.28
0.02
0.92
0.53
0.6900000000000001
1.04
0.68
1.07
1.01
0.61
0.77
1.19
1.02
0.25
1.02
0.5700000000000001
0.02
1.01
0.15
0.16
0.01
1.05
0.86
0.45
0.65
0.6
0.88
1.0
1.02
0.43
0.97
0.04
0.64
0.3
0.75
0.81
0.24
0.9500000000000001
1.1
1.1400000000000001
1.12
0.28
1.21
0.86
0.14
0.67
0.34
0.32
0.76
0.5700000000000001
0.81
0.77
0.36
0.05
1.01
0.71
0.05
0.9400000000000001
1.22
0.28
0.48
0.88
0.32
1.19
0.19
0.45
0.72
1.01
0.24
0.77
0.33
0.0
0.6
0.01
0.34
0.03
0.18
0.97
0.78
0.5
0.55
0.85
0.97
0.24
1.1500000000000001
1.17
0.18
1.05
0.37
0.81
0.36
0.8300000000000001
0.72
1.27
0.63
0.99
0.55
0.66
0.96
0.09
0.51
1.19
0.08
0.79
0.81
0.08
1.02
0.19
0.08
1.03
0.1
1.01
0.9400000000000001
0.4
0.07
0.03
0.72
0.49
1.16
0.26
0.5
0.64
0.09
0.63
0.89
0.0
0.41000000000000003
1.05
0.28
0.88
0.63
1.22
0.86
0.52
0.9
0.34
0.93
0.7000000000000001
0.13
0.8
0.22
0.01
1.22
0.79
1.03
0.43
0.64
1.06
0.8
0.06
0.23
0.35000000000000003
0.42
0.09
0.91
0.3
0.93
0.14
1.23
0.15
0.59
0.32
0.64
0.01
0.9500000000000001
1.07
0.87
0.37
0.76
1.21
0.05
0.65
0.89
1.22
0.04
1.0
1.27
0.04
0.45
0.13
0.23
0.34
0.7000000000000001
0.72
1.05
0.6
0.08
0.84
0.51
0.74
0.73
0.76
1.1400000000000001
0.8
0.23
0.67
0.55
1.07
0.52
0.74
0.08
0.97
0.5700000000000001
0.91
0.86
1.17
1.1300000000000001
0.59
0.65
0.35000000000000003
0.87
0.98
1.23
1.11
0.44
0.62
1.12
0.61
0.32
0.33
0.98
0.8300000000000001
0.61
0.53
0.6900000000000001
0.15
0.31
0.11
0.93
0.48
1.05
0.21
1.05
1.02
1.0
0.18
0.64
0.6
0.27
0.56
0.22
0.6
0.65
0.7000000000000001
1.1
0.73
1.1500000000000001
0.42
0.01
0.58
1.17
0.34
0.25
0.84
0.03
0.68
0.54
0.62
0.25
1.27
0.86
1.12
0.46
0.03
0.53
1.17
0.72
1.04
1.06
0.27
0.2
0.19
0.54
0.03
0.06
0.97
1.2
1.23
0.99
0.85
1.21
1.26
0.88
0.9500000000000001
0.77
0.88
1.11
0.09
0.93
0.64
0.77
0.8300000000000001
0.5
1.1500000000000001
0.5700000000000001
0.33
0.58
0.55
0.06
0.59
1.05
0.44
0.49
0.32
1.11
0.61
0.51
0.8200000000000001
1.1400000000000001
0.88
0.37
1.1500000000000001
0.11
1.17
0.9
0.8300000000000001
0.27
1.12
0.42
0.4
1.2
0.16
0.53
0.78
1.07
0.5700000000000001
0.65
0.72
0.75
0.37
0.39
0.79
1.05
0.02
0.07
0.93
0.4
1.1300000000000001
1.27
0.61
0.24
1.09
0.9
0.32
0.05
1.26
0.36
0.9
0.81
1.05
0.65
1.1300000000000001
0.34
1.18
0.25
0.58
1.06
0.16
1.08
0.38
0.5
0.37
0.66
0.11
0.97
1.1500000000000001
0.74
0.72
0.9400000000000001
0.46
1.08
0.25
1.12
0.8
0.12
0.33
0.99
0.36
0.98
0.31
1.03
0.21
0.9500000000000001
0.78
0.66
0.49
0.33
0.64
0.49
1.12
0.86
0.05
0.54
0.47000000000000003
0.38
0.51
0.13
0.43
1.12
0.25
0.96
0.38
0.3
0.74
0.5700000000000001
0.77
1.24
0.14
0.06
0.4
0.42
0.66
1.2
0.79
1.17
0.73
0.96
0.67
0.21
1.21
0.71
1.0
1.1300000000000001
1.22
0.37
0.66
0.73
0.48
0.68
0.12
0.28
0.04
0.25
1.1500000000000001
0.67
0.92
0.8
0.56
1.1500000000000001
1.06
0.18
0.68
0.64
0.19
0.84
0.46
0.63
1.03
0.21
0.34
1.27
0.8
0.16
0.74
0.08
0.18
0.99
0.9500000000000001
0.24
1.03
1.19
1.12
0.62
0.63
0.74
0.51
0.8300000000000001
0.42
0.77
0.28
0.56
0.92
1.04
0.71
0.45
1.1
0.39
0.4
0.85
0.75
0.26
1.05
0.24
0.35000000000000003
0.61
0.1
0.19
1.26
0.78
0.63
1.08
0.48
0.67
0.88
1.23
0.9400000000000001
1.08
0.18
0.92
0.19
0.08
1.12
0.02
0.3
1.27
0.04
0.03
1.1500000000000001
1.08
1.09
0.51
0.65
1.02
0.11
0.37
0.56
0.28
0.6900000000000001
0.9400000000000001
0.53
0.72
0.85
0.6900000000000001
0.12
0.25
0.49
0.67
1.06
1.1400000000000001
0.72
0.53
0.12
1.02
1.1400000000000001
1.02
0.73
1.05
0.52
1.09
0.27
0.19
1.11
0.44
0.22
0.97
1.02
1.05
0.96
0.65
0.05
0.38
0.64
0.59
1.18
0.61
0.9400000000000001
0.43
0.28
0.36
0.13
1.26
0.07
0.8200000000000001
1.1400000000000001
0.62
0.73
0.09
0.21
0.5
0.54
0.13
0.31
1.2
0.42
0.26
0.19
0.24
0.51
0.32
0.93
0.93
1.19
0.9400000000000001
0.18
0.97
0.27
1.27
0.8200000000000001
0.71
0.06
0.22
0.36
0.26
0.1
1.27
1.26
1.12
0.68
0.81
0.87
0.15
0.46
0.45
1.02
0.78
1.27
1.19
1.1
1.07
0.59
0.77
0.76
1.25
0.5700000000000001
0.01
1.1400000000000001
0.21
0.51
1.1300000000000001
0.78
0.54
1.25
0.99
1.22
0.03
0.98
0.13
0.79
0.01
1.0
0.34
0.15
1.08
0.68
0.73
1.1300000000000001
1.26
1.2
0.22
0.3
1.07
0.65
0.85
0.3
0.98
0.11
0.05
0.6900000000000001
0.63
1.03
0.99
1.02
0.51
0.65
1.07
0.28
0.43
0.88
1.26
0.31
0.26
1.01
0.02
0.35000000000000003
1.17
1.26
1.01
0.61
0.76
0.07
0.37
0.51
0.53
1.07
1.01
0.11
1.24
0.31
0.16
0.78
0.03
1.02
0.09
0.19
0.79
0.9500000000000001
0.25
1.03
0.35000000000000003
1.09
0.66
1.26
0.32
1.11
1.05
0.24
0.75
1.02
0.09
0.67
0.03
0.03
1.22
0.64
0.0
0.9400000000000001
0.91
0.75
0.33
1.25
0.17
0.32
0.19
0.07
0.44
0.18
0.33
1.12
0.23
0.8200000000000001
0.91
0.66
0.5
0.21
0.6
1.17
0.9
0.33
0.34
0.88
0.19
0.77
0.67
0.6900000000000001
0.03
1.26
0.39
1.03
1.12
0.36
0.5
1.21
1.26
1.27
0.45
1.19
0.67
1.23
0.61
1.25
0.25
0.56
1.02
0.35000000000000003
1.22
0.81
0.5700000000000001
0.02
0.74
0.8300000000000001
0.93
0.15
0.13
0.8
0.6
0.4
0.98
1.05
0.26
0.9400000000000001
0.8
0.08
1.1500000000000001
0.0
0.91
0.59
0.65
0.25
0.91
0.07
0.85
1.0
0.62
0.3
1.25
0.87
0.9400000000000001
1.11
0.15
0.03
1.27
0.92
0.18
0.08
1.01
0.09
0.75
0.61
1.06
0.79
1.22
0.91
0.22
0.6900000000000001
0.68
0.73
0.08
0.64
1.0
0.72
0.08
0.1
1.07
0.65
0.91
1.21
0.28
0.26
1.1400000000000001
0.01
0.28
0.51
0.31
0.1
0.08
0.88
0.65
0.8
1.1500000000000001
1.1300000000000001
0.19
1.0
0.28
0.28
1.12
1.04
0.1
0.47000000000000003
0.84
1.26
0.02
0.09
0.08
0.72
1.04
0.73
0.9500000000000001
0.86
0.15
0.1
1.11
1.26
0.05
0.35000000000000003
0.58
0.17
0.77
1.01
0.52
0.62
0.67
1.23
0.03
0.92
1.1300000000000001
0.89
0.54
0.75
0.25
0.16
0.0
0.11
0.36
0.68
0.46
0.5700000000000001
0.48
0.39
1.1500000000000001
0.35000000000000003
0.32
0.05
1.26
0.23
0.45
0.31
0.5
0.03
0.8300000000000001
0.55
0.5
0.81
0.12
0.02
0.37
1.27
0.2
0.39
0.46
0.2
0.18
1.09
0.88
0.54
0.5
0.5700000000000001
0.04
0.74
0.6900000000000001
0.88
1.03
0.42
0.9
0.74
0.66
0.61
1.26
0.35000000000000003
0.35000000000000003
1.08
0.18
0.53
0.81
1.11
0.68
0.96
0.48
0.12
0.22
1.07
0.21
1.1
0.43
1.02
0.09
0.55
0.43
0.97
0.88
0.74
1.23
0.25
1.02
0.32
0.37
0.76
0.3
0.93
1.1300000000000001
0.49
1.25
0.79
0.12
0.64
0.8300000000000001
0.51
0.7000000000000001
0.7000000000000001
0.9500000000000001
0.74
0.51
0.49
1.1400000000000001
0.36
1.08
0.14
0.15
0.88
0.06
0.31
0.74
0.73
0.74
0.02
1.22
1.22
0.86
1.23
0.03
0.74
0.64
0.25
1.12
1.22
0.05
0.3
0.53
1.03
1.18
1.23
0.99
1.22
1.25
0.72
0.19
1.26
0.71
0.9400000000000001
0.53
1.22
0.46
1.16
0.59
1.09
0.13
0.11
1.0
0.33
0.7000000000000001
0.09
0.18
0.35000000000000003
0.71
0.33
0.75
0.61
0.06
0.11
0.79
0.77
0.93
0.97
0.1
0.62
1.06
0.87
0.18
0.76
0.64
0.5700000000000001
0.67
1.07
0.08
0.91
0.68
1.19
0.38
1.1500000000000001
0.16
0.76
0.31
0.6
0.15
0.93
0.79
0.8200000000000001
1.01
0.84
0.66
1.16
0.6
0.64
0.52
0.39
0.42
0.39
0.8300000000000001
0.67
0.45
0.71
0.9400000000000001
0.09
0.39
0.62
0.78
0.89
0.99
0.21
1.03
0.39
1.1400000000000001
1.18
0.51
1.27
0.24
0.53
0.36
0.96
0.63
1.24
1.11
0.91
0.1
0.85
0.86
0.72
0.49
0.84
1.24
0.89
0.11
0.17
0.8200000000000001
0.6900000000000001
1.0
0.51
0.07
0.84
0.44
0.75
0.76
1.03
0.73
0.02
1.1
0.43
0.59
0.96
0.65
0.1
1.16
0.22
0.65
0.05
0.78
0.12
1.05
1.05
0.24
0.16
0.18
0.12
0.36
0.5
0.56
0.72
1.12
1.22
0.48
0.68
1.18
0.45
0.76
0.0
0.76
1.1400000000000001
0.36
0.3
0.25
0.18
0.44
0.05
0.4
0.81
0.24
0.9500000000000001
0.6900000000000001
0.0
0.26
0.04
1.27
0.54
0.98
0.55
0.8
0.14
0.93
0.71
0.16
0.11
0.52
0.8
0.2
0.93
1.19
0.44
0.17
0.4
1.19
1.04
0.7000000000000001
0.8200000000000001
0.28
0.99
0.92
0.38
0.63
0.32
0.7000000000000001
0.5700000000000001
0.75
0.89
0.49
0.6900000000000001
0.9500000000000001
0.6
0.89
0.43
0.34
0.18
0.89
0.32
0.72
0.16
0.02
0.43
0.28
1.06
0.76
0.55
0.91
1.18
0.76
0.61
0.81
0.7000000000000001
0.9500000000000001
0.08
0.72
1.22
0.14
0.45
0.51
0.4
0.5
0.2
0.28
0.93
0.37
0.47000000000000003
0.55
0.49
0.86
1.12
0.93
0.92
0.33
1.07
0.55
0.5700000000000001
0.81
0.89
0.91
0.7000000000000001
0.99
0.53
0.42
0.88
0.96
0.87
0.09
0.66
0.6900000000000001
0.9500000000000001
0.54
0.04
1.24
0.59
1.04
0.63
0.91
0.0
0.63
1.0
0.84
0.6900000000000001
0.8300000000000001
0.13
1.02
0.45
0.26
0.42
1.06
0.31
0.3
0.65
0.98
0.6900000000000001
1.05
0.89
0.13
1.07
0.91
0.77
0.92
0.74
0.99
0.61
0.99
1.07
0.8
0.21
1.1500000000000001
0.5
1.04
0.52
0.68
1.11
0.34
0.04
0.85
0.88
0.21
0.6900000000000001
0.9400000000000001
1.19
0.9400000000000001
0.32
0.46
0.91
0.8200000000000001
1.26
0.5
0.93
1.03
0.24
0.44
0.16
0.96
0.62
1.05
0.25
0.9
0.32
1.17
0.9400000000000001
1.09
1.0
0.35000000000000003
0.42
0.44
1.06
0.96
0.62
0.3
0.89
1.25
0.34
0.67
0.32
0.81
0.5700000000000001
1.26
0.66
0.65
0.38
0.73
0.05
0.13
1.04
1.01
1.27
0.79
0.99
1.07
0.56
0.63
0.52
0.8200000000000001
1.17
1.09
0.22
0.89
1.19
0.87
0.34
1.05
0.28
0.51
0.49
1.01
1.11
0.9500000000000001
0.22
0.74
0.24
1.1500000000000001
0.76
0.07
0.52
1.1300000000000001
1.23
0.77
0.31
0.99
0.05
0.84
1.1500000000000001
0.22
0.98
0.91
0.14
0.03
1.18
0.5700000000000001
0.11
1.17
1.1400000000000001
0.31
0.62
0.08
0.5700000000000001
0.98
0.91
0.77
0.76
0.47000000000000003
0.87
0.98
0.09
0.5700000000000001
1.0
0.5700000000000001
0.17
0.26
0.86
0.93
1.02
0.7000000000000001
1.24
0.62
0.33
1.26
0.09
0.28
0.65
0.01
0.97
0.66
0.21
0.0
0.96
0.78
0.59
0.46
0.93
0.61
0.26
0.65
0.68
0.2
0.8300000000000001
0.46
1.2
0.89
0.0
1.1300000000000001
1.06
0.2
0.08
0.23
0.96
0.03
0.63
0.89
0.28
0.1
0.92
0.54
0.43
0.17
0.6
0.55
0.39
1.11
0.8300000000000001
1.23
1.1500000000000001
0.96
0.48
0.52
1.24
0.26
0.77
0.15
0.02
0.66
0.17
0.44
0.17
1.12
0.49
0.07
1.19
0.56
0.38
0.19
0.68
0.22
0.52
0.79
1.07
0.67
0.66
0.86
0.76
0.36
1.07
0.33
1.24
0.53
0.29
0.86
0.31
0.62
0.35000000000000003
1.03
0.04
0.96
0.46
0.21
0.64
0.43
0.68
0.06
0.05
0.77
0.38
1.1300000000000001
1.1
0.24
0.32
0.26
0.14
0.89
1.1300000000000001
1.04
0.68
0.4
0.85
0.89
0.27
0.3
0.74
0.8300000000000001
1.2
0.78
0.81
0.03
0.62
0.52
0.54
0.41000000000000003
0.96
0.3
1.1500000000000001
0.71
0.31
0.62
0.59
0.25
0.96
0.37
0.9400000000000001
1.19
1.09
0.41000000000000003
0.67
0.64
0.76
0.34
1.23
0.63
0.97
0.66
0.8300000000000001
0.97
0.8200000000000001
0.12
0.84
1.07
0.35000000000000003
0.74
0.62
1.27
0.52
1.26
0.88
0.5
0.47000000000000003
0.51
0.58
0.13
1.1400000000000001
0.52
0.6
0.17
0.78
1.23
0.03
0.6
1.17
0.17
0.1
0.6900000000000001
0.38
0.56
0.66
0.15
0.31
0.9
1.01
1.23
0.5700000000000001
0.31
0.33
0.64
0.45
0.5700000000000001
1.19
0.6900000000000001
1.1300000000000001
1.1500000000000001
0.73
0.5
0.17
0.12
1.19
1.1500000000000001
0.9500000000000001
0.79
0.23
1.1
0.74
0.4
0.14
0.72
0.65
0.5
0.02
1.09
0.16
0.02
0.9500000000000001
0.9500000000000001
0.09
0.21
0.22
1.1400000000000001
0.88
0.62
0.11
0.51
0.6900000000000001
0.0
0.2
0.98
1.09
1.0
0.52
0.74
0.11
0.51
0.77
1.23
1.0
0.65
1.09
0.23
0.19
1.19
0.72
1.11
1.1500000000000001
0.59
0.4
0.55
0.28
0.86
0.55
0.59
0.71
0.01
0.63
0.91
0.08
0.59
1.25
0.27
0.91
0.0
0.61
0.52
0.5700000000000001
1.22
0.47000000000000003
0.03
0.88
0.99
0.34
0.77
0.97
1.04
0.85
0.8300000000000001
0.99
0.71
0.36
0.86
0.49
1.22
0.44
0.45
1.07
1.11
0.61
0.5700000000000001
0.1
1.1500000000000001
0.07
0.72
0.7000000000000001
0.24
0.8200000000000001
0.98
1.04
0.61
0.79
0.24
0.84
1.06
0.46
0.5700000000000001
0.38
0.56
0.41000000000000003
1.2
0.25
0.18
0.29
1.23
0.75
0.5700000000000001
0.61
0.06
0.75
1.21
0.03
0.99
0.7000000000000001
0.87
0.02
0.98
0.22
0.09
0.13
0.43
1.09
0.0
1.23
0.56
1.1500000000000001
0.56
0.98
0.67
0.56
0.35000000000000003
0.47000000000000003
0.65
1.23
0.15
0.92
0.6
0.08
1.17
0.28
0.8200000000000001
1.08
0.12
0.99
1.1500000000000001
0.76
1.1500000000000001
0.56
0.63
0.09
0.61
1.26
0.35000000000000003
1.22
0.67
0.28
0.88
1.12
1.01
0.39
0.2
0.98
1.08
0.36
0.56
0.11
0.8300000000000001
0.91
1.1500000000000001
0.34
0.05
1.18
0.92
0.5
0.47000000000000003
0.47000000000000003
0.96
0.02
0.19
0.45
0.79
0.25
0.91
1.02
0.09
0.24
1.1400000000000001
0.54
0.28
0.32
0.17
0.27
0.74
0.08
0.77
0.79
0.38
1.09
0.5700000000000001
1.03
0.23
0.61
0.63
0.81
0.28
0.03
1.12
0.88
0.5700000000000001
1.21
1.18
1.04
0.52
0.47000000000000003
0.96
0.41000000000000003
1.2
0.29
1.04
0.21
0.23
0.92
0.73
0.9400000000000001
0.9
0.59
1.21
0.72
0.56
0.86
0.51
0.51
0.22
0.22
0.75
0.38
0.04
0.62
0.4
0.04
1.23
0.43
0.0
1.25
0.36
1.1500000000000001
0.19
0.87
0.8200000000000001
0.49
1.17
1.06
0.28
0.53
0.3
0.01
0.61
1.25
1.27
0.86
0.49
0.99
1.24
0.26
0.63
0.81
0.48
0.67
1.01
0.8200000000000001
0.2
1.27
0.39
0.5700000000000001
0.04
0.88
0.86
1.06
0.88
1.06
0.5
0.06
1.2
1.11
0.98
0.56
0.12
1.24
1.21
0.8
0.63
0.49
0.68
1.16
0.9400000000000001
0.37
0.04
0.34
0.8
0.61
0.06
1.1300000000000001
1.21
1.06
0.59
0.26
1.26
0.27
1.21
0.17
0.76
1.1300000000000001
0.91
0.76
0.7000000000000001
1.11
1.2
1.06
0.05
1.07
0.79
0.1
0.37
1.02
0.73
0.9400000000000001
0.18
1.01
0.01
0.64
0.6
1.1400000000000001
1.11
0.31
0.72
0.54
0.5
0.84
0.17
0.67
1.25
0.01
0.66
1.19
1.26
1.01
0.8200000000000001
1.17
1.07
1.08
0.47000000000000003
1.1500000000000001
0.35000000000000003
0.89
1.17
1.03
0.37
0.25
0.14
0.93
0.42
0.12
1.1500000000000001
1.2
1.23
0.74
0.14
1.2
1.22
0.93
0.24
0.9500000000000001
0.6900000000000001
0.92
0.1
1.1500000000000001
0.07
1.03
1.0
0.02
0.73
0.1
0.81
0.45
0.44
0.28
0.07
1.11
0.89
1.1500000000000001
1.25
0.08
0.97
0.42
1.08
1.06
0.15
0.24
1.1500000000000001
0.02
0.93
0.53
0.7000000000000001
0.37
1.08
0.79
0.37
0.54
0.07
0.22
0.06
0.85
1.07
1.01
0.16
1.0
1.1
0.26
1.2
0.04
1.2
1.1500000000000001
0.55
0.08
0.71
0.33
0.01
1.11
0.13
0.59
1.01
0.85
1.02
0.59
1.1300000000000001
1.2
0.79
0.15
0.8
0.05
1.24
0.87
0.84
0.71
0.8200000000000001
0.26
1.22
0.25
0.1
0.64
0.9400000000000001
0.67
0.92
1.19
0.53
0.42
0.74
0.98
1.02
0.19
0.24
0.86
0.73
0.19
0.75
1.23
0.47000000000000003
0.37
0.49
0.18
0.63
1.23
0.22
0.39
0.99
1.09
1.1400000000000001
0.17
0.34
0.63
0.73
1.25
0.41000000000000003
0.9400000000000001
0.6
0.49
0.04
0.53
1.12
0.99
1.1
0.99
1.02
1.06
0.47000000000000003
0.89
0.37
1.02
1.19
0.8
0.03
1.11
0.96
0.47000000000000003
1.04
1.09
0.85
0.8
1.1500000000000001
1.27
0.38
0.0
0.41000000000000003
0.11
0.1
0.18
1.01
1.04
0.21
0.87
1.1500000000000001
1.06
0.93
0.41000000000000003
0.56
0.5700000000000001
0.91
0.39
0.35000000000000003
0.15
0.9400000000000001
0.29
1.08
0.98
1.22
0.97
0.98
0.65
0.38
0.9400000000000001
0.14
0.11
0.9400000000000001
1.1300000000000001
0.36
0.61
0.62
0.75
0.38
0.68
0.98
0.19
1.21
1.19
0.56
1.25
0.12
0.51
1.21
1.17
0.73
1.22
0.87
0.9500000000000001
0.09
0.26
0.8
0.66
0.53
0.46
1.26
1.1
0.33
0.0
0.31
0.86
0.63
0.28
0.9
0.98
0.67
0.47000000000000003
0.97
0.77
0.17
1.03
0.19
0.6900000000000001
0.61
0.5700000000000001
0.03
0.56
0.76
1.0
0.77
0.6900000000000001
1.03
0.49
0.28
0.67
0.09
1.0
0.65
0.19
1.27
1.05
1.18
0.35000000000000003
0.8200000000000001
0.31
0.28
0.36
0.54
0.76
0.24
1.21
0.44
0.5700000000000001
1.21
0.56
0.4
0.53
0.47000000000000003
0.24
0.21
0.78
1.11
0.3
0.05
1.25
1.01
0.85
0.92
0.5
0.89
0.77
0.62
0.8200000000000001
0.11
0.68
0.13
0.74
0.89
0.6900000000000001
1.05
0.33
0.8300000000000001
0.22
1.18
0.8300000000000001
1.02
0.92
0.85
1.04
1.26
0.33
0.62
1.27
0.76
0.13
0.0
0.26
0.51
1.1500000000000001
0.49
0.1
0.33
0.91
0.13
0.87
0.28
1.0
1.22
0.04
0.16
0.49
1.1300000000000001
0.37
0.21
0.99
0.91
0.11
0.75
0.0
0.14
0.42
0.35000000000000003
1.24
1.21
0.49
1.1400000000000001
0.55
0.2
0.99
0.24
0.1
0.1
0.98
1.08
0.49
1.22
1.12
1.21
0.14
0.01
0.13
0.88
0.5700000000000001
1.19
0.54
0.11
0.21
0.88
0.37
0.35000000000000003
0.15
0.85
0.77
0.16
1.21
1.05
1.17
0.04
1.09
0.25
0.33
0.74
0.07
0.39
1.02
0.79
0.87
0.46
1.26
0.93
1.05
0.27
0.06
0.32
0.91
0.55
0.67
1.1400000000000001
0.96
1.0
0.25
1.01
1.06
1.1500000000000001
0.06
0.85
0.07
0.27
1.26
0.49
0.5
0.88
0.74
0.37
1.1500000000000001
0.71
0.9500000000000001
0.23
1.21
0.86
0.45
0.55
0.27
1.09
0.44
0.03
0.45
1.09
0.76
0.75
0.6
0.02
0.56
1.12
0.45
0.8
1.09
1.07
0.04
0.47000000000000003
0.38
0.43
0.39
0.25
0.67
0.6900000000000001
1.03
0.37
0.48
1.0
0.49
0.88
0.68
0.2
0.0
0.33
0.91
0.26
0.51
0.27
0.11
0.61
0.18
0.24
0.51
0.27
0.99
0.8200000000000001
0.97
1.17
1.1500000000000001
0.26
0.34
0.7000000000000001
1.1300000000000001
1.08
0.36
0.8200000000000001
1.19
0.17
0.01
0.5700000000000001
0.5700000000000001
0.37
1.0
0.41000000000000003
0.12
1.05
0.2
0.43
0.58
1.1400000000000001
0.72
0.97
1.27
1.25
0.5700000000000001
0.17
0.38
0.5700000000000001
0.49
0.55
0.2
0.79
0.54
1.26
1.19
0.55
0.47000000000000003
0.87
0.9500000000000001
0.53
0.86
1.07
0.54
0.35000000000000003
0.33
1.16
0.6900000000000001
0.63
0.48
0.09
0.37
0.46
0.64
0.11
0.02
0.5700000000000001
0.36
0.47000000000000003
0.6
0.14
0.31
0.4
0.54
0.8
0.9
0.0
1.02
0.07
0.3
0.56
0.33
0.63
0.99
0.8300000000000001
0.11
0.49
0.59
0.1
0.8
0.08
0.04
1.18
0.6900000000000001
1.17
0.88
0.27
0.79
1.2
0.22
0.11
0.59
1.09
0.96
0.11
1.1500000000000001
1.24
0.26
0.65
0.61
0.45
1.26
0.04
0.26
0.64
0.2
0.03
0.88
0.9400000000000001
1.1400000000000001
1.22
0.9400000000000001
0.03
1.07
1.27
0.84
0.5700000000000001
0.35000000000000003
0.56
1.0
1.11
0.56
0.56
0.91
0.64
1.2
0.87
0.23
0.26
0.15
0.67
0.56
1.18
1.2
0.41000000000000003
0.74
0.39
1.1500000000000001
0.6900000000000001
0.35000000000000003
0.02
0.79
0.91
0.78
0.28
0.97
0.59
1.22
0.8300000000000001
0.23
1.27
0.9500000000000001
0.35000000000000003
0.23
0.8200000000000001
0.99
0.54
0.22
0.15
1.2
0.04
1.24
0.6
1.17
1.19
0.9
0.99
0.48
0.51
0.84
1.21
1.11
0.19
0.97
0.49
0.17
0.79
0.23
0.08
0.34
1.1500000000000001
0.6900000000000001
0.37
0.6
1.02
1.12
1.06
1.11
0.55
0.77
0.44
0.71
1.26
0.07
0.87
0.33
0.91
0.25
0.72
0.71
0.5700000000000001
1.1500000000000001
0.02
0.26
0.2
0.5700000000000001
0.02
1.05
1.06
0.68
0.23
0.07
0.97
0.33
0.4
0.01
0.93
0.7000000000000001
0.02
0.7000000000000001
0.6900000000000001
1.1300000000000001
0.9500000000000001
0.17
0.75
0.73
0.9400000000000001
0.08
0.59
0.3
1.17
0.54
0.61
0.6
0.8200000000000001
0.41000000000000003
0.76
0.87
0.2
0.8200000000000001
0.34
0.78
0.32
0.33
0.87
0.02
0.6900000000000001
1.03
1.1
1.08
0.09
0.24
0.44
0.73
0.88
0.15
0.71
0.55
0.07
1.2
1.22
0.25
0.86
0.01
0.5700000000000001
0.17
0.45
0.75
0.32
0.1
0.32
1.16
0.5700000000000001
0.92
0.88
1.22
0.39
0.27
1.26
0.4
1.04
0.67
0.3
0.18
1.2
0.29
0.44
0.45
0.18
0.37
0.51
0.19
1.1400000000000001
0.08
0.54
0.66
1.09
0.81
0.55
0.9
1.11
0.74
0.32
0.99
0.13
1.05
0.92
0.73
0.75
0.34
0.03
0.5700000000000001
1.18
0.42
0.71
0.08
0.75
0.26
1.19
0.67
1.27
0.75
0.1
0.36
0.91
0.53
1.12
1.26
0.18
1.1400000000000001
0.02
1.01
0.03
0.63
0.4
0.81
1.01
1.05
0.06
1.17
0.49
0.08
1.18
0.53
0.74
0.25
0.52
0.88
0.87
0.59
1.19
0.03
0.1
1.06
1.03
0.9500000000000001
0.19
1.0
1.18
0.23
0.59
0.15
0.01
0.89
1.0
0.76
0.86
0.22
0.6
0.56
0.78
0.85
0.59
0.31
0.72
0.12
0.67
0.5
0.75
0.14
0.53
0.88
0.79
0.9400000000000001
0.21
0.28
0.32
0.11
1.03
1.21
1.11
0.74
0.16
0.51
0.81
0.9500000000000001
0.51
0.88
0.49
1.18
1.1300000000000001
0.7000000000000001
0.08
1.07
1.2
0.25
0.11
1.0
0.68
0.18
0.07
0.64
0.16
0.31
0.9400000000000001
0.17
0.41000000000000003
0.3
0.28
0.66
0.41000000000000003
0.58
0.55
0.12
0.7000000000000001
0.99
0.08
0.71
0.5
1.25
0.96
0.23
1.12
1.22
0.89
0.85
1.25
0.74
0.66
0.56
1.17
0.38
0.16
1.07
1.22
0.71
1.09
0.2
0.74
1.1
0.55
0.24
1.02
0.26
0.73
1.1300000000000001
0.4
1.25
0.41000000000000003
0.43
1.05
0.7000000000000001
1.23
0.53
0.81
0.6
0.58
0.18
0.8300000000000001
0.76
0.78
0.92
0.92
1.23
0.9
0.45
0.92
0.14
0.9
0.24
0.91
0.36
1.05
1.17
0.55
0.42
1.16
0.84
0.67
0.7000000000000001
0.1
0.1
0.7000000000000001
1.19
0.88
0.19
0.9400000000000001
1.09
0.34
0.05
0.51
1.18
0.37
0.05
1.1300000000000001
0.9
1.04
0.59
0.51
0.9500000000000001
0.01
1.2
0.74
0.84
1.03
0.47000000000000003
1.1500000000000001
0.27
0.91
1.1
0.71
0.5700000000000001
0.04
1.04
0.28
1.06
0.78
0.96
0.24
1.1500000000000001
0.41000000000000003
0.98
0.55
0.24
1.11
0.84
0.0
0.87
0.22
0.99
0.1
0.62
0.88
0.72
0.08
0.66
0.33
1.1400000000000001
0.92
0.46
1.2
0.79
0.37
0.6900000000000001
0.05
0.7000000000000001
1.03
0.9
1.22
0.62
0.28
0.63
0.98
0.12
0.45
0.8300000000000001
1.26
1.04
1.16
1.19
0.87
0.63
0.28
1.21
1.11
0.76
0.04
0.53
1.18
0.18
0.88
1.1
0.73
0.32
0.71
0.12
0.62
0.04
0.9
0.33
0.14
0.65
0.8200000000000001
0.34
0.28
0.55
0.78
0.54
0.91
0.51
0.39
0.8200000000000001
0.08
0.85
0.48
0.12
0.38
0.56
0.03
0.61
0.88
0.9
0.9
0.28
0.76
0.03
0.19
0.8200000000000001
0.23
0.91
1.1300000000000001
1.21
0.47000000000000003
0.81
0.37
0.4
0.61
0.64
0.6900000000000001
0.55
0.34
0.86
0.16
0.36
1.18
0.41000000000000003
0.23
0.86
0.78
0.68
0.54
0.52
0.21
1.09
1.1
1.22
0.99
0.9
0.34
1.01
1.1
0.97
0.6900000000000001
0.45
0.34
0.81
0.74
0.75
0.8200000000000001
1.18
1.05
0.45
1.0
0.78
0.29
0.65
0.24
0.35000000000000003
0.5700000000000001
1.27
0.24
0.18
0.12
0.87
1.1400000000000001
0.9500000000000001
0.03
0.97
1.17
1.1
1.26
1.1500000000000001
0.04
0.26
1.18
1.17
1.2
1.25
0.17
0.68
0.73
0.36
0.97
0.43
0.35000000000000003
1.05
0.09
0.36
0.4
0.72
1.18
0.5700000000000001
0.61
0.75
1.03
0.28
1.23
0.48
0.63
0.9
1.23
0.99
1.09
0.28
0.8
0.8
0.7000000000000001
1.07
0.47000000000000003
0.84
0.88
1.2
1.08
1.11
0.98
0.79
0.5
0.64
0.05
0.72
0.43
0.0
0.21
0.71
0.16
1.1500000000000001
1.09
0.23
0.28
0.24
1.05
0.26
0.4
1.19
1.2
0.25
0.08
0.24
0.73
0.8
0.12
0.31
0.96
0.9
0.5700000000000001
0.28
0.2
1.2
1.0
0.15
1.06
0.13
0.11
0.8
1.1500000000000001
0.53
0.35000000000000003
0.71
0.75
0.99
1.08
1.05
0.49
1.04
0.23
0.71
0.8
1.09
0.03
0.34
0.51
0.07
0.64
0.59
0.13
0.97
0.8200000000000001
0.26
1.18
0.29
0.22
0.8
0.52
0.56
0.3
0.37
0.49
1.06
1.26
0.55
0.64
0.24
0.9
0.36
0.41000000000000003
0.23
1.11
0.09
0.44
0.16
1.23
0.0
0.28
1.25
0.9400000000000001
0.45
0.91
0.08
0.86
0.34
1.19
0.2
1.24
0.06
0.81
0.51
0.43
0.42
0.3
1.09
0.85
1.05
0.52
0.21
0.92
1.1300000000000001
0.31
1.27
0.43
1.25
0.34
1.08
0.81
0.22
0.96
0.38
1.1400000000000001
0.77
0.2
0.66
0.19
0.22
0.52
0.34
0.81
0.84
0.03
1.1300000000000001
0.67
0.99
0.76
0.36
0.99
1.03
0.45
0.65
1.11
0.14
0.0
0.8300000000000001
0.85
1.2
0.97
1.22
0.3
0.32
0.17
0.18
0.15
1.07
0.46
0.28
0.8
0.99
0.74
0.84
0.8200000000000001
0.54
0.01
0.51
0.77
1.11
0.07
0.51
0.26
0.78
1.0
0.17
0.21
0.62
0.24
0.37
0.12
0.2
0.51
1.24
0.93
0.36
0.42
0.52
0.9500000000000001
1.01
1.22
0.27
1.17
0.55
1.12
0.43
0.9400000000000001
0.89
1.23
0.5700000000000001
0.09
0.65
0.37
0.68
1.09
0.8
0.39
1.25
0.25
0.62
0.18
0.37
0.32
1.24
1.19
0.19
0.58
0.67
0.32
1.05
0.26
0.56
1.0
0.9
1.01
1.23
1.2
1.16
0.53
0.38
1.08
0.45
0.0
0.76
0.76
1.24
0.71
0.81
0.65
0.42
0.18
0.35000000000000003
0.47000000000000003
0.55
0.53
0.55
0.42
0.62
0.18
0.9500000000000001
0.6900000000000001
0.54
0.62
0.87
0.01
0.86
0.97
0.02
0.02
0.86
0.97
0.33
1.04
0.63
0.75
0.66
1.08
0.1
1.06
1.07
0.89
0.8
0.46
0.4
0.89
1.25
0.96
0.17
0.22
1.1500000000000001
0.86
1.01
0.92
1.19
0.35000000000000003
1.09
0.9400000000000001
0.2
0.85
0.61
0.76
0.16
1.11
0.18
0.43
0.01
1.1400000000000001
0.04
0.03
0.73
1.2
0.76
1.09
1.26
0.09
0.5
0.66
0.11
0.06
0.87
1.1500000000000001
0.6
1.08
0.58
0.59
0.31
0.99
0.24
0.67
0.04
1.03
0.03
0.87
1.1400000000000001
0.1
1.27
1.24
0.09
0.38
0.11
0.8200000000000001
0.88
1.2
0.9
0.6
0.63
1.19
1.1
0.52
0.06
0.09
0.24
0.39
1.04
1.23
0.37
0.39
0.27
0.33
0.42
0.01
0.4
0.42
0.26
1.21
0.11
0.88
1.25
0.97
0.11
0.0
1.1
1.18
0.19
1.09
1.03
0.81
1.17
0.08
0.04
0.5700000000000001
0.5
0.63
1.01
0.81
0.47000000000000003
0.74
0.23
0.52
0.77
0.97
0.35000000000000003
0.63
0.03
0.42
0.1
1.09
0.75
0.71
0.7000000000000001
1.03
1.1300000000000001
1.18
0.18
1.21
0.23
1.17
1.0
0.84
0.93
0.88
0.78
1.27
0.61
0.7000000000000001
0.98
0.2
1.0
0.29
0.5
0.05
0.63
0.51
0.01
0.87
0.77
0.32
0.78
1.27
1.2
0.2
0.11
0.22
1.12
1.02
0.09
1.2
0.51
0.66
0.79
1.2
1.18
0.91
0.11
0.74
0.43
0.96
1.06
0.63
1.06
0.08
0.91
0.35000000000000003
0.93
0.16
0.48
0.85
0.5700000000000001
0.24
0.9400000000000001
1.08
0.25
0.21
0.37
0.5
1.1500000000000001
0.96
0.55
1.1500000000000001
0.35000000000000003
1.24
0.01
1.05
0.21
0.35000000000000003
0.51
0.86
0.25
0.53
1.05
0.52
1.1500000000000001
0.31
1.26
0.06
0.09
0.72
0.73
1.22
0.44
0.43
1.27
0.58
1.1500000000000001
0.28
1.19
0.23
0.6
0.99
1.02
0.6
0.72
0.47000000000000003
0.23
0.75
0.63
0.08
1.25
0.79
0.34
0.23
0.51
0.8
0.77
0.1
0.84
1.03
0.2
0.61
0.93
0.28
1.12
0.03
0.67
0.51
0.64
1.02
1.07
0.36
0.23
1.26
0.02
0.73
0.46
0.28
0.01
0.32
0.25
0.11
1.1
0.14
0.9
0.91
0.92
0.5
0.51
0.67
1.01
0.3
0.5700000000000001
0.87
0.25
0.88
1.03
0.02
1.04
0.04
0.81
0.49
1.0
0.2
1.1400000000000001
0.67
1.21
0.88
0.81
0.51
1.17
1.1400000000000001
0.87
0.71
0.51
0.64
0.73
0.02
0.19
0.65
0.0
0.99
0.0
0.33
0.21
0.07
1.25
0.87
0.46
0.5
1.2
0.19
0.96
0.73
0.76
0.51
0.9500000000000001
0.68
0.1
0.11
0.99
1.23
0.15
0.89
0.8
0.6
0.03
0.59
0.52
0.19
0.9
0.79
0.2
1.2
0.68
1.2
0.9400000000000001
0.41000000000000003
0.18
0.21
0.54
0.36
0.91
1.19
0.06
0.75
0.09
0.7000000000000001
0.85
0.24
0.12
0.99
0.76
0.51
0.68
1.06
0.87
0.76
0.8
1.1400000000000001
1.22
1.02
1.1
1.24
0.15
0.37
0.0
0.76
0.23
0.64
0.48
0.68
0.73
0.77
0.76
0.33
0.5
0.62
0.21
0.52
0.23
0.53
0.73
0.01
0.77
0.56
0.3
0.25
0.27
0.64
0.76
1.1
0.42
0.1
0.67
0.05
0.56
1.23
0.17
1.25
1.1500000000000001
0.74
1.04
0.9500000000000001
0.54
0.12
0.74
0.76
1.1300000000000001
0.08
0.93
0.63
0.56
0.39
0.43
1.2
1.18
0.48
0.68
0.45
0.0
0.24
0.47000000000000003
0.47000000000000003
0.44
0.39
0.6900000000000001
0.17
1.0
0.04
0.28
0.7000000000000001
0.56
0.65
0.22
0.35000000000000003
1.1500000000000001
0.98
0.6
0.48
1.23
0.61
0.24
0.03
0.8
0.44
0.89
0.55
0.6900000000000001
0.33
1.04
0.91
1.02
0.28
1.09
0.07
0.71
0.42
0.8200000000000001
1.25
0.29
0.18
1.27
0.29
0.34
0.7000000000000001
1.1300000000000001
0.81
1.02
0.16
0.22
0.31
0.41000000000000003
0.11
0.15
0.2
0.12
0.22
0.59
0.31
0.8
1.01
0.24
1.17
0.03
0.92
1.21
0.77
0.5
1.01
0.26
0.9
1.22
0.32
0.31
0.1
1.27
0.39
0.5700000000000001
0.8
0.19
0.96
0.85
0.9400000000000001
0.13
0.19
0.38
0.9500000000000001
0.5700000000000001
0.92
0.14
0.9500000000000001
0.88
0.08
0.44
0.18
1.04
0.62
0.42
0.74
0.13
0.02
0.67
1.24
1.26
0.65
0.0
0.16
0.53
1.24
1.26
0.51
1.04
0.9
1.16
1.1400000000000001
0.89
0.81
0.9
0.87
0.91
0.75
0.65
0.19
0.14
1.1
1.21
0.41000000000000003
0.09
1.17
0.8
1.1500000000000001
0.0
0.62
0.84
0.9400000000000001
1.21
1.08
0.74
1.19
0.22
0.19
0.22
1.1300000000000001
0.41000000000000003
0.03
0.93
0.78
0.08
0.18
0.5700000000000001
1.08
0.64
1.09
0.47000000000000003
0.54
0.03
0.22
0.9
0.55
0.5700000000000001
1.1400000000000001
1.0
0.38
1.27
0.5
0.45
0.49
0.2
0.27
1.17
0.46
1.11
0.17
0.8200000000000001
1.0
0.49
0.37
0.71
1.25
0.93
1.05
0.26
0.28
0.4
0.79
1.01
0.5700000000000001
0.35000000000000003
0.8300000000000001
0.04
0.8200000000000001
0.97
0.38
0.15
0.11
1.2
0.79
1.2
0.06
1.2
0.76
0.16
0.22
1.26
0.25
0.5700000000000001
0.66
0.16
1.21
0.98
1.07
0.37
0.2
0.55
1.18
0.8
1.1300000000000001
0.4
0.98
0.19
0.31
0.8300000000000001
0.9400000000000001
0.5700000000000001
0.75
0.05
0.32
0.8
1.1500000000000001
0.38
0.73
1.26
0.06
0.3
0.28
0.71
0.07
0.07
0.87
0.72
0.2
0.14
0.71
0.17
1.02
0.62
0.91
1.0
0.87
0.11
0.8300000000000001
0.08
0.87
0.46
0.17
1.24
0.88
0.55
1.19
0.48
1.09
0.65
0.01
0.36
0.22
0.17
0.49
0.59
1.03
0.78
0.98
0.98
0.76
0.74
1.11
0.32
0.98
0.36
0.75
1.01
1.1500000000000001
0.39
0.5700000000000001
0.71
0.27
0.55
0.9500000000000001
0.4
0.49
0.36
0.38
0.9
1.1400000000000001
0.66
0.28
0.33
0.46
0.8200000000000001
0.75
0.42
1.24
0.43
0.78
0.8
0.44
0.23
0.96
0.61
1.01
0.45
0.74
0.67
0.88
0.26
1.19
0.33
0.14
0.6900000000000001
0.17
0.62
1.1400000000000001
0.74
0.49
1.24
0.55
0.64
0.19
0.17
0.89
0.09
0.28
0.5700000000000001
1.08
0.61
0.11
0.08
0.92
0.9500000000000001
1.11
0.43
1.0
1.07
1.12
1.01
1.19
0.6
0.5
0.31
0.26
0.01
0.85
0.45
0.84
0.52
0.68
0.37
0.25
0.01
0.85
0.4
0.27
0.45
0.03
1.09
0.64
0.73
0.62
1.27
0.4
0.98
0.74
0.61
1.05
1.2
0.21
1.1300000000000001
0.67
1.1500000000000001
1.2
0.12
0.77
1.03
0.33
0.72
0.01
1.1
0.16
0.1
0.36
0.55
0.7000000000000001
0.0
0.22
1.12
0.38
1.09
0.9400000000000001
0.98
0.77
1.2
0.67
0.34
0.63
0.66
0.77
0.42
1.02
1.11
0.31
0.99
0.22
0.03
1.25
0.09
0.28
0.84
0.9500000000000001
0.27
0.16
0.65
0.24
0.56
0.51
0.63
1.22
0.78
0.08
0.79
0.07
0.44
0.88
0.58
0.77
1.11
0.01
1.19
1.21
0.73
0.61
0.71
1.1
0.42
1.18
0.23
0.86
0.8
0.49
0.91
0.24
1.22
0.15
0.07
1.08
0.5
0.62
0.9500000000000001
1.25
0.22
0.86
1.05
0.56
0.43
0.09
0.2
0.79
0.6900000000000001
0.84
0.34
0.61
0.63
1.01
0.08
0.16
0.86
1.18
0.89
0.8300000000000001
0.76
0.19
0.91
0.72
0.87
0.23
0.31
0.33
0.92
1.06
0.5
0.1
0.5700000000000001
0.17
0.9500000000000001
1.11
0.99
0.46
0.99
0.41000000000000003
0.1
0.98
0.19
0.12
0.14
0.74
1.27
0.54
1.17
1.23
1.27
1.25
0.26
1.17
0.06
1.05
0.71
0.05
0.8
1.19
0.62
1.27
1.12
0.2
1.11
0.23
1.01
0.5
0.3
0.13
0.15
0.91
0.61
0.47000000000000003
0.9400000000000001
0.09
0.04
0.46
1.01
0.06
0.31
0.37
0.78
0.09
0.96
0.49
0.59
0.06
0.45
0.23
0.12
0.32
1.0
0.51
1.02
0.03
0.59
0.4
0.51
0.18
0.02
0.74
0.44
1.1300000000000001
0.96
0.86
0.66
0.05
0.13
1.11
0.9
0.8200000000000001
0.13
1.09
0.99
0.43
0.28
0.93
0.05
0.5700000000000001
0.06
1.2
1.02
0.8
0.98
0.6
0.19
1.1300000000000001
0.16
0.73
1.2
0.19
0.51
1.2
0.23
1.1300000000000001
0.75
1.07
0.08
0.44
0.48
0.56
1.1300000000000001
0.76
0.07
0.63
1.1300000000000001
0.01
0.8
0.48
0.54
0.61
0.9400000000000001
0.89
0.7000000000000001
0.42
0.14
1.04
1.1
0.23
1.03
0.41000000000000003
0.37
1.12
0.79
1.25
1.07
0.99
1.22
0.84
0.18
1.12
0.04
0.64
0.62
0.35000000000000003
0.41000000000000003
0.86
0.63
0.45
1.25
0.92
0.88
0.61
1.08
0.92
0.04
0.74
0.42
1.03
0.64
0.38
1.21
0.99
1.19
0.43
0.25
0.23
0.11
0.8200000000000001
0.76
0.97
0.73
1.25
0.4
0.66
0.48
1.09
0.17
1.04
0.8200000000000001
0.1
0.91
0.31
0.32
0.67
0.32
0.08
0.17
0.64
0.53
0.87
1.06
0.16
0.51
0.06
0.86
1.24
0.72
0.79
1.07
1.1300000000000001
0.58
0.5700000000000001
0.19
0.71
0.38
0.18
1.2
0.14
0.33
0.17
0.88
0.5700000000000001
1.24
0.1
0.03
0.17
0.14
0.28
0.85
0.11
0.05
0.36
0.75
1.24
0.23
0.6900000000000001
0.18
0.58
0.71
0.51
0.03
1.22
0.19
0.17
0.65
0.41000000000000003
0.6
0.04
0.24
0.64
0.9
0.02
0.55
1.11
1.09
0.27
0.4
0.91
0.89
0.46
0.38
0.14
1.27
1.19
0.77
0.93
0.06
1.1400000000000001
0.36
0.07
0.81
0.5700000000000001
0.54
0.42
1.03
0.81
0.8
1.25
0.6
0.74
0.8300000000000001
0.68
0.06
1.09
0.72
0.49
1.06
0.23
0.24
0.5700000000000001
0.96
0.1
0.03
0.58
0.92
1.09
0.34
0.02
1.23
0.65
1.1
0.08
0.24
0.59
1.04
0.38
0.5700000000000001
0.9500000000000001
0.75
0.51
0.79
0.25
0.09
0.26
1.02
0.35000000000000003
0.75
1.21
0.97
0.28
0.43
0.36
0.61
0.56
1.08
0.84
0.56
0.2
0.08
0.1
0.9400000000000001
1.08
0.65
0.9400000000000001
0.9
0.1
0.5
1.23
0.64
0.97
0.26
0.66
0.76
1.05
0.51
1.1300000000000001
0.45
0.47000000000000003
0.49
0.87
0.77
0.77
1.07
0.59
1.01
0.61
0.84
0.91
0.64
1.21
0.7000000000000001
0.9
0.75
0.06
0.01
1.21
0.67
1.2
0.84
0.51
0.8
1.11
0.8200000000000001
0.75
0.68
0.05
1.27
0.27
0.77
0.23
0.51
1.26
0.5
0.42
1.04
0.8
0.43
1.02
0.23
1.18
0.11
0.18
0.88
0.04
0.18
0.47000000000000003
0.07
1.09
0.63
0.74
0.04
1.24
0.24
0.45
0.92
0.5700000000000001
1.07
1.26
0.32
0.81
0.48
0.6
0.85
0.15
0.6
1.03
0.04
0.64
0.9500000000000001
1.17
1.01
0.8300000000000001
0.6
0.81
0.64
0.09
0.06
0.09
1.17
0.93
0.86
1.09
0.62
0.66
0.51
0.99
0.9500000000000001
0.0
0.64
0.53
0.56
0.02
0.34
1.26
0.32
0.23
0.68
0.71
0.8300000000000001
0.9500000000000001
1.26
0.35000000000000003
1.17
0.36
0.7000000000000001
0.78
0.34
0.61
0.54
1.09
0.62
0.7000000000000001
0.23
0.1
1.23
0.91
1.1500000000000001
0.53
1.18
0.96
0.98
0.09
0.0
1.17
0.56
0.72
1.1
0.79
0.14
0.04
0.12
1.22
1.11
0.17
0.43
1.03
0.39
1.24
0.43
0.25
1.1400000000000001
1.2
0.89
1.09
0.38
0.48
0.05
0.1
1.05
1.22
0.03
0.54
0.5700000000000001
0.66
1.12
1.1400000000000001
0.35000000000000003
1.1500000000000001
0.88
0.01
0.37
0.88
0.42
0.18
0.79
0.36
0.26
0.5
1.2
1.11
1.05
0.63
0.53
0.78
0.24
0.51
0.35000000000000003
0.5
1.25
0.37
0.79
0.77
0.58
0.26
0.22
0.79
0.98
0.41000000000000003
0.46
0.2
0.68
0.03
1.05
0.06
0.04
0.54
0.0
0.8200000000000001
0.8
0.85
0.48
1.19
0.0
0.6
0.1
0.37
1.16
1.07
0.2
0.45
0.8
0.32
0.8300000000000001
0.15
0.36
1.11
0.56
0.6900000000000001
0.21
0.62
0.15
0.75
0.54
0.25
0.5
0.02
0.93
0.1
1.24
0.15
0.9
0.06
0.62
0.28
1.11
0.98
0.87
0.32
0.19
0.67
0.22
1.05
0.61
0.09
0.49
0.5
0.25
1.18
0.6900000000000001
0.43
0.72
1.06
0.88
0.53
1.06
1.2
0.33
0.15
0.05
0.78
0.74
0.9500000000000001
0.33
0.93
0.89
0.46
0.52
0.14
1.24
0.17
0.71
0.51
0.26
0.64
0.93
0.19
0.75
1.08
0.67
0.8300000000000001
0.6
1.22
1.09
0.54
0.85
0.44
0.53
1.01
0.72
1.03
0.88
0.76
1.26
0.51
0.88
1.07
0.35000000000000003
1.25
0.45
0.7000000000000001
0.35000000000000003
0.04
0.7000000000000001
0.8
0.34
0.23
0.6
0.9500000000000001
0.63
0.91
0.3
1.17
0.23
1.24
0.89
0.24
0.98
1.1500000000000001
0.28
0.15
0.6
0.7000000000000001
1.11
1.18
1.25
0.3
1.04
0.08
0.16
0.5700000000000001
0.17
0.32
0.96
0.86
0.37
0.8300000000000001
0.17
1.24
0.88
0.09
0.13
0.98
0.41000000000000003
0.02
0.46
0.49
0.91
0.35000000000000003
0.37
0.09
0.4
0.21
0.84
0.92
0.4
0.13
0.89
0.31
0.72
1.27
0.47000000000000003
0.77
1.08
0.38
0.78
0.92
0.13
0.49
0.24
0.32
0.31
0.97
1.1400000000000001
0.71
1.08
0.63
0.9500000000000001
0.9
0.15
0.8300000000000001
0.11
1.02
0.46
0.53
1.1400000000000001
0.59
0.3
1.23
0.34
0.21
0.18
1.1300000000000001
0.21
0.97
1.05
1.19
0.8
0.35000000000000003
0.04
0.48
1.18
1.22
0.42
0.32
0.55
0.53
0.81
1.27
0.63
0.41000000000000003
0.01
0.01
0.7000000000000001
0.79
0.6
0.26
0.09
0.01
0.78
0.31
0.52
0.68
0.53
0.19
0.87
0.3
0.9
0.76
0.0
0.11
0.45
0.63
0.07
0.66
0.55
1.23
0.17
0.91
0.84
0.68
0.84
0.44
0.01
0.7000000000000001
0.74
0.33
0.55
0.18
0.32
0.32
0.9400000000000001
0.0
0.11
0.81
0.67
0.44
0.6
0.2
0.48
0.89
1.1400000000000001
0.37
0.43
1.22
0.09
0.01
1.1400000000000001
1.17
1.03
0.74
0.28
0.72
1.07
0.17
0.49
0.96
1.09
1.03
0.3
1.1300000000000001
0.14
0.24
1.1500000000000001
0.45
0.49
0.25
0.24
0.28
0.63
1.1300000000000001
0.51
0.44
0.71
1.27
0.25
1.25
0.81
1.1300000000000001
1.1500000000000001
0.6
0.49
0.18
1.1300000000000001
1.07
0.35000000000000003
0.15
0.9500000000000001
0.26
1.08
0.52
1.11
1.02
1.19
0.46
0.73
0.9
0.93
0.49
0.39
1.02
0.9400000000000001
1.18
0.49
0.8200000000000001
0.2
0.9
0.3
0.37
0.07
1.12
0.09
0.34
0.89
0.88
0.52
1.03
0.56
0.4
1.23
0.9
0.61
0.79
0.8300000000000001
1.21
1.27
0.11
0.25
0.76
0.61
0.8300000000000001
0.9500000000000001
0.04
1.04
0.23
0.01
0.12
0.53
0.0
1.01
0.27
0.35000000000000003
0.91
1.08
0.8
0.5
0.68
0.04
1.09
0.68
0.67
0.77
1.2
0.12
0.78
1.0
0.81
0.72
0.48
0.15
1.1
0.35000000000000003
0.03
0.8300000000000001
0.54
0.64
0.5
0.17
0.33
0.81
1.26
0.8200000000000001
1.05
0.42
0.05
0.56
1.07
1.03
0.38
1.16
0.71
0.77
0.01
0.44
0.75
0.22
0.02
0.3
0.8300000000000001
0.26
0.11
0.86
0.25
0.03
0.2
0.43
0.79
0.25
0.04
1.22
0.24
0.8300000000000001
1.05
0.72
0.19
0.14
0.75
0.08
1.1
0.02
0.9500000000000001
0.0
0.47000000000000003
0.58
0.01
0.11
0.22
0.92
0.8200000000000001
0.22
0.02
0.39
1.09
0.51
1.03
0.27
0.72
0.39
0.64
1.22
0.99
0.24
1.1
1.1400000000000001
0.7000000000000001
0.09
0.01
0.38
0.23
0.43
1.06
0.5
0.86
1.21
0.99
0.65
0.2
0.53
0.39
0.35000000000000003
0.42
0.56
0.56
0.13
1.08
1.1400000000000001
1.09
1.1300000000000001
1.1500000000000001
0.72
1.08
1.07
0.74
0.44
0.67
0.34
0.34
1.1400000000000001
0.84
0.01
0.53
0.74
1.07
0.42
0.06
0.62
0.08
0.77
1.2
0.55
1.19
0.45
0.64
0.89
1.01
0.28
0.26
0.29
0.96
0.68
0.4
0.13
1.0
0.3
0.29
0.23
0.88
0.96
0.98
1.19
0.6
1.06
0.13
0.28
0.6
0.25
0.79
0.9
1.01
1.19
0.03
0.81
0.73
1.22
0.05
1.0
0.81
0.74
0.42
1.1400000000000001
0.5700000000000001
0.99
0.48
0.99
0.28
0.36
0.25
0.11
1.1300000000000001
1.19
1.09
0.78
0.39
1.07
1.08
0.15
0.03
0.5
1.21
0.16
0.59
0.77
0.53
0.76
0.03
0.85
1.1
0.0
0.59
0.17
0.32
1.21
0.49
0.47000000000000003
1.21
0.43
0.16
0.32
0.01
1.25
0.08
0.86
0.54
0.15
1.09
1.05
1.17
0.6900000000000001
0.0
0.53
1.04
0.73
0.13
0.15
0.31
0.64
0.6
0.07
1.24
0.37
0.86
0.38
0.13
0.08
0.0
0.41000000000000003
0.55
0.6
1.07
0.09
0.88
0.15
1.09
0.47000000000000003
0.27
0.31
0.87
0.0
1.02
1.06
0.61
0.6
0.42
0.38
0.91
0.03
0.21
0.8300000000000001
0.63
0.05
0.8
0.16
1.1
0.53
0.07
0.49
1.1400000000000001
0.49
0.67
0.88
0.87
0.07
0.76
0.8200000000000001
1.1400000000000001
0.25
1.07
1.1
0.33
0.14
0.27
0.28
0.68
0.28
0.25
0.8
0.04
1.2
0.88
1.2
0.65
0.47000000000000003
0.16
1.02
0.27
0.34
1.1500000000000001
0.85
0.75
0.8
0.1
0.04
0.42
0.17
0.51
0.92
0.74
0.47000000000000003
0.24
1.07
0.28
1.22
0.8300000000000001
0.73
0.66
0.55
1.26
1.24
0.15
0.31
0.01
0.12
0.44
0.66
0.5700000000000001
1.11
1.07
0.81
0.73
1.25
0.52
0.19
1.1
0.72
0.21
1.05
1.18
0.16
0.43
0.74
0.35000000000000003
0.56
0.39
1.1500000000000001
0.67
0.18
0.05
0.5700000000000001
1.1400000000000001
1.1
0.5700000000000001
1.17
0.6
0.01
0.43
0.81
0.21
0.54
0.64
0.88
0.01
0.39
0.1
0.9400000000000001
1.01
1.27
0.59
1.02
0.52
0.5700000000000001
0.52
0.54
0.56
1.1400000000000001
0.25
0.04
0.5
1.08
0.75
0.31
0.27
0.28
0.3
0.21
0.74
1.06
0.14
0.89
0.91
1.09
1.19
1.05
0.9
0.62
1.07
0.7000000000000001
0.07
0.61
0.56
0.78
0.05
0.92
0.1
0.68
0.24
1.22
0.48
0.48
1.17
0.84
0.84
1.09
0.1
0.71
0.7000000000000001
0.84
0.84
1.27
0.01
0.67
0.9400000000000001
1.0
1.23
0.8300000000000001
0.33
0.28
0.05
0.63
0.56
0.92
1.26
0.67
0.75
1.11
1.27
0.99
0.4
0.31
0.93
0.03
0.02
0.18
1.08
0.13
1.05
0.01
1.22
0.79
0.51
0.99
0.62
0.5700000000000001
0.53
0.66
0.92
0.74
0.44
0.28
0.37
0.76
1.22
0.03
1.2
0.9
0.03
0.64
0.21
0.14
1.24
0.25
1.26
0.73
1.16
0.73
0.15
0.51
1.06
0.25
0.79
0.56
0.51
0.49
0.6900000000000001
0.02
0.75
0.75
0.26
0.68
0.88
0.38
0.4
0.27
1.1300000000000001
0.06
0.67
0.15
0.05
0.36
1.25
0.08
1.07
0.6
0.43
0.41000000000000003
0.06
0.65
0.59
0.7000000000000001
0.42
0.97
0.15
0.8200000000000001
0.74
0.36
0.41000000000000003
0.5700000000000001
0.05
0.01
0.66
0.99
0.34
0.75
0.07
0.52
0.18
0.6
0.52
0.43
1.04
0.59
0.3
0.42
0.26
0.97
0.68
0.92
0.49
0.37
0.29
0.22
0.05
0.38
0.6
0.11
1.23
1.23
0.22
1.22
1.1
0.2
1.22
0.19
0.52
1.07
0.81
1.08
0.7000000000000001
0.15
0.23
0.47000000000000003
0.48
1.01
0.84
0.55
0.55
0.44
0.54
0.14
0.65
0.68
0.06
0.5700000000000001
0.7000000000000001
0.5700000000000001
0.03
1.02
0.78
0.64
0.92
1.1400000000000001
0.31
0.01
0.87
0.7000000000000001
1.1500000000000001
0.65
0.62
1.05
0.19
1.01
1.1500000000000001
0.19
0.56
0.68
0.87
0.28
0.9400000000000001
0.11
0.63
0.24
0.06
0.25
0.38
0.04
1.22
0.7000000000000001
0.33
1.1300000000000001
0.3
0.11
0.08
1.19
0.4
0.26
0.37
1.12
0.65
0.49
1.17
0.6900000000000001
0.05
0.59
1.04
0.7000000000000001
1.1300000000000001
0.52
0.47000000000000003
1.02
0.35000000000000003
0.92
1.2
1.08
0.58
0.64
1.22
0.8300000000000001
0.09
1.26
1.1300000000000001
0.66
0.88
0.47000000000000003
0.4
0.47000000000000003
0.2
0.5700000000000001
0.72
0.35000000000000003
0.54
0.27
0.14
0.81
0.11
0.6900000000000001
0.78
0.73
0.17
1.08
0.6
1.04
1.09
0.72
0.73
0.79
0.64
1.09
0.6
0.75
0.08
0.43
0.17
1.02
0.68
0.6
1.07
0.17
0.3
0.61
0.5
0.92
0.99
0.37
0.3
0.67
0.8300000000000001
1.21
1.1300000000000001
0.02
1.1
1.1500000000000001
0.48
0.88
0.53
1.1500000000000001
1.22
0.7000000000000001
0.1
1.02
1.11
0.75
0.6900000000000001
1.09
0.96
0.97
0.85
0.77
1.22
0.39
0.06
0.5700000000000001
0.4
0.97
1.12
0.27
0.51
0.0
0.19
0.9
0.13
0.26
0.27
0.67
0.66
0.49
0.86
0.54
0.88
0.55
0.6900000000000001
0.6
1.07
0.06
0.59
0.43
1.11
0.89
0.4
0.68
1.21
0.46
0.17
1.1
0.5
0.87
0.81
0.13
0.97
1.2
0.64
0.89
0.27
0.77
0.29
1.1300000000000001
0.35000000000000003
1.2
0.58
0.12
0.93
0.54
0.68
0.07
0.63
0.65
1.23
0.27
0.12
1.22
0.25
0.31
0.49
1.17
0.19
0.18
0.53
1.09
1.17
1.1300000000000001
0.6900000000000001
0.65
0.07
0.49
0.16
0.08
0.8200000000000001
