0.03
0.19
0.6
0.63
0.98
1.19
0.59
0.96
1.1500000000000001
1.27
0.8300000000000001
0.5700000000000001
0.31
0.08
0.16
0.73
0.36
0.47000000000000003
0.31
0.22
0.28
1.06
0.5
1.26
0.09
1.1500000000000001
0.36
0.41000000000000003
0.79
0.37
1.03
1.22
0.13
1.17
0.98
0.72
0.35000000000000003
1.12
0.31
1.1500000000000001
0.46
0.4
0.23
0.5
0.05
0.79
0.63
0.16
0.9500000000000001
0.47000000000000003
0.32
0.47000000000000003
1.17
0.65
1.24
1.22
0.74
1.11
1.04
0.03
0.89
1.01
0.12
1.21
1.12
0.77
1.11
0.11
0.37
0.01
0.63
0.65
0.11
0.17
0.27
0.14
0.68
0.77
0.26
0.03
0.03
0.6900000000000001
0.65
1.2
0.12
0.56
1.19
1.1400000000000001
0.77
0.72
1.23
0.6
0.86
0.73
1.2
0.34
1.03
0.25
0.44
0.4
0.01
1.16
1.17
0.51
0.55
1.26
0.12
1.24
0.66
0.0
0.88
0.15
0.23
1.19
0.11
0.88
1.24
0.31
1.03
0.9500000000000001
0.08
1.07
0.36
0.98
0.73
0.11
0.74
1.27
1.1400000000000001
0.33
0.03
0.28
0.48
0.65
0.34
0.03
0.92
1.18
0.5700000000000001
1.25
0.99
0.28
0.72
0.77
0.5
1.24
1.19
0.71
0.9
0.15
0.51
1.26
0.62
1.1400000000000001
0.91
1.19
1.23
1.25
0.84
0.86
0.04
1.11
1.01
0.5700000000000001
1.08
0.24
0.87
1.07
1.1500000000000001
1.08
0.24
0.48
1.24
0.9
0.9
0.23
0.17
0.84
0.67
0.44
1.1500000000000001
0.15
1.19
0.68
1.2
0.52
0.5700000000000001
0.2
0.78
0.93
0.24
0.0
1.08
1.23
0.33
0.72
0.12
0.42
0.9500000000000001
0.71
1.21
0.89
1.21
0.65
1.16
1.1300000000000001
0.5700000000000001
0.89
0.5700000000000001
0.87
0.72
0.8300000000000001
0.06
0.8200000000000001
0.97
1.11
0.33
1.1500000000000001
0.5
1.19
0.36
1.1500000000000001
0.14
0.27
1.0
0.86
0.65
0.56
0.44
0.71
0.11
0.41000000000000003
0.51
0.38
0.35000000000000003
0.22
0.11
1.22
1.1
0.48
1.2
0.12
0.11
0.77
0.55
0.73
1.04
1.1300000000000001
1.26
0.44
0.28
0.6900000000000001
0.63
1.18
0.56
0.13
0.6900000000000001
0.98
0.29
0.34
0.25
0.89
0.17
1.05
0.49
1.02
0.8200000000000001
0.96
0.5700000000000001
0.71
0.5
1.0
0.34
0.11
0.67
0.25
0.88
1.07
0.68
0.1
0.99
0.74
0.19
0.72
0.97
0.81
0.3
0.31
0.33
1.04
1.01
1.1300000000000001
0.39
0.19
0.4
0.02
1.1400000000000001
0.35000000000000003
1.05
0.09
1.22
0.7000000000000001
1.1400000000000001
0.01
1.03
0.18
0.09
0.66
0.42
0.98
1.1500000000000001
1.08
0.01
0.41000000000000003
0.27
0.2
0.26
0.56
0.6
1.17
0.29
0.63
1.01
0.99
0.12
0.6900000000000001
1.2
0.09
1.11
0.59
0.25
0.12
0.41000000000000003
0.17
0.45
0.11
0.61
0.73
0.9400000000000001
0.87
0.12
0.05
0.1
0.55
1.05
1.22
0.22
0.6900000000000001
0.51
1.02
0.5
0.18
0.4
0.86
0.06
0.11
0.76
0.11
1.07
0.8
0.51
0.71
0.92
0.19
1.1300000000000001
0.35000000000000003
0.46
1.1500000000000001
1.1
0.0
0.55
0.06
0.12
0.68
1.23
0.27
0.85
0.0
0.53
0.9
1.01
0.98
0.65
0.78
0.56
0.51
0.34
0.71
0.28
1.1300000000000001
0.65
1.03
0.24
0.49
0.02
0.09
1.1
1.21
0.65
0.36
0.88
0.54
0.39
0.42
0.13
1.1500000000000001
0.52
0.28
1.05
1.04
0.14
0.08
0.55
1.19
0.14
0.97
0.49
0.01
0.8200000000000001
0.85
0.62
0.92
1.1500000000000001
0.81
1.06
0.8200000000000001
0.8
0.91
0.92
0.31
0.43
1.11
0.55
0.71
0.08
0.08
0.12
0.25
0.02
0.63
0.62
1.05
0.72
0.7000000000000001
0.66
0.27
0.6
0.8300000000000001
0.97
0.9500000000000001
0.46
0.71
1.23
0.32
0.7000000000000001
0.25
0.7000000000000001
0.16
0.73
1.01
0.05
1.11
0.45
0.64
0.7000000000000001
0.75
1.1400000000000001
0.68
1.07
0.41000000000000003
0.89
0.12
1.21
0.52
0.07
0.1
1.04
0.18
0.2
0.74
0.35000000000000003
0.41000000000000003
0.35000000000000003
0.15
0.15
0.32
0.56
1.21
1.22
1.01
0.0
1.12
0.74
0.51
0.06
1.09
0.22
1.07
0.24
0.09
0.03
0.8300000000000001
1.21
0.98
1.27
0.99
0.3
0.46
0.4
0.04
0.46
1.01
1.23
1.2
0.5
0.93
0.39
0.8300000000000001
0.68
0.97
0.05
0.8300000000000001
0.35000000000000003
0.47000000000000003
0.05
0.86
1.21
1.17
0.11
0.61
0.04
0.49
0.51
0.38
0.8200000000000001
0.43
0.91
0.0
0.19
0.84
0.0
0.36
0.05
0.39
1.23
0.72
0.46
0.26
0.02
0.78
0.8300000000000001
0.39
0.14
0.62
0.54
0.03
1.22
1.1
1.09
1.19
0.92
0.99
0.91
1.24
0.17
0.84
0.42
0.51
0.99
1.09
1.05
0.13
0.31
0.59
0.19
1.19
0.54
0.73
0.37
0.2
0.24
0.2
0.65
1.16
0.52
0.09
0.91
0.16
1.17
0.04
0.3
0.35000000000000003
0.48
0.88
0.81
1.18
0.91
1.11
0.2
1.1500000000000001
1.23
0.2
1.06
0.5700000000000001
0.33
0.36
0.8300000000000001
0.66
1.1300000000000001
0.8200000000000001
0.78
0.71
1.23
0.24
1.0
0.85
0.53
0.37
0.72
0.46
0.13
0.8
0.6900000000000001
0.98
0.09
0.44
0.79
0.73
0.55
0.59
0.19
0.18
1.08
0.63
0.45
1.1400000000000001
1.25
0.31
0.31
0.86
0.32
0.4
0.99
0.13
0.86
0.28
0.4
0.9
0.31
0.15
0.27
1.23
1.06
0.5700000000000001
0.89
1.16
1.06
0.2
1.23
0.74
0.28
0.07
0.01
0.66
0.79
0.93
0.04
0.25
1.23
1.05
0.16
1.25
0.79
0.36
1.17
0.32
1.09
1.24
0.74
0.97
0.45
0.37
0.74
0.39
0.65
0.26
1.12
1.1
0.81
0.26
1.1500000000000001
0.5
0.06
1.21
0.31
0.5700000000000001
0.49
0.19
1.05
0.86
1.25
0.03
1.01
0.04
0.21
1.09
0.51
0.59
0.85
0.89
0.71
0.9400000000000001
0.23
0.67
0.53
0.48
0.5
0.75
0.78
0.98
0.2
0.72
0.51
0.92
1.23
0.63
0.53
0.34
0.07
0.75
1.19
1.06
0.85
0.45
0.8300000000000001
0.91
1.1500000000000001
0.7000000000000001
0.87
1.12
0.3
0.4
0.88
0.73
0.9400000000000001
1.11
0.8
1.12
0.28
0.02
0.61
1.01
0.84
0.8300000000000001
1.11
0.6900000000000001
0.1
0.86
1.18
0.13
0.47000000000000003
0.66
0.66
0.8200000000000001
1.19
0.42
0.12
0.67
1.1
0.8300000000000001
1.11
0.89
0.34
0.6
0.84
1.04
0.3
0.35000000000000003
0.56
0.41000000000000003
0.73
1.23
0.49
0.22
0.97
0.6900000000000001
0.7000000000000001
1.19
0.76
1.16
0.9
1.24
0.8
0.49
0.09
0.63
0.01
0.76
0.13
1.24
0.5700000000000001
0.8
1.19
0.21
1.07
0.19
0.25
0.24
1.21
0.68
0.0
0.6
0.28
1.18
0.4
0.21
0.25
1.03
1.2
1.07
0.81
0.86
0.19
0.99
0.22
0.25
0.63
0.42
0.8
1.07
1.17
0.49
1.04
0.93
0.47000000000000003
0.79
0.76
1.1
0.23
1.18
0.59
0.6900000000000001
0.13
1.21
0.24
0.17
1.2
0.4
0.51
1.04
1.21
0.37
0.79
0.72
0.16
0.53
0.09
0.51
0.38
0.62
0.8200000000000001
0.91
0.96
0.96
1.17
0.96
1.08
0.52
0.14
1.1500000000000001
0.89
0.0
0.8
0.17
0.98
0.49
1.1500000000000001
0.2
0.8200000000000001
0.76
0.34
0.71
1.08
0.86
0.92
0.51
0.72
0.49
0.78
0.45
0.33
0.73
1.05
0.75
0.41000000000000003
0.31
1.09
0.72
1.25
1.1400000000000001
0.31
0.61
0.86
0.03
0.8200000000000001
0.78
1.08
0.03
0.24
0.37
0.81
0.99
0.35000000000000003
1.1
1.1300000000000001
1.04
0.06
0.5700000000000001
0.53
0.89
0.65
0.26
1.03
0.96
0.52
1.03
0.35000000000000003
0.44
1.24
0.74
0.07
0.68
0.53
0.59
0.73
0.0
0.41000000000000003
0.06
0.36
1.21
0.63
0.64
0.19
0.72
0.16
0.41000000000000003
0.5
1.09
0.9400000000000001
0.39
0.19
1.02
1.07
0.43
0.98
0.8300000000000001
0.28
0.92
1.06
0.28
1.18
0.96
0.78
0.18
0.73
1.03
0.88
0.81
0.6
1.1500000000000001
0.8
0.79
0.24
0.99
1.23
0.8200000000000001
0.49
0.31
1.19
1.1
0.31
0.18
0.27
0.35000000000000003
0.46
0.4
1.25
0.49
0.88
0.31
0.04
0.34
1.1500000000000001
0.71
0.38
0.53
0.09
1.23
0.7000000000000001
0.8
0.68
0.92
1.1300000000000001
1.1400000000000001
0.37
0.55
0.02
0.34
0.59
0.39
0.6
0.39
0.96
0.31
0.25
0.8
0.63
1.02
0.97
0.68
0.14
0.67
0.44
0.48
0.68
0.09
1.08
0.51
1.1300000000000001
0.8
0.24
0.3
0.37
0.9500000000000001
0.68
0.7000000000000001
0.46
0.9400000000000001
0.44
1.26
0.51
1.23
0.39
0.21
0.04
1.04
0.22
1.1400000000000001
0.04
0.04
0.16
1.11
0.44
1.05
1.11
1.07
0.38
0.76
1.1300000000000001
0.97
0.44
1.24
1.03
0.81
0.92
0.23
1.1400000000000001
0.0
0.62
0.4
0.36
0.9400000000000001
0.32
0.63
0.24
0.55
1.22
0.64
0.79
0.64
0.5700000000000001
0.79
1.19
0.73
0.17
0.67
0.72
0.19
0.55
0.7000000000000001
0.19
0.39
0.48
1.1400000000000001
0.81
0.18
0.12
1.1400000000000001
1.06
0.64
1.2
0.65
0.72
0.4
1.08
0.64
0.81
0.5700000000000001
0.6900000000000001
1.04
0.68
1.11
0.56
0.53
1.01
0.4
0.19
0.9500000000000001
0.52
0.64
1.0
0.8
0.68
0.63
1.02
0.81
0.75
0.8
0.47000000000000003
0.49
0.19
0.63
0.5
1.24
1.09
1.02
0.28
0.8200000000000001
0.8300000000000001
0.75
0.09
0.12
0.3
0.5700000000000001
0.33
1.05
0.67
0.19
0.85
1.1500000000000001
0.43
0.45
0.86
0.68
1.03
0.63
0.79
0.39
0.91
0.28
0.87
0.65
0.12
0.38
1.01
0.9500000000000001
0.74
1.01
0.8300000000000001
1.08
0.14
0.86
1.1300000000000001
0.66
0.0
0.67
1.18
1.11
0.8
0.12
0.85
0.24
1.1500000000000001
0.04
1.1300000000000001
0.28
1.1
1.24
0.21
1.06
0.3
0.28
0.37
0.09
1.12
1.19
0.54
0.16
0.77
1.1500000000000001
0.13
1.04
0.27
0.15
0.41000000000000003
0.81
1.21
0.28
0.17
0.87
0.85
0.5
0.71
0.24
0.23
0.76
0.48
0.78
0.01
0.79
1.11
0.39
1.21
0.47000000000000003
0.89
0.43
0.31
0.53
0.74
0.3
0.8200000000000001
1.27
1.25
0.71
0.28
1.1
0.28
0.8200000000000001
1.27
0.26
0.78
0.99
1.25
0.28
0.52
0.06
0.87
0.79
0.93
1.04
0.9
1.18
0.89
0.81
0.77
0.12
0.63
0.08
0.1
1.09
1.22
0.03
0.77
0.31
0.67
0.17
0.97
1.1
0.53
0.5700000000000001
0.24
0.8300000000000001
1.02
0.32
0.68
0.79
0.61
0.8200000000000001
1.09
0.49
1.1500000000000001
1.03
0.65
0.51
0.97
0.85
0.28
1.27
1.1300000000000001
0.28
0.23
0.74
0.39
1.27
0.41000000000000003
0.56
0.88
0.67
1.25
0.6
1.06
1.1400000000000001
0.7000000000000001
0.89
1.11
1.02
0.14
0.54
0.86
0.52
1.06
0.8
0.31
0.42
0.45
0.12
1.08
1.21
0.44
0.19
1.05
1.04
0.11
0.0
0.46
0.98
1.24
0.84
1.02
1.12
0.55
0.33
1.19
0.9500000000000001
0.14
0.92
0.29
0.93
0.64
0.84
0.8200000000000001
0.87
0.12
0.84
0.04
0.06
0.08
1.1
0.5700000000000001
0.63
1.2
0.91
1.18
0.93
0.8
0.34
0.9500000000000001
0.29
0.9500000000000001
0.34
0.44
0.36
0.79
0.54
0.6
0.84
1.24
0.81
0.39
0.87
0.53
1.21
0.65
0.97
0.0
0.5700000000000001
0.72
0.65
0.47000000000000003
0.89
0.85
0.33
0.61
0.03
0.76
1.23
0.48
1.07
0.66
0.92
1.17
1.04
1.04
1.03
0.3
0.1
1.17
0.56
1.06
0.16
1.22
0.52
0.01
1.23
0.9
1.26
0.05
1.09
1.19
0.2
0.07
0.54
0.49
0.12
0.4
0.68
0.73
0.74
0.0
0.93
0.21
0.2
0.73
0.76
1.21
1.07
0.42
1.08
1.01
0.09
1.1500000000000001
1.09
0.34
0.75
0.35000000000000003
0.55
0.72
0.62
0.58
0.43
0.61
1.24
0.17
0.99
1.09
0.37
0.37
0.33
1.26
0.92
0.49
0.98
0.97
1.21
0.04
0.16
0.44
0.3
0.7000000000000001
1.08
0.75
0.81
0.03
0.99
0.99
0.01
1.03
1.1400000000000001
0.64
0.09
0.2
0.55
0.48
0.93
1.23
0.68
0.88
0.72
0.88
0.8300000000000001
1.23
1.05
0.41000000000000003
0.54
0.93
0.55
0.59
0.08
0.9400000000000001
0.18
0.08
0.46
0.77
1.25
0.42
0.65
0.44
0.71
0.97
0.71
0.28
0.58
0.3
0.67
1.1400000000000001
0.91
0.18
0.35000000000000003
0.8
0.04
1.06
1.24
1.1300000000000001
0.7000000000000001
0.73
0.22
0.9500000000000001
0.6900000000000001
0.63
0.68
1.2
1.03
0.31
0.25
0.33
1.25
0.5700000000000001
0.38
0.63
0.08
0.28
0.06
0.08
1.07
0.75
1.02
1.23
0.56
0.67
0.9500000000000001
0.86
0.2
0.15
1.17
0.76
0.65
0.91
0.42
0.53
0.18
0.66
0.04
0.64
0.61
0.05
0.59
0.0
0.14
0.07
0.41000000000000003
0.51
0.49
0.14
0.03
0.04
0.43
0.0
0.62
0.3
0.38
0.67
0.0
1.1300000000000001
0.0
0.75
1.1300000000000001
0.51
0.6900000000000001
0.42
0.59
0.96
0.36
1.25
0.65
0.22
0.75
1.09
0.65
0.09
0.36
1.21
0.2
0.5700000000000001
0.68
0.35000000000000003
1.01
1.01
0.7000000000000001
0.63
0.27
1.1300000000000001
0.07
1.21
0.88
0.9
0.85
0.49
1.1500000000000001
1.1500000000000001
0.89
0.68
1.18
1.2
1.0
0.61
0.19
1.1300000000000001
0.59
0.29
0.79
0.87
0.7000000000000001
0.92
0.65
0.51
1.21
0.59
0.04
1.0
0.13
0.8300000000000001
0.04
1.1400000000000001
0.51
0.61
0.41000000000000003
0.08
1.21
1.18
1.21
0.47000000000000003
0.72
1.08
0.75
0.43
0.8300000000000001
1.27
1.1400000000000001
0.28
0.68
1.0
0.84
0.88
0.02
1.08
0.5
0.85
0.08
0.97
1.18
0.89
1.08
1.18
0.5700000000000001
0.06
0.81
1.24
0.37
1.24
0.84
0.6
0.42
0.68
0.76
0.68
0.5700000000000001
0.05
0.16
0.53
0.06
0.61
1.26
0.8
0.12
0.89
0.99
0.5700000000000001
0.88
0.92
0.19
1.18
0.22
0.64
1.05
1.1400000000000001
0.59
0.8
0.27
1.26
0.64
0.54
0.42
0.16
0.53
0.5700000000000001
0.99
0.29
0.51
1.0
0.6900000000000001
1.02
0.8200000000000001
0.74
0.65
0.27
0.92
0.13
0.68
1.23
1.25
0.21
0.5700000000000001
0.5700000000000001
0.01
0.56
0.6900000000000001
1.22
0.5
0.7000000000000001
0.52
0.47000000000000003
0.91
0.35000000000000003
0.15
0.9500000000000001
0.6900000000000001
0.74
1.1400000000000001
0.86
0.21
0.85
0.33
0.16
0.1
0.02
1.16
0.46
0.6900000000000001
0.0
0.75
1.25
0.48
1.18
0.56
0.98
0.14
1.1500000000000001
0.88
0.92
0.27
0.39
1.1500000000000001
0.66
0.72
0.92
0.36
0.78
1.22
0.24
1.22
1.05
1.22
0.24
0.8200000000000001
1.1400000000000001
0.54
1.04
0.13
0.41000000000000003
0.9500000000000001
1.26
0.63
0.8
0.22
1.17
0.32
0.48
1.02
0.4
0.96
0.44
0.61
1.07
0.98
0.17
0.92
0.87
0.31
0.66
0.5700000000000001
0.72
0.81
0.04
1.25
0.62
0.66
1.19
0.28
1.22
0.28
0.29
0.04
0.27
0.98
1.21
1.11
0.56
0.5
1.06
1.18
0.6
0.2
1.1300000000000001
0.53
0.45
0.21
0.19
0.42
0.9
1.0
0.24
0.9400000000000001
0.27
0.84
0.71
0.7000000000000001
0.4
0.71
0.32
1.26
0.12
0.89
1.22
0.17
0.24
0.8
0.61
0.5700000000000001
0.23
1.1500000000000001
0.15
0.87
1.08
0.26
0.76
0.49
0.81
0.56
0.33
0.58
0.15
1.22
0.9400000000000001
0.75
0.98
0.46
0.2
0.05
0.4
0.33
1.23
0.4
0.65
1.09
0.16
1.24
0.52
0.74
1.27
0.47000000000000003
0.56
1.07
0.5
0.34
1.26
0.13
0.2
0.62
1.05
0.73
1.0
0.35000000000000003
0.02
1.09
0.44
0.51
0.9400000000000001
0.8200000000000001
1.09
0.7000000000000001
0.54
1.06
0.77
1.05
0.45
0.19
1.24
0.65
0.41000000000000003
0.91
0.25
0.86
0.4
0.65
0.88
0.03
0.15
0.18
0.9
0.91
0.36
0.58
0.33
0.28
0.99
0.63
0.0
0.71
1.23
0.41000000000000003
0.53
0.52
0.41000000000000003
1.11
0.14
0.7000000000000001
0.5700000000000001
1.06
0.2
1.03
0.66
0.76
0.74
0.24
1.04
1.2
0.37
0.8
0.43
0.85
0.85
1.2
1.11
0.44
1.16
1.12
1.25
0.93
0.81
0.49
0.02
0.49
0.02
1.0
0.13
0.43
0.86
0.09
0.56
0.21
0.87
0.22
0.28
0.81
0.01
0.53
0.8300000000000001
0.75
0.8200000000000001
0.77
0.47000000000000003
0.48
0.54
0.72
0.99
0.7000000000000001
0.6
0.07
0.11
1.04
0.5700000000000001
0.7000000000000001
1.12
1.21
0.09
0.67
0.53
0.31
0.11
0.6900000000000001
0.41000000000000003
0.41000000000000003
0.44
0.26
0.71
0.5
1.07
0.02
0.89
0.92
0.78
0.5
0.12
1.06
0.15
0.68
0.8200000000000001
0.98
0.54
1.21
1.2
1.09
0.91
1.24
1.26
0.06
1.0
0.96
0.0
0.35000000000000003
0.9400000000000001
0.01
0.5
0.72
0.63
0.22
0.6900000000000001
0.86
1.23
1.24
1.01
0.86
1.24
1.1400000000000001
1.18
0.38
1.06
0.14
0.9500000000000001
0.86
0.25
0.93
0.54
0.22
1.2
1.1500000000000001
0.18
0.22
0.89
0.08
0.56
1.21
0.23
0.45
1.23
1.22
1.08
0.7000000000000001
1.03
0.65
0.08
1.05
1.1
1.12
0.88
0.72
1.19
0.54
0.9400000000000001
1.05
0.44
1.0
0.37
0.13
0.73
0.91
0.23
0.76
0.75
1.1400000000000001
1.16
1.08
0.6900000000000001
0.62
0.84
0.07
0.29
1.1300000000000001
0.08
0.98
0.77
1.27
0.37
0.1
1.22
0.24
0.1
0.31
0.34
0.74
0.4
0.24
1.06
1.04
0.88
0.85
1.1300000000000001
0.13
0.22
0.3
0.51
1.04
0.93
0.41000000000000003
0.8200000000000001
0.87
0.8200000000000001
0.7000000000000001
0.45
0.18
0.67
1.25
0.7000000000000001
0.63
0.15
0.36
1.1500000000000001
0.67
0.39
1.22
1.04
0.8200000000000001
0.67
0.75
0.97
0.11
0.96
0.43
0.33
0.36
0.34
0.23
0.55
0.89
0.39
0.6
0.67
0.74
0.12
0.48
0.05
0.75
0.44
0.26
0.34
0.32
0.55
0.73
0.59
1.12
0.86
0.9500000000000001
0.26
0.24
0.58
0.63
0.06
0.96
0.41000000000000003
0.59
0.8300000000000001
0.21
0.4
0.92
0.06
0.89
0.34
0.6
0.79
0.18
0.59
0.63
1.1500000000000001
0.32
0.65
1.04
0.8
0.51
0.44
1.07
0.48
0.05
0.33
1.0
0.65
0.74
0.67
0.45
1.1400000000000001
0.33
0.9
0.74
0.66
0.41000000000000003
0.89
0.14
1.25
0.75
1.19
0.5700000000000001
0.89
0.64
1.18
1.02
0.41000000000000003
0.96
0.05
0.34
0.61
0.72
0.93
0.07
0.86
0.81
0.37
0.12
0.35000000000000003
1.05
0.32
1.1500000000000001
0.97
0.78
0.14
0.61
0.8200000000000001
1.04
1.12
0.98
0.19
1.2
0.14
1.1500000000000001
0.25
0.72
1.1500000000000001
0.88
0.99
0.47000000000000003
1.17
1.27
0.45
0.34
0.23
0.01
0.67
0.08
0.11
0.06
0.4
0.22
1.26
1.1300000000000001
0.68
0.31
0.2
0.01
1.06
0.16
0.39
1.19
0.51
0.62
1.05
0.63
0.58
0.5
0.35000000000000003
0.74
0.91
0.33
0.15
0.22
0.08
0.77
0.93
1.04
0.29
0.24
0.73
0.8200000000000001
0.85
0.16
0.47000000000000003
0.93
0.84
0.45
1.1300000000000001
0.5700000000000001
0.76
0.54
0.97
0.32
0.03
0.81
0.72
0.33
0.96
0.12
0.59
0.13
0.44
0.39
1.05
0.5700000000000001
0.8200000000000001
0.12
1.01
0.92
0.0
0.81
0.55
0.18
0.59
1.27
0.8300000000000001
0.85
1.17
0.8300000000000001
0.27
0.9500000000000001
0.91
0.72
0.41000000000000003
1.0
0.48
0.99
0.86
0.0
1.17
0.33
0.24
0.86
0.68
1.18
0.17
0.27
1.23
0.52
0.49
0.63
0.51
0.44
0.16
0.46
0.98
0.8200000000000001
0.24
1.1300000000000001
1.1500000000000001
0.15
0.16
0.84
1.07
0.5700000000000001
1.17
0.47000000000000003
0.9400000000000001
0.17
0.8
0.23
0.18
0.54
0.07
0.42
0.12
0.31
0.04
0.9
0.02
0.33
0.42
0.15
0.6
0.32
1.01
1.0
0.51
0.26
1.1500000000000001
0.44
0.65
0.19
0.14
0.85
0.24
0.62
0.15
0.56
0.8200000000000001
1.27
0.49
0.16
0.07
0.71
1.02
0.49
1.2
1.1400000000000001
1.27
0.16
0.46
0.11
0.81
0.8200000000000001
0.28
1.27
0.06
0.96
0.99
0.5
0.5
0.43
0.25
0.3
0.19
0.17
0.32
0.35000000000000003
1.27
0.79
1.22
0.13
0.9400000000000001
1.06
0.84
0.78
0.9
0.56
0.64
0.9500000000000001
0.03
1.21
0.85
0.9500000000000001
0.04
0.7000000000000001
0.33
0.16
0.86
1.23
0.65
0.21
0.49
0.6900000000000001
0.31
0.53
1.27
0.98
1.03
0.37
0.6900000000000001
0.73
0.81
0.8
1.08
0.2
0.27
0.99
0.68
0.71
1.07
0.09
0.76
0.17
0.08
0.55
1.24
1.1400000000000001
0.17
0.74
0.28
0.99
1.17
0.89
0.6900000000000001
0.5
1.1400000000000001
0.86
0.33
0.2
0.48
0.7000000000000001
0.78
0.26
0.08
1.0
0.74
0.54
0.64
1.24
0.23
0.1
0.17
0.65
0.6900000000000001
0.32
0.21
0.6
0.42
0.7000000000000001
0.48
0.05
0.93
0.79
0.61
0.71
0.8200000000000001
0.86
0.63
0.56
0.08
0.53
0.32
1.23
0.62
1.24
1.09
0.77
0.51
0.49
1.21
1.1500000000000001
0.63
1.17
0.18
1.1400000000000001
0.8200000000000001
0.12
0.41000000000000003
0.03
1.25
0.04
0.49
0.03
0.9500000000000001
0.41000000000000003
0.28
0.01
0.12
0.15
0.43
1.01
0.26
0.19
1.09
0.4
0.23
0.18
0.84
1.21
0.5700000000000001
1.27
0.49
0.27
0.32
0.93
0.32
0.74
0.74
1.19
0.24
0.01
0.15
0.18
1.03
1.17
0.47000000000000003
0.9500000000000001
0.64
0.07
0.55
0.7000000000000001
0.86
0.71
0.85
0.14
0.86
1.07
0.16
0.32
1.05
0.43
1.23
0.56
0.55
0.52
1.07
0.47000000000000003
0.22
0.93
0.0
0.51
1.2
1.27
0.93
0.3
0.02
0.18
0.03
0.01
0.64
0.86
1.21
0.11
1.02
0.77
0.3
0.46
0.36
0.35000000000000003
0.92
1.0
0.34
1.1
1.1300000000000001
0.17
0.34
0.28
1.26
0.48
0.92
0.47000000000000003
0.81
0.03
0.87
0.44
0.09
0.03
0.34
0.66
1.24
0.06
1.21
0.85
0.8
0.55
1.19
0.9
0.8200000000000001
0.43
0.53
0.49
0.52
0.09
0.38
0.97
0.84
1.1300000000000001
0.11
0.39
1.06
0.71
0.4
0.16
0.35000000000000003
0.08
0.48
0.9400000000000001
1.09
0.73
0.86
1.23
0.55
0.4
0.25
0.75
0.34
0.49
0.37
0.23
0.77
0.53
0.49
1.2
0.65
1.05
0.37
0.32
1.16
0.02
0.65
0.96
0.76
0.98
0.51
0.35000000000000003
1.11
0.87
0.08
0.01
0.03
0.51
0.67
0.04
0.52
0.53
1.03
0.73
1.1
0.48
0.47000000000000003
0.91
0.58
0.77
0.06
0.36
0.68
1.24
0.63
1.21
0.77
0.31
0.18
1.01
0.54
1.1300000000000001
0.63
0.53
0.64
0.24
0.61
1.0
0.68
0.72
1.1300000000000001
0.55
1.24
0.48
0.49
0.16
0.32
0.87
1.23
0.43
0.21
0.47000000000000003
0.08
1.26
0.76
0.59
0.44
0.67
0.89
1.16
1.11
0.99
0.53
0.2
0.03
0.67
1.02
0.0
0.37
1.24
1.02
1.19
0.74
0.8300000000000001
0.36
0.85
0.73
0.03
0.11
0.8300000000000001
0.04
0.9
0.27
0.43
0.13
0.8
0.65
0.67
0.65
0.2
0.18
0.56
1.21
0.11
0.51
1.1
1.05
0.79
0.1
0.15
0.71
0.9
1.06
1.1
0.75
0.76
0.01
0.93
0.41000000000000003
0.62
0.85
0.98
0.06
1.26
0.62
1.12
0.54
0.25
0.92
1.03
0.13
0.73
0.8
1.02
1.16
0.9400000000000001
0.12
1.09
1.1500000000000001
1.0
0.16
0.8
0.75
0.63
0.11
0.73
1.0
0.49
1.1400000000000001
0.9500000000000001
0.84
1.26
0.14
0.18
0.77
0.29
1.21
0.16
1.04
0.87
0.06
1.22
0.71
0.8300000000000001
0.07
1.01
0.11
0.48
0.98
0.74
0.22
0.53
0.64
0.99
0.68
0.59
1.17
1.23
0.31
0.12
0.53
0.47000000000000003
0.16
0.84
0.66
0.59
0.25
0.9
0.41000000000000003
1.03
0.51
0.88
0.9
0.96
0.56
1.03
1.21
0.78
1.17
0.45
0.44
0.19
0.04
0.96
0.34
0.48
1.05
1.05
0.2
0.86
0.26
0.18
0.97
0.44
1.19
0.01
0.77
0.32
0.13
0.54
0.9
0.35000000000000003
0.6
0.54
1.03
0.81
0.22
1.1400000000000001
1.2
0.98
0.27
0.7000000000000001
0.63
0.04
0.42
1.25
0.4
0.81
0.68
1.09
1.18
0.06
0.91
0.45
1.2
0.52
0.28
0.08
0.37
0.08
0.59
0.8300000000000001
0.9
0.87
0.77
0.51
0.76
0.76
0.7000000000000001
0.67
0.26
0.63
0.24
0.44
0.17
0.09
0.47000000000000003
0.19
0.91
0.75
1.26
0.96
0.71
0.26
0.56
0.26
0.03
0.8300000000000001
1.07
1.2
0.28
0.31
0.51
0.28
0.65
0.0
0.45
1.17
0.99
0.45
0.89
0.79
1.12
0.76
0.24
0.66
1.22
0.45
0.19
0.7000000000000001
0.9500000000000001
0.4
0.81
0.31
1.07
0.76
0.77
1.1500000000000001
0.1
1.24
0.49
0.87
0.32
0.25
0.26
0.54
0.07
0.59
0.9
1.24
0.66
1.03
1.2
0.27
0.8200000000000001
0.03
0.29
0.33
0.25
0.61
0.08
1.01
0.5700000000000001
0.89
0.92
0.37
0.08
1.1
0.49
1.02
1.22
0.41000000000000003
0.96
0.61
0.47000000000000003
0.65
0.65
0.05
0.9
0.14
1.17
1.1500000000000001
1.03
0.93
0.92
0.09
0.05
0.32
0.67
0.65
1.16
1.07
0.6900000000000001
1.23
1.03
0.43
1.01
1.27
0.16
0.91
0.14
1.23
0.5700000000000001
0.64
0.6900000000000001
0.25
0.52
0.72
0.31
0.63
0.75
0.5700000000000001
0.28
0.07
0.87
0.21
1.07
0.39
0.11
0.46
0.9400000000000001
0.6900000000000001
0.46
0.64
0.34
0.25
0.74
0.3
0.78
0.43
1.23
1.01
0.6900000000000001
0.12
1.18
0.59
0.37
0.22
0.25
0.44
0.07
0.28
1.23
0.9400000000000001
1.2
1.25
0.11
0.28
1.23
0.29
0.33
1.0
0.42
1.17
0.43
0.6
0.41000000000000003
0.5700000000000001
0.97
0.56
1.04
1.01
0.37
0.49
0.13
0.21
0.4
0.5700000000000001
1.23
0.5700000000000001
0.8
0.16
0.9500000000000001
1.23
1.1400000000000001
0.4
0.24
0.04
1.1400000000000001
0.9400000000000001
0.32
0.12
0.33
1.23
0.71
0.17
0.63
0.52
0.8200000000000001
1.23
0.96
0.05
0.1
0.4
0.64
0.55
0.26
0.61
1.05
0.4
1.08
0.52
1.21
1.05
0.0
1.27
1.21
0.96
0.18
0.66
1.07
0.93
0.13
0.91
0.81
0.19
0.79
1.1
0.99
0.38
0.43
0.76
0.8200000000000001
1.05
0.68
0.85
0.14
1.26
0.3
0.66
0.8200000000000001
0.36
1.1300000000000001
1.09
0.88
0.04
0.77
0.84
0.32
0.49
0.46
0.62
1.0
0.6
0.18
0.89
0.39
1.16
1.19
0.97
0.51
0.92
0.79
0.3
0.92
0.37
0.12
0.24
0.71
0.48
0.09
0.61
0.97
1.1500000000000001
0.8300000000000001
0.26
1.07
0.05
1.07
0.18
0.31
0.71
0.87
0.03
0.12
0.99
0.88
0.36
1.21
0.19
0.59
0.08
0.71
0.8
1.06
0.32
0.32
0.05
0.07
0.48
0.98
0.98
0.06
0.55
0.4
0.96
1.12
0.41000000000000003
0.43
0.51
1.03
0.51
0.44
1.26
0.73
0.48
0.9
0.78
0.06
0.26
0.91
0.04
0.26
0.44
0.26
0.73
0.46
1.27
0.46
0.61
0.36
0.28
1.08
0.91
1.22
1.1300000000000001
0.01
0.49
0.05
1.21
0.56
0.4
0.96
0.22
0.93
0.29
0.26
0.5700000000000001
0.15
0.59
0.49
0.51
0.62
0.0
0.81
0.64
0.23
0.64
0.22
0.02
0.8200000000000001
0.15
1.23
0.39
1.01
0.8
0.92
1.02
1.01
1.24
0.38
1.01
0.8
1.2
0.79
0.6900000000000001
1.24
0.79
0.76
0.27
0.96
0.6900000000000001
0.05
0.02
1.26
1.26
0.19
0.86
0.42
0.39
1.04
1.04
0.89
0.5
0.97
0.76
0.39
0.09
0.78
1.26
0.91
0.93
0.6900000000000001
0.4
1.18
0.36
0.9500000000000001
0.67
0.32
0.41000000000000003
0.72
0.76
0.52
0.19
1.12
0.52
0.6
0.85
1.05
0.99
1.08
0.08
0.81
0.6900000000000001
0.5700000000000001
0.92
0.42
0.14
0.5
0.91
0.11
0.38
1.02
0.85
1.16
0.42
0.66
0.27
0.4
0.76
0.62
0.34
0.49
1.12
0.96
0.44
0.96
1.2
1.1400000000000001
1.27
0.5
0.19
0.53
0.06
0.81
0.54
0.08
0.55
1.1400000000000001
0.32
0.35000000000000003
0.5
0.96
0.13
0.15
0.07
1.12
0.37
1.2
0.89
0.35000000000000003
1.0
0.64
0.8300000000000001
1.22
0.43
0.41000000000000003
0.33
0.51
1.1400000000000001
0.45
0.8200000000000001
0.8200000000000001
0.86
0.99
1.1
0.71
1.19
0.53
0.73
0.75
1.01
0.6
1.05
1.02
0.07
0.24
0.61
0.67
0.09
0.91
0.87
0.14
0.5
0.91
1.26
0.85
0.49
1.02
1.11
0.33
0.71
0.51
0.11
0.56
1.08
0.74
1.06
0.96
0.63
1.17
0.74
1.26
0.04
1.1400000000000001
1.11
0.59
1.23
0.92
0.5700000000000001
0.1
0.88
0.36
0.92
0.07
1.04
0.42
1.01
0.86
1.11
0.46
0.87
0.52
0.61
0.77
0.75
0.54
0.05
0.86
0.32
0.41000000000000003
0.86
0.01
0.5700000000000001
0.77
1.05
1.27
1.24
0.97
0.14
0.86
0.75
0.72
0.47000000000000003
0.07
0.47000000000000003
0.0
0.97
1.0
1.07
0.14
0.44
0.61
0.42
1.0
0.08
1.0
0.19
1.08
0.18
0.9400000000000001
0.39
0.99
0.21
0.27
0.86
0.19
0.54
1.22
0.0
0.51
0.9500000000000001
0.11
0.9500000000000001
0.07
1.01
0.12
1.24
0.21
0.71
0.31
0.25
1.01
0.34
0.6900000000000001
1.05
0.27
0.91
0.49
1.27
0.5700000000000001
1.12
0.61
0.49
0.8200000000000001
1.05
1.1500000000000001
1.06
0.17
0.8300000000000001
0.27
0.74
1.18
0.6
0.4
0.22
1.1400000000000001
0.46
1.1300000000000001
0.99
0.45
0.49
0.35000000000000003
0.44
0.35000000000000003
0.8300000000000001
1.02
0.56
0.32
1.03
1.27
0.11
0.89
0.8
0.33
0.48
0.67
1.1300000000000001
1.08
0.17
0.09
0.24
0.72
1.03
0.08
0.27
0.78
0.8200000000000001
0.99
0.61
0.92
0.47000000000000003
0.48
1.22
0.51
0.09
1.05
0.73
0.91
1.1500000000000001
0.21
0.68
0.52
0.3
0.02
0.37
0.06
0.55
1.12
0.27
1.17
0.88
0.29
0.34
0.8
0.34
0.25
0.01
0.38
0.8300000000000001
0.21
0.11
0.37
1.23
0.31
0.28
0.43
1.0
1.1
0.75
0.8200000000000001
0.6900000000000001
0.75
1.24
0.59
0.91
0.03
0.68
0.99
1.03
0.34
0.93
0.09
0.66
0.75
0.04
1.1300000000000001
0.38
1.1400000000000001
0.67
0.45
0.5700000000000001
0.61
0.12
0.65
1.24
0.59
0.48
0.45
1.21
0.1
0.89
0.93
0.22
0.19
1.05
1.02
0.41000000000000003
0.33
0.48
0.4
0.52
0.0
1.21
0.39
0.46
0.14
0.1
0.53
0.49
0.1
0.42
0.14
1.06
0.6900000000000001
1.26
0.99
1.19
0.21
1.1500000000000001
0.22
0.35000000000000003
0.97
1.1400000000000001
0.34
1.07
0.33
0.33
0.17
1.02
0.97
0.49
0.33
1.21
0.28
0.4
0.14
0.38
0.74
0.74
0.0
0.05
0.78
0.68
0.77
0.73
1.12
0.45
0.22
0.19
0.7000000000000001
0.87
0.66
0.91
1.23
0.29
0.9
0.61
1.19
0.5700000000000001
1.21
0.87
0.56
1.04
0.33
0.87
1.18
0.08
1.02
0.47000000000000003
0.8300000000000001
1.22
0.04
0.92
0.59
1.26
0.77
0.13
0.64
0.56
1.04
0.59
0.88
0.84
0.17
0.92
0.46
0.66
0.21
0.55
0.2
0.9
0.98
0.88
1.1400000000000001
0.13
0.77
1.1300000000000001
0.28
0.86
1.12
0.48
0.08
0.98
1.1500000000000001
0.37
0.04
0.09
0.9500000000000001
1.25
0.91
0.8200000000000001
1.11
0.26
1.18
0.6
0.8
1.06
0.26
0.52
0.5700000000000001
0.56
0.51
0.5700000000000001
0.24
1.27
0.61
0.44
0.76
0.44
1.1400000000000001
0.71
1.27
0.55
0.73
0.87
0.37
1.0
0.26
0.75
1.04
0.52
0.54
0.64
0.98
1.27
0.15
0.42
0.81
1.03
0.24
0.56
0.21
0.13
0.17
1.12
1.22
1.11
0.8
1.25
0.06
0.23
1.02
0.15
0.54
1.02
0.73
0.25
1.06
0.12
0.89
0.41000000000000003
0.64
0.74
0.16
0.29
0.76
0.36
0.45
1.1500000000000001
0.09
0.79
0.87
0.05
1.1400000000000001
0.09
0.56
0.12
0.5
0.97
1.16
0.9400000000000001
0.28
1.2
1.21
0.48
1.06
0.46
0.37
0.71
0.99
1.21
0.25
1.01
0.37
0.51
0.39
1.1300000000000001
1.04
0.59
0.97
1.1400000000000001
0.67
1.1400000000000001
1.12
0.55
0.38
0.51
0.11
0.15
0.73
0.97
0.71
0.9500000000000001
1.1500000000000001
0.09
0.85
0.62
0.25
1.17
0.4
0.84
0.67
0.58
0.07
0.34
0.63
0.58
0.42
1.01
1.11
0.9
0.28
0.02
0.72
0.86
1.1500000000000001
0.51
0.31
0.64
1.1400000000000001
1.0
0.62
0.39
0.17
0.32
0.04
0.86
0.24
0.38
0.91
0.49
1.25
0.75
0.31
0.91
0.53
1.22
0.6
0.71
0.18
1.1
0.53
0.87
0.6900000000000001
0.31
0.24
0.47000000000000003
1.06
1.1
0.2
0.5
0.36
0.71
0.87
1.16
0.07
0.8200000000000001
0.14
0.72
0.31
0.87
1.12
0.75
0.2
0.62
0.41000000000000003
0.89
1.18
1.06
0.66
0.52
0.87
0.31
1.09
1.03
0.8300000000000001
0.36
0.62
0.38
0.34
0.54
0.93
0.89
0.89
0.41000000000000003
0.43
0.38
0.75
0.24
0.06
0.84
0.35000000000000003
0.03
0.56
0.0
0.0
0.23
0.06
0.3
0.96
0.49
0.8300000000000001
1.1
0.37
0.18
0.07
0.04
0.47000000000000003
0.41000000000000003
1.1300000000000001
0.75
0.5700000000000001
0.78
1.0
0.8300000000000001
0.93
0.68
0.49
0.71
0.89
0.9500000000000001
0.75
0.61
0.37
0.66
1.1300000000000001
1.09
0.02
1.06
1.05
1.11
0.62
0.4
0.9400000000000001
1.23
0.37
1.1500000000000001
0.85
0.14
0.96
1.22
0.85
0.15
0.56
0.84
0.49
0.63
0.08
0.09
0.35000000000000003
0.81
0.25
0.44
0.56
0.03
0.47000000000000003
0.11
0.16
0.12
0.14
0.77
1.21
0.17
1.19
1.1500000000000001
1.07
0.8200000000000001
1.08
0.33
0.66
0.9
0.78
0.39
0.72
0.43
0.68
0.55
1.21
0.35000000000000003
0.89
0.3
0.98
1.23
0.73
1.11
0.44
1.21
1.27
0.45
0.61
1.24
0.17
0.9
0.42
1.23
0.65
0.18
0.51
0.4
1.05
1.21
1.17
0.62
0.09
0.53
0.37
0.75
0.12
0.9400000000000001
0.78
0.86
0.11
0.96
1.07
0.23
0.1
0.52
0.62
0.02
1.1400000000000001
1.01
0.51
1.07
1.1500000000000001
0.7000000000000001
0.73
0.64
0.66
0.28
0.92
0.8200000000000001
0.74
0.8200000000000001
0.44
0.22
1.05
0.35000000000000003
0.13
0.51
1.1300000000000001
1.26
1.09
0.15
0.09
0.5700000000000001
0.51
0.0
0.85
0.07
0.03
0.92
0.5700000000000001
0.48
0.8200000000000001
0.6900000000000001
0.02
0.5
1.1500000000000001
0.31
0.26
0.24
0.6
0.27
0.33
0.31
0.1
0.14
1.23
0.6900000000000001
0.15
0.1
0.65
0.03
1.23
1.02
1.06
1.1
0.44
0.31
0.92
0.8200000000000001
0.54
0.37
0.43
0.77
1.1500000000000001
1.0
1.03
0.7000000000000001
0.42
0.22
0.65
0.72
0.25
0.38
1.24
1.08
0.22
0.19
0.22
0.12
0.74
0.77
1.04
1.04
0.87
0.12
1.25
0.47000000000000003
0.16
0.73
0.78
0.64
0.73
1.25
1.04
0.73
0.71
1.02
0.45
0.48
0.66
0.2
1.1300000000000001
0.13
0.79
0.97
0.04
0.17
0.61
0.06
1.06
0.92
0.99
1.03
0.11
0.73
0.34
0.75
0.72
0.38
1.08
0.9
0.9500000000000001
0.53
0.07
0.39
1.03
0.17
1.1500000000000001
1.07
1.12
1.19
0.78
0.28
0.76
0.4
0.06
0.68
0.33
0.0
0.56
0.64
0.5
0.13
1.18
0.45
0.23
0.71
0.86
0.76
0.59
0.75
0.91
0.32
0.26
0.14
1.16
0.19
0.14
0.55
0.88
1.03
0.65
0.36
0.15
0.09
1.09
0.1
0.71
1.05
0.24
1.0
0.52
1.1
0.33
0.46
0.03
0.51
1.1
0.73
1.24
0.85
0.8300000000000001
0.96
0.76
1.05
0.28
0.51
0.04
1.09
0.62
0.64
0.78
0.03
0.96
0.89
0.05
0.35000000000000003
0.76
0.28
0.25
0.96
1.2
0.03
1.02
0.96
0.04
0.65
0.98
0.07
0.84
0.14
0.37
1.16
0.98
0.24
1.06
0.2
0.8
0.28
1.0
0.73
0.51
0.9
0.32
0.4
0.55
1.21
0.64
0.84
0.28
1.27
1.08
0.93
0.9400000000000001
0.5
1.1500000000000001
0.08
0.97
0.07
1.21
0.02
0.49
0.47000000000000003
0.28
1.19
1.18
1.11
1.27
0.8
0.76
0.22
1.2
0.58
0.25
0.09
0.86
0.56
0.41000000000000003
0.23
0.32
0.9400000000000001
1.12
0.16
0.7000000000000001
0.39
1.17
0.26
0.53
0.78
0.39
0.88
0.15
0.89
0.18
0.56
0.27
0.91
0.6900000000000001
0.27
1.07
1.02
1.21
0.87
0.14
0.48
0.9
0.59
0.48
0.47000000000000003
1.01
0.55
0.39
0.74
0.09
0.8200000000000001
0.62
1.1500000000000001
0.02
0.19
0.72
1.04
0.5700000000000001
0.33
0.02
0.26
0.9500000000000001
0.21
1.24
1.1400000000000001
0.65
0.75
0.8300000000000001
0.98
0.98
0.9500000000000001
1.27
1.19
1.27
0.62
0.24
0.19
1.2
0.12
0.01
0.3
0.88
0.85
0.4
0.05
1.24
0.12
0.5700000000000001
0.19
0.98
1.19
0.87
0.35000000000000003
0.86
0.25
1.23
0.22
0.16
0.29
0.22
0.25
1.08
0.31
0.46
0.98
0.72
0.78
1.23
0.23
0.93
0.29
0.2
0.22
1.22
0.53
0.22
1.1400000000000001
0.84
0.12
0.43
1.1500000000000001
0.3
0.03
0.08
0.53
0.13
0.54
0.85
0.65
0.51
0.98
0.53
1.22
0.28
0.35000000000000003
0.43
0.8200000000000001
0.91
1.19
0.34
0.33
0.49
0.61
0.52
1.06
0.49
0.97
0.49
0.32
0.41000000000000003
1.11
1.22
0.14
0.05
1.21
0.7000000000000001
0.34
1.21
1.11
0.27
0.4
0.8300000000000001
0.22
0.51
0.5700000000000001
0.18
0.52
0.17
0.3
0.56
0.64
0.23
1.12
0.8
0.51
0.91
0.46
1.1300000000000001
0.76
0.33
0.6900000000000001
0.46
0.78
0.25
0.6
0.47000000000000003
0.39
0.47000000000000003
0.37
1.23
0.49
0.59
0.73
0.26
0.77
0.39
1.25
1.22
1.02
0.9500000000000001
1.19
0.34
0.2
0.86
0.35000000000000003
0.6
0.27
0.59
0.9500000000000001
1.18
1.1500000000000001
0.35000000000000003
1.07
0.5700000000000001
0.65
0.67
0.62
0.28
0.72
0.85
0.28
0.44
0.17
0.02
0.3
1.27
0.07
0.24
0.24
1.1400000000000001
0.1
0.11
0.88
0.64
0.24
0.05
0.41000000000000003
0.63
0.81
0.08
0.8
0.7000000000000001
0.1
0.77
0.48
0.28
0.04
0.38
0.42
1.27
0.49
0.76
0.8300000000000001
0.91
0.39
0.84
1.27
1.06
1.01
0.61
0.11
0.74
1.1300000000000001
0.9500000000000001
0.37
0.23
0.6
1.27
0.8
0.54
1.04
0.28
0.04
0.14
1.02
0.7000000000000001
0.63
0.53
0.05
0.12
0.52
0.32
0.6900000000000001
0.41000000000000003
0.76
0.42
0.22
0.26
0.65
0.56
1.08
0.43
0.04
0.72
0.76
0.23
0.15
0.66
0.8
0.3
1.19
0.68
0.18
0.09
0.97
1.1300000000000001
0.55
0.47000000000000003
0.87
0.24
0.51
0.47000000000000003
0.48
1.19
0.34
0.39
1.09
1.07
0.44
0.37
0.56
1.18
0.11
0.6900000000000001
0.59
0.46
0.74
0.11
1.27
0.48
0.4
0.03
0.68
0.05
1.21
0.6
1.08
0.11
0.4
1.1500000000000001
0.0
0.43
0.17
0.33
0.11
0.46
0.78
0.72
0.49
1.27
0.1
0.97
0.35000000000000003
1.07
1.12
0.03
0.7000000000000001
1.23
1.12
0.31
0.49
0.27
0.71
1.21
0.67
0.46
0.23
0.68
1.0
0.18
0.17
1.1
0.59
0.8
0.8
0.68
0.89
0.76
0.72
0.48
0.11
0.55
0.19
0.6
1.1400000000000001
0.7000000000000001
0.64
0.59
0.19
0.0
0.52
0.92
1.12
0.9400000000000001
1.05
1.22
0.73
0.04
1.09
1.05
0.2
0.52
1.23
0.8200000000000001
1.05
0.39
1.07
0.63
0.55
0.64
0.53
0.97
0.97
0.21
0.23
0.74
0.8300000000000001
0.98
0.64
0.29
0.8
0.74
0.92
0.98
0.38
0.87
0.11
0.07
0.17
0.78
0.55
0.33
0.65
0.13
0.04
0.23
0.62
1.08
0.14
0.62
0.96
0.49
0.71
0.43
0.89
0.4
0.87
0.17
0.41000000000000003
0.28
0.84
0.5700000000000001
1.21
0.49
1.0
0.98
0.24
1.02
0.53
0.15
1.1
0.68
0.0
0.09
0.73
1.03
0.03
0.96
0.39
0.68
0.9400000000000001
0.63
1.26
0.96
1.02
0.37
1.25
0.01
1.1
1.08
1.2
0.98
0.61
0.85
0.9500000000000001
1.04
1.1
0.88
0.33
0.62
0.91
0.75
1.1300000000000001
0.77
0.84
1.18
0.3
1.1400000000000001
0.45
1.24
0.39
0.9400000000000001
1.21
0.18
0.71
0.14
0.88
1.04
0.24
1.1500000000000001
1.19
0.04
1.0
1.25
0.42
0.85
1.23
0.47000000000000003
1.02
0.1
0.6
0.35000000000000003
0.91
0.87
0.81
0.53
0.9500000000000001
0.64
0.03
0.0
0.3
0.46
1.26
1.1500000000000001
0.6
0.14
0.27
0.24
0.44
1.21
0.72
0.27
0.86
1.07
1.0
0.28
0.65
0.13
0.14
0.85
0.71
0.04
0.19
0.39
0.8300000000000001
1.06
0.75
1.16
0.54
0.21
0.73
1.0
0.6
0.0
0.36
0.24
1.24
0.14
1.01
0.6900000000000001
1.04
1.26
0.77
0.65
0.92
1.1300000000000001
1.1
0.73
0.45
0.75
0.16
0.48
0.08
0.28
0.09
0.98
0.49
0.8
0.66
0.45
0.11
0.16
0.23
1.06
0.31
0.1
0.29
0.18
1.09
0.09
0.87
0.5
0.65
1.12
0.56
0.47000000000000003
0.46
1.07
1.04
0.74
0.23
0.17
0.91
1.06
0.21
0.38
0.21
0.0
0.3
0.3
1.21
0.17
0.43
0.02
0.9
0.09
0.53
0.6
1.19
0.8300000000000001
0.05
0.79
0.98
0.88
1.17
0.98
0.13
0.64
0.1
0.25
0.6
1.25
1.11
1.0
1.01
0.35000000000000003
0.75
0.87
1.04
0.8300000000000001
0.15
0.86
1.06
0.49
0.61
0.23
0.49
0.05
0.22
0.23
0.43
0.35000000000000003
0.84
0.45
1.1500000000000001
0.8300000000000001
0.67
0.35000000000000003
0.0
0.41000000000000003
0.76
0.43
0.48
0.27
0.9400000000000001
0.6
1.12
0.89
0.27
0.92
1.1300000000000001
0.43
0.9500000000000001
1.11
0.71
0.9400000000000001
0.05
1.22
0.11
0.72
0.72
0.38
0.55
0.49
0.13
1.26
1.1500000000000001
0.89
0.2
0.23
1.26
0.28
0.32
0.79
0.36
0.12
1.09
0.8200000000000001
0.62
0.8
1.21
1.17
0.92
0.34
0.86
0.19
0.5
0.25
0.01
0.65
0.06
0.53
0.41000000000000003
0.68
0.8200000000000001
0.38
0.48
0.23
0.49
1.06
0.23
0.63
0.36
0.62
0.62
1.24
0.34
0.38
0.0
0.88
0.29
0.97
1.27
0.1
0.28
0.5700000000000001
0.0
0.66
0.43
0.66
0.91
0.45
0.67
0.93
0.01
0.11
0.23
1.24
0.16
0.13
0.6900000000000001
1.03
1.07
0.15
0.78
0.27
0.98
1.01
0.49
0.48
0.55
0.31
0.54
0.22
0.75
0.65
1.1500000000000001
0.19
0.67
0.04
1.1
0.37
1.27
0.34
0.66
0.02
0.4
0.18
0.07
0.14
1.2
1.23
0.9400000000000001
1.01
0.5
0.25
1.11
1.1500000000000001
0.74
0.63
0.5700000000000001
0.7000000000000001
1.27
0.66
1.0
0.48
0.38
1.1500000000000001
1.1400000000000001
0.04
0.28
0.09
1.1
0.01
0.32
0.63
1.1
0.14
0.24
1.22
0.86
0.5700000000000001
0.63
0.85
0.99
0.9
0.68
0.97
1.25
1.1
1.1400000000000001
0.47000000000000003
1.18
0.42
0.51
0.78
0.11
0.93
1.11
0.87
0.46
0.18
0.09
0.32
0.24
0.54
0.4
0.08
0.25
1.26
1.22
0.97
0.73
1.04
1.1400000000000001
0.63
0.5700000000000001
1.06
0.18
1.06
0.43
1.18
1.24
1.25
0.27
0.33
0.75
0.25
1.05
0.97
0.74
0.1
0.5700000000000001
0.63
1.21
0.81
1.01
0.13
0.8200000000000001
0.8300000000000001
0.26
0.5
0.7000000000000001
0.19
0.26
1.11
1.1
1.02
0.74
0.45
1.2
1.0
0.84
0.67
0.19
0.34
0.29
0.24
0.26
1.02
1.26
0.23
0.07
0.5
0.43
0.56
0.26
0.89
0.1
1.1400000000000001
0.0
1.25
0.35000000000000003
0.6900000000000001
0.7000000000000001
1.22
0.56
0.9500000000000001
1.18
1.04
0.68
0.05
0.26
0.93
1.1300000000000001
0.41000000000000003
1.23
0.6900000000000001
0.55
0.44
1.19
0.97
0.96
0.92
0.6900000000000001
0.5
1.2
1.1400000000000001
1.24
0.99
0.81
0.5
0.11
0.59
0.52
0.75
1.0
0.34
0.16
0.33
0.86
0.11
0.03
0.6
0.45
1.1
0.91
1.03
1.19
1.1400000000000001
1.1400000000000001
0.28
1.19
0.44
0.5700000000000001
1.19
0.43
1.05
0.17
0.97
1.24
0.97
0.66
0.55
0.81
1.01
0.84
0.21
0.74
0.97
0.99
0.66
1.2
0.39
0.8200000000000001
0.55
0.9400000000000001
0.61
0.66
0.78
0.54
0.81
0.99
0.08
0.08
0.74
0.09
0.43
0.6900000000000001
1.19
1.1
0.5700000000000001
1.03
0.53
0.31
0.76
0.12
0.19
0.6900000000000001
0.01
0.6900000000000001
0.33
0.76
0.06
0.26
0.9500000000000001
0.87
0.11
0.81
0.5
0.67
0.81
0.22
0.99
0.5700000000000001
0.41000000000000003
0.72
1.11
0.9
0.55
0.02
0.75
0.52
0.12
0.45
0.43
1.1400000000000001
1.17
1.23
0.54
1.21
0.67
0.49
0.9400000000000001
1.02
0.03
0.01
0.66
1.01
0.59
0.92
0.86
1.0
1.26
0.48
1.2
1.1
0.8300000000000001
0.17
0.99
0.55
0.02
0.51
0.22
0.16
1.23
1.07
0.8300000000000001
0.8200000000000001
0.16
0.45
0.22
0.54
1.21
0.63
0.98
0.22
0.8200000000000001
0.87
0.15
0.75
0.14
1.23
0.5700000000000001
1.05
0.03
1.1300000000000001
0.28
0.21
1.21
0.92
0.45
0.8300000000000001
0.11
0.56
0.98
0.03
0.38
0.45
0.55
0.04
0.2
0.04
0.02
0.11
0.13
0.77
0.72
1.0
0.1
0.12
0.6900000000000001
0.67
0.33
1.06
0.32
0.3
0.98
0.05
0.93
0.22
0.86
0.8200000000000001
0.28
0.34
0.18
0.87
0.34
1.12
1.22
0.34
0.86
0.64
0.79
0.13
0.16
0.92
1.22
0.03
0.43
0.71
0.23
1.1500000000000001
0.79
0.76
0.33
0.15
0.64
0.54
0.63
1.1500000000000001
0.38
0.9
1.17
1.18
0.3
1.22
1.17
0.16
0.59
0.56
1.21
0.27
0.53
0.31
0.8200000000000001
0.9500000000000001
1.11
1.07
0.51
0.2
1.22
0.5700000000000001
1.02
0.36
0.15
0.88
0.9
0.09
0.5
0.14
1.0
0.9500000000000001
0.89
1.21
1.04
0.89
0.0
0.93
0.59
0.48
1.1500000000000001
0.27
0.28
0.96
0.08
1.1
1.1500000000000001
1.0
0.1
0.49
1.1
0.51
0.23
0.73
0.98
0.9500000000000001
0.6
0.9
0.44
0.35000000000000003
0.43
1.17
0.9
0.56
0.3
0.72
0.89
0.71
0.79
0.27
0.6900000000000001
1.25
0.42
0.86
0.43
1.18
1.03
0.07
1.19
0.13
0.5
0.55
0.16
0.55
0.8
0.6900000000000001
0.67
1.19
1.08
0.59
1.05
0.11
0.72
0.67
1.03
0.64
0.99
0.75
0.44
0.88
0.08
0.9500000000000001
0.8
0.76
0.48
0.16
1.1500000000000001
1.1300000000000001
0.64
0.75
1.07
0.8200000000000001
0.9500000000000001
0.67
0.44
0.89
0.43
0.78
0.98
0.4
0.89
0.04
0.65
0.28
0.21
0.22
0.62
0.34
0.54
0.9400000000000001
1.18
0.89
0.76
0.67
0.37
0.01
0.87
0.12
0.05
0.31
0.56
0.42
0.87
1.03
0.24
0.88
0.0
1.02
0.21
0.51
0.66
1.19
1.04
0.71
1.1400000000000001
1.04
0.52
0.36
0.39
0.01
0.81
0.99
0.13
0.32
0.28
0.19
1.24
0.5700000000000001
0.1
0.8300000000000001
0.48
0.87
0.98
0.67
1.27
0.47000000000000003
0.41000000000000003
0.51
0.98
1.11
0.56
0.92
0.11
0.74
1.1500000000000001
0.09
0.32
0.26
0.63
0.0
0.54
0.22
0.9400000000000001
0.17
0.64
0.52
0.02
1.01
0.66
1.04
1.1500000000000001
0.5
0.67
1.1400000000000001
0.34
0.62
0.34
0.85
0.0
0.67
0.77
0.28
0.14
0.97
0.79
0.52
0.27
0.13
0.08
0.92
1.1500000000000001
1.21
0.11
0.99
0.23
0.36
0.53
0.7000000000000001
0.25
0.6900000000000001
0.16
0.19
0.51
1.22
0.79
0.13
1.1500000000000001
0.9400000000000001
1.05
0.98
0.97
1.11
0.55
1.05
1.09
0.6900000000000001
1.11
0.0
1.11
0.56
0.21
0.18
0.46
0.01
0.89
0.38
0.04
0.0
0.29
1.1300000000000001
0.44
1.2
0.5700000000000001
0.31
0.9
0.02
1.01
0.81
0.56
0.53
1.18
0.56
0.87
0.54
0.68
0.27
0.44
0.71
1.18
0.51
0.79
1.09
0.49
0.5700000000000001
0.33
0.05
0.81
0.91
0.29
0.81
0.9
0.89
0.55
0.9
0.6900000000000001
0.8
0.08
0.49
0.25
1.1500000000000001
0.88
0.25
0.07
1.21
0.47000000000000003
1.04
1.24
1.08
1.08
0.98
0.97
0.1
1.12
0.88
0.54
1.1
0.0
0.42
0.88
0.49
0.08
0.19
0.47000000000000003
1.25
0.16
0.88
0.13
0.31
0.91
0.32
0.06
0.73
0.11
0.79
0.4
1.07
0.4
0.19
0.04
1.09
1.2
0.15
0.48
1.26
1.27
0.45
0.61
0.38
0.45
0.88
0.89
0.64
0.92
1.09
0.45
1.16
1.11
0.6
1.03
0.93
0.93
1.26
0.31
0.66
0.06
0.79
0.5700000000000001
0.12
0.22
0.46
0.86
0.28
0.7000000000000001
1.1500000000000001
1.08
0.22
0.67
0.26
0.17
0.7000000000000001
0.9500000000000001
0.8300000000000001
0.16
0.66
0.3
0.66
0.87
0.56
1.06
0.35000000000000003
0.9400000000000001
0.45
1.01
1.1400000000000001
1.11
0.42
0.77
0.24
0.87
0.24
0.03
0.7000000000000001
0.37
0.52
0.73
0.19
0.99
1.05
1.09
0.64
0.1
0.04
0.38
0.72
1.09
1.1300000000000001
0.52
0.54
0.38
1.03
0.38
0.45
0.59
0.67
1.27
0.63
0.06
1.03
1.1500000000000001
0.02
1.07
1.23
1.04
1.03
1.1300000000000001
0.07
0.0
0.32
1.17
1.11
0.38
0.49
0.74
0.76
1.06
0.32
1.23
0.16
1.12
0.01
0.51
0.33
1.21
0.4
0.23
0.48
0.87
1.1300000000000001
0.81
1.01
0.19
0.9500000000000001
0.35000000000000003
0.47000000000000003
0.25
0.92
0.46
0.48
0.37
0.33
0.5700000000000001
1.01
0.63
0.28
0.61
1.25
0.03
0.59
1.02
0.61
1.23
0.9500000000000001
1.06
0.13
0.33
0.52
0.14
1.06
0.55
0.71
1.04
0.4
0.97
0.22
0.41000000000000003
1.1500000000000001
1.18
0.28
0.27
0.59
0.49
0.74
0.78
0.8300000000000001
1.07
0.87
0.6900000000000001
0.32
0.87
0.78
1.09
0.63
0.98
1.1400000000000001
0.17
0.23
0.85
0.2
0.16
1.1
0.91
1.11
0.04
0.85
1.01
0.36
0.34
1.11
0.77
0.6
0.93
0.12
0.27
1.18
1.18
0.39
1.12
0.21
0.92
0.43
0.89
0.99
0.59
0.5
0.04
0.4
0.85
0.7000000000000001
0.1
0.7000000000000001
0.06
1.01
0.27
1.19
0.37
0.72
0.47000000000000003
0.27
0.1
1.07
0.21
1.1500000000000001
0.89
0.68
0.2
0.87
0.56
0.38
0.14
0.64
1.1400000000000001
0.97
0.8300000000000001
0.7000000000000001
0.96
0.62
1.05
0.04
0.37
0.49
0.9400000000000001
0.11
1.1500000000000001
0.19
0.75
0.05
0.65
0.45
0.0
0.7000000000000001
0.43
1.25
0.38
0.2
1.19
0.74
0.05
1.08
0.54
0.48
0.66
0.31
1.03
0.59
0.79
1.17
0.39
0.76
0.17
0.4
1.1300000000000001
1.05
1.18
0.61
0.42
0.43
0.0
0.9500000000000001
0.88
0.89
0.41000000000000003
0.84
1.1300000000000001
0.5700000000000001
0.71
0.05
1.18
0.04
0.13
0.28
1.1500000000000001
0.51
0.81
0.86
0.9500000000000001
0.52
1.26
0.52
0.9
0.8
0.44
0.35000000000000003
0.65
1.26
0.32
0.5700000000000001
1.05
0.99
0.8
0.2
0.01
0.78
1.22
0.9400000000000001
0.44
0.85
0.93
0.51
0.4
0.09
0.38
1.26
1.04
0.68
0.48
0.06
0.11
1.04
0.6900000000000001
0.87
0.22
1.21
1.27
0.39
0.61
0.78
0.29
0.74
0.35000000000000003
1.1300000000000001
0.09
0.47000000000000003
1.25
0.75
0.64
0.87
0.09
0.04
0.32
0.63
0.55
0.34
0.13
1.09
0.61
0.8200000000000001
1.23
0.98
0.05
1.08
0.39
0.92
0.9
0.76
0.5
1.02
0.27
0.98
0.56
0.01
0.78
0.22
1.25
0.96
0.23
0.61
1.1
0.81
0.56
1.27
0.04
0.22
0.2
0.24
0.75
0.09
0.25
0.71
1.18
0.27
0.92
0.39
0.12
0.33
0.8300000000000001
1.08
1.01
0.41000000000000003
1.1300000000000001
0.0
1.18
0.51
0.43
0.91
0.15
0.0
0.36
0.62
0.32
0.77
1.25
0.97
1.01
0.1
1.07
0.16
0.42
0.32
0.6
1.1400000000000001
0.5700000000000001
0.5700000000000001
0.27
0.52
1.19
0.86
1.2
0.8300000000000001
0.72
0.6
0.49
0.02
0.33
0.45
0.39
0.71
1.1500000000000001
0.25
0.49
0.93
0.09
1.1
1.2
0.09
0.68
0.87
0.36
0.52
1.09
0.47000000000000003
0.2
0.72
0.73
0.27
0.25
0.42
0.3
0.28
0.54
0.89
0.77
0.92
0.56
1.03
1.1300000000000001
1.1500000000000001
0.2
0.44
0.97
0.65
0.8200000000000001
0.26
0.43
1.0
1.22
1.03
0.05
0.49
0.5700000000000001
0.75
1.04
0.11
0.08
0.36
0.26
0.33
0.68
0.98
0.98
1.27
1.21
0.85
0.47000000000000003
0.34
0.02
0.53
0.87
0.01
0.52
0.19
0.52
0.38
0.18
1.08
1.19
0.44
0.07
0.5700000000000001
0.72
0.8300000000000001
0.56
0.16
0.9500000000000001
0.06
0.32
0.67
0.73
1.08
0.49
0.41000000000000003
1.07
0.4
0.41000000000000003
0.07
0.79
0.96
0.05
0.03
0.06
1.22
0.61
0.6
0.68
1.22
0.85
0.39
0.81
0.99
0.81
0.31
0.66
0.91
1.11
0.15
0.77
0.49
0.2
0.44
0.64
0.87
1.12
0.8300000000000001
1.23
0.09
0.08
0.6900000000000001
0.59
0.04
0.31
0.2
0.02
1.24
1.21
0.99
1.1300000000000001
0.48
0.17
0.79
0.01
0.68
0.06
1.07
0.02
0.29
1.1400000000000001
0.77
0.99
0.98
0.77
0.67
0.6
0.91
0.97
0.55
0.26
0.74
0.76
1.24
0.07
0.24
0.05
0.49
0.3
0.9400000000000001
1.06
0.8
0.49
1.12
1.26
0.12
0.92
1.06
0.92
0.09
1.06
0.87
1.23
0.67
0.98
0.13
1.05
0.75
0.09
0.5700000000000001
0.08
1.21
0.6900000000000001
0.89
0.79
0.38
0.41000000000000003
0.2
0.81
1.17
0.92
0.1
0.15
0.97
0.61
0.52
1.1300000000000001
0.18
0.79
0.97
0.75
0.44
0.55
0.44
0.16
0.8200000000000001
0.6
0.16
0.45
0.5700000000000001
1.1500000000000001
0.11
0.5
0.96
0.3
0.65
0.65
0.54
0.77
0.2
1.06
0.96
0.8200000000000001
1.22
0.91
1.03
1.17
0.98
0.6
0.03
0.7000000000000001
1.27
1.1500000000000001
0.06
1.19
0.88
0.33
0.26
0.79
0.52
0.12
0.37
1.03
0.04
0.12
0.25
0.96
0.92
0.8200000000000001
0.43
0.09
0.06
1.12
0.07
0.21
0.74
0.76
0.77
0.32
1.01
0.4
1.24
1.03
0.43
0.55
0.4
0.53
0.77
0.04
0.43
0.43
0.39
1.12
0.39
1.1300000000000001
1.1400000000000001
0.8200000000000001
0.12
0.86
1.01
0.9400000000000001
0.05
1.01
0.28
1.08
1.11
0.05
0.49
0.14
0.62
0.37
1.1400000000000001
0.85
0.75
0.12
0.01
0.5700000000000001
0.68
0.68
0.81
0.42
1.1400000000000001
1.07
0.62
1.04
0.41000000000000003
0.74
0.9400000000000001
0.75
0.31
1.1500000000000001
0.18
0.28
0.06
0.39
1.0
0.6900000000000001
0.5
0.91
0.79
1.24
0.0
0.05
1.12
0.16
1.06
0.12
0.93
1.08
0.36
0.33
0.03
0.78
0.54
0.93
0.17
0.86
0.9400000000000001
0.39
0.49
0.84
1.01
1.12
0.71
0.39
0.61
0.9400000000000001
0.91
0.91
0.76
0.1
1.1500000000000001
1.21
0.22
0.55
0.91
0.2
0.26
0.9
0.06
0.55
1.09
1.19
0.6900000000000001
0.8200000000000001
1.23
0.05
0.44
0.8200000000000001
0.78
0.35000000000000003
1.25
1.03
0.91
0.53
0.42
1.1500000000000001
1.11
0.47000000000000003
0.4
0.08
0.84
0.87
0.62
0.37
0.66
1.0
0.9400000000000001
0.19
0.77
0.68
0.24
0.99
0.44
0.62
0.92
0.18
1.06
1.18
0.34
0.22
1.1300000000000001
1.1400000000000001
0.31
0.16
0.73
0.88
0.31
1.1300000000000001
0.74
0.98
0.45
0.55
0.9
1.1400000000000001
0.32
0.91
0.96
0.18
0.5700000000000001
0.48
0.78
0.71
0.24
0.12
0.03
0.7000000000000001
0.96
0.25
0.86
0.66
0.86
0.99
0.7000000000000001
0.79
0.52
0.91
0.08
0.42
0.75
0.8200000000000001
1.02
0.87
0.79
1.17
0.66
0.28
0.78
1.24
0.71
0.02
0.39
0.25
0.5
0.5700000000000001
1.2
0.42
0.39
0.77
0.51
0.12
0.45
0.61
0.52
0.37
0.21
0.11
1.1500000000000001
0.71
0.23
0.33
0.61
0.31
0.37
0.56
1.1500000000000001
1.22
0.28
1.1400000000000001
0.72
0.14
0.33
1.19
1.19
0.53
0.55
0.42
0.61
0.0
0.44
0.71
0.08
0.71
0.26
0.42
0.65
0.47000000000000003
0.27
0.06
1.12
1.02
1.1
1.01
0.0
0.99
0.08
0.33
0.5
0.06
0.37
0.59
1.18
0.93
0.33
0.08
0.96
0.5
0.46
0.67
0.85
1.17
1.1300000000000001
0.14
0.36
1.19
0.79
0.97
1.1400000000000001
0.5700000000000001
0.8
0.37
0.66
0.61
0.76
1.21
0.14
0.18
0.92
0.63
0.8
1.1
0.44
0.87
0.27
0.97
0.25
1.0
0.1
1.1500000000000001
0.36
0.39
0.49
0.93
0.47000000000000003
0.21
0.71
1.08
0.54
0.76
1.0
0.2
0.44
0.5
0.81
0.11
0.16
0.56
0.41000000000000003
0.33
1.03
1.01
1.21
1.04
0.8200000000000001
0.23
1.18
0.01
0.66
0.66
0.31
1.05
1.21
0.32
1.23
0.91
0.8300000000000001
0.5700000000000001
0.26
0.68
0.16
0.9400000000000001
0.76
0.11
0.84
0.66
0.77
0.6
0.36
0.76
0.78
1.1500000000000001
0.03
1.25
0.75
1.07
1.17
0.21
0.8
0.88
1.26
0.59
1.23
0.86
0.72
0.36
0.49
1.1500000000000001
0.5
0.12
1.1400000000000001
1.16
0.39
1.2
0.55
0.62
0.13
1.02
1.05
0.12
0.84
0.92
0.6900000000000001
0.0
0.87
1.11
0.17
0.27
1.23
0.22
1.17
0.53
0.75
0.41000000000000003
1.1300000000000001
0.32
1.11
1.08
0.85
0.78
0.14
0.01
0.32
0.4
0.08
1.1
0.02
0.97
1.2
0.09
1.12
0.23
1.25
0.06
0.77
0.86
0.72
0.45
0.4
0.02
0.16
1.06
0.59
0.35000000000000003
0.63
0.38
0.91
1.02
0.38
0.79
0.66
0.61
0.72
0.59
1.19
0.54
0.67
0.11
0.73
0.44
0.32
0.17
0.71
0.53
0.71
0.14
0.02
1.21
1.09
0.88
0.88
0.39
1.12
0.65
0.41000000000000003
0.05
1.1500000000000001
0.21
0.84
0.74
0.17
0.44
0.5
0.05
1.03
0.21
1.1300000000000001
1.2
0.06
0.58
0.34
1.19
0.8200000000000001
0.63
0.07
0.4
1.01
0.67
0.3
0.01
0.67
1.16
0.02
0.41000000000000003
0.17
0.77
0.86
0.8200000000000001
0.28
0.32
0.41000000000000003
0.75
0.45
0.9
1.24
0.28
0.34
0.41000000000000003
0.9500000000000001
0.73
0.76
0.99
0.62
0.9
0.04
0.06
0.96
1.1300000000000001
1.19
1.2
0.21
1.1400000000000001
0.59
0.73
0.46
1.22
0.34
0.98
0.6900000000000001
0.85
1.24
0.4
0.79
0.12
1.1500000000000001
0.7000000000000001
0.59
0.49
0.38
0.48
1.03
0.53
0.46
1.1400000000000001
0.97
0.43
1.2
0.87
0.65
0.24
0.65
0.78
0.34
1.09
0.99
0.79
0.42
0.47000000000000003
1.1400000000000001
0.31
0.26
0.62
0.4
0.43
0.74
0.11
0.0
0.14
1.07
0.33
0.21
0.49
0.53
0.66
0.34
1.2
0.26
0.32
0.9
0.25
0.3
1.08
0.5700000000000001
0.07
0.35000000000000003
0.67
0.28
0.99
0.87
0.18
0.56
0.48
0.37
0.72
0.1
0.6
0.96
1.21
0.44
1.18
1.06
0.4
1.1300000000000001
0.65
0.18
0.86
0.98
0.75
1.2
0.01
0.89
0.96
1.09
0.25
0.65
1.04
0.91
0.01
0.73
0.75
1.17
1.27
0.62
0.27
1.09
0.44
0.75
0.67
0.78
0.44
0.24
0.81
0.73
0.5
0.76
0.53
1.17
0.44
0.27
0.52
0.71
1.09
0.39
0.76
0.72
0.25
0.33
1.11
1.23
0.14
1.22
0.46
0.3
0.75
1.05
0.8300000000000001
0.98
0.31
1.27
0.59
1.09
0.07
0.65
0.68
0.73
0.45
1.1
0.0
1.2
1.06
0.28
0.44
0.88
1.05
0.34
1.1500000000000001
0.64
1.01
0.15
1.26
1.18
0.36
1.03
0.47000000000000003
0.81
0.9
0.71
1.04
0.08
0.37
1.0
0.7000000000000001
1.09
0.97
0.16
0.31
0.8200000000000001
0.35000000000000003
0.36
0.88
1.08
0.87
0.4
1.11
0.0
0.01
1.19
1.19
0.36
0.96
0.73
0.39
0.85
0.32
0.32
0.71
0.3
0.18
1.08
0.41000000000000003
0.9500000000000001
1.24
1.22
1.1300000000000001
0.73
1.09
0.56
0.75
0.74
0.64
0.66
0.67
1.08
0.93
0.14
0.27
0.75
0.18
0.43
1.09
0.7000000000000001
0.5700000000000001
0.85
0.43
0.49
0.85
1.01
0.6
0.49
1.1500000000000001
0.67
1.26
0.24
0.77
1.03
1.1300000000000001
0.42
1.24
0.52
0.05
0.76
0.08
1.25
0.65
0.25
0.73
0.49
1.22
0.52
0.56
0.8300000000000001
0.9500000000000001
0.32
1.1
0.0
0.52
1.08
0.05
0.31
0.8300000000000001
1.07
0.39
0.07
0.34
0.61
0.99
0.5
1.2
0.6
0.65
0.4
1.1500000000000001
0.49
0.12
0.38
0.49
0.03
0.55
0.8300000000000001
0.9500000000000001
1.05
1.0
0.79
0.67
0.8
1.01
0.2
0.98
0.79
0.32
0.8
0.45
0.54
1.22
0.9
1.25
1.03
0.81
0.45
1.1500000000000001
0.6
0.49
0.28
0.05
0.41000000000000003
0.59
0.79
1.18
0.3
1.27
0.91
1.1300000000000001
0.47000000000000003
0.55
1.06
1.27
0.48
1.21
1.1400000000000001
0.79
0.88
0.35000000000000003
0.68
0.8300000000000001
0.48
0.4
0.91
0.48
0.19
1.23
0.64
1.25
1.12
0.2
0.22
0.36
0.01
1.1300000000000001
0.24
0.3
0.93
0.8
0.3
0.81
1.09
0.28
0.64
1.1300000000000001
1.07
0.87
0.91
0.99
0.33
1.1
0.71
0.9400000000000001
1.22
0.27
1.04
0.5700000000000001
0.05
0.56
1.23
0.96
0.31
1.22
1.2
1.27
0.9400000000000001
0.1
0.21
0.91
0.54
0.12
0.99
0.65
0.8200000000000001
1.11
0.05
0.14
1.1400000000000001
0.92
0.26
0.03
0.02
0.43
0.09
0.05
0.24
0.74
0.87
0.81
1.06
0.91
1.01
0.97
1.23
0.17
0.67
0.5
0.18
0.15
1.25
0.84
0.8300000000000001
1.1500000000000001
0.88
0.3
1.21
0.35000000000000003
0.08
1.07
0.93
0.51
0.35000000000000003
0.12
0.91
0.39
0.93
0.6900000000000001
0.88
0.37
1.1500000000000001
0.06
0.87
0.37
1.05
1.09
0.86
0.98
0.29
0.21
0.99
0.68
1.03
0.6
0.27
0.8300000000000001
0.08
0.96
0.9400000000000001
0.9500000000000001
0.87
0.1
0.5700000000000001
0.43
1.22
1.07
0.12
0.2
0.8300000000000001
0.8300000000000001
0.92
0.18
0.26
0.16
0.44
0.64
0.64
0.15
0.18
1.1300000000000001
0.39
0.44
0.62
0.08
0.14
0.93
1.02
0.14
0.08
1.05
0.59
1.1500000000000001
1.05
0.79
0.23
0.42
0.93
0.09
0.44
0.7000000000000001
0.88
0.61
0.78
0.03
0.42
0.33
0.19
0.51
1.27
0.0
1.1500000000000001
0.3
0.31
0.6900000000000001
0.79
0.42
0.23
0.26
0.33
1.11
1.12
0.99
0.44
0.34
0.7000000000000001
0.45
0.38
0.47000000000000003
1.1500000000000001
1.27
0.9500000000000001
0.18
0.47000000000000003
0.5
0.08
0.41000000000000003
0.02
0.79
1.23
0.25
0.38
0.23
0.73
1.1
0.2
0.81
0.21
0.19
0.03
0.6900000000000001
1.05
0.5
1.24
0.04
0.2
0.86
1.19
0.93
0.65
0.33
0.19
0.93
0.06
0.91
0.76
0.49
1.1
0.73
0.43
0.61
0.89
1.12
1.1400000000000001
1.24
1.27
0.45
0.46
0.55
0.05
0.98
0.0
0.35000000000000003
0.05
0.16
1.01
1.12
0.18
0.31
1.26
1.1300000000000001
0.8
0.27
0.62
0.29
0.02
1.03
1.26
1.21
0.27
0.98
0.1
0.68
0.67
0.24
1.27
0.72
1.21
1.02
0.19
0.47000000000000003
0.13
0.23
1.18
0.9
0.62
0.01
0.5700000000000001
0.76
1.1300000000000001
0.06
0.12
0.9500000000000001
1.08
1.12
0.76
0.66
0.78
0.9
0.98
0.46
0.59
1.18
0.42
0.61
1.07
0.84
1.19
0.97
0.92
0.77
0.48
0.56
0.7000000000000001
0.44
0.39
0.96
1.1300000000000001
1.17
0.59
0.05
0.92
1.1500000000000001
0.68
0.27
0.43
1.1400000000000001
0.22
1.04
0.62
0.65
0.12
0.37
0.73
0.21
0.51
0.92
0.29
0.92
0.27
0.59
1.1300000000000001
0.38
0.01
0.76
0.6900000000000001
1.26
1.17
0.2
0.81
0.8300000000000001
0.04
0.5700000000000001
0.77
0.77
0.63
0.28
0.79
0.77
0.88
0.23
0.91
0.46
1.09
0.8
0.48
0.37
0.73
0.36
0.22
0.67
1.09
0.31
0.14
0.66
0.23
0.93
0.28
1.27
0.43
0.68
0.9500000000000001
0.97
0.26
0.99
1.07
0.67
0.78
0.47000000000000003
0.23
0.09
0.14
0.97
0.27
0.75
0.03
0.68
0.0
0.39
0.84
1.1
0.02
1.06
0.08
0.76
1.22
1.25
1.23
1.27
0.07
1.06
0.38
0.77
0.53
0.53
0.43
0.56
0.96
0.8200000000000001
0.59
0.05
0.39
0.59
0.92
0.24
0.6
0.56
0.15
1.05
0.88
0.97
0.93
1.06
0.75
0.38
0.73
0.8200000000000001
0.74
0.67
1.01
0.34
0.64
1.2
0.56
0.86
0.18
0.44
0.68
0.32
0.97
0.86
0.25
0.75
0.05
0.51
0.43
0.01
0.71
0.9500000000000001
0.24
0.67
0.7000000000000001
0.59
1.19
1.24
0.8200000000000001
1.21
0.45
0.54
0.43
0.54
0.12
0.36
0.65
0.59
0.65
0.26
0.13
0.06
0.31
1.17
0.66
1.07
0.2
0.6900000000000001
0.96
0.63
0.22
0.78
0.8300000000000001
1.01
1.22
0.66
1.07
0.26
1.26
0.7000000000000001
0.81
1.1
0.73
0.28
0.81
0.86
0.78
0.24
1.06
0.24
0.06
0.96
1.1300000000000001
1.23
0.23
1.1500000000000001
0.5700000000000001
0.88
1.22
0.38
0.34
0.77
0.15
0.15
0.99
0.03
0.12
0.28
0.21
0.85
0.54
0.24
0.11
0.04
0.56
1.12
0.36
0.8
0.5700000000000001
0.33
0.9500000000000001
0.9
0.48
0.2
0.02
0.67
0.12
0.52
0.88
1.21
0.33
0.31
0.43
1.1
1.1400000000000001
1.25
0.48
1.12
0.85
0.12
0.0
1.25
0.43
0.36
0.33
0.74
0.9
0.63
0.18
0.6900000000000001
0.55
0.37
1.1400000000000001
0.61
0.89
1.27
0.92
0.11
0.78
0.81
0.41000000000000003
1.1500000000000001
0.8200000000000001
0.8
0.6900000000000001
1.1500000000000001
0.41000000000000003
0.74
0.21
0.51
0.63
1.07
0.6
0.56
0.24
0.27
0.01
0.09
0.25
1.02
0.85
0.51
1.12
1.21
0.96
0.0
0.99
0.61
0.2
1.18
0.18
0.05
0.23
0.88
0.73
0.75
0.04
0.23
0.19
0.08
0.54
0.43
0.48
0.3
1.07
0.78
0.96
1.2
0.16
0.25
0.37
0.41000000000000003
0.72
0.08
0.77
0.02
0.51
0.55
1.08
0.14
0.13
1.2
0.98
0.34
0.36
0.35000000000000003
0.75
1.16
0.1
0.1
0.73
0.93
0.5700000000000001
1.1
0.43
1.04
0.22
0.45
0.9
0.72
0.46
1.22
0.91
0.21
0.25
0.29
0.11
0.3
0.19
0.19
0.13
1.0
0.67
0.31
0.03
0.86
0.8200000000000001
1.23
0.04
1.01
0.87
0.74
0.89
0.46
0.6900000000000001
0.66
1.2
0.0
0.16
0.91
0.06
0.63
1.18
0.3
0.84
0.12
0.56
0.28
1.17
0.6900000000000001
0.07
0.67
0.18
1.17
0.5700000000000001
1.12
0.38
0.06
0.08
0.49
1.09
1.1300000000000001
1.12
1.12
0.64
0.96
0.88
0.65
0.06
0.6
0.68
0.49
0.87
1.12
0.41000000000000003
0.43
0.72
1.02
1.24
0.12
0.8300000000000001
0.55
1.0
0.42
0.64
1.1500000000000001
0.53
0.08
0.5700000000000001
0.17
0.75
1.03
0.04
0.66
1.07
0.74
0.17
0.5700000000000001
1.17
0.34
0.48
0.13
0.03
1.21
1.19
0.22
1.26
0.03
0.54
0.76
0.8
0.84
1.09
0.31
0.64
0.62
0.52
0.3
0.16
0.78
0.25
0.11
0.5
1.04
0.76
0.88
1.11
0.7000000000000001
0.02
0.0
0.33
0.31
0.35000000000000003
0.67
1.11
0.28
0.05
0.63
0.65
1.1500000000000001
1.17
0.52
0.18
0.26
0.41000000000000003
0.42
0.21
0.41000000000000003
0.26
0.28
0.91
0.9500000000000001
0.15
1.27
1.22
0.36
0.12
0.89
