0.01
0.27
0.6
0.49
1.06
1.19
0.27
0.1
0.2
1.19
0.8300000000000001
0.61
0.31
0.08
0.32
0.41000000000000003
0.64
0.47000000000000003
0.31
0.22
0.76
0.88
0.5
0.7000000000000001
0.09
1.01
0.36
0.33
0.79
0.6900000000000001
0.25
0.9
0.73
1.22
0.14
1.04
0.35000000000000003
0.48
0.31
0.51
0.3
0.62
0.27
0.54
0.49
1.09
0.62
0.21
0.3
0.34
0.32
0.41000000000000003
0.77
0.65
0.6
0.65
0.42
1.11
1.04
0.03
0.84
1.01
0.25
1.21
0.8200000000000001
0.93
0.9500000000000001
0.03
1.01
0.65
0.56
0.85
0.27
0.49
0.27
0.39
0.68
0.91
0.28
0.18
0.05
0.6900000000000001
0.0
0.65
0.58
0.56
1.19
1.1400000000000001
1.01
1.04
0.98
0.24
0.86
0.73
1.2
0.34
0.07
0.53
0.12
0.15
0.75
1.16
1.17
0.5700000000000001
0.49
1.26
0.12
1.12
0.67
0.96
0.88
0.15
1.19
1.19
1.21
0.84
1.24
0.87
1.03
0.93
0.08
0.43
0.44
0.97
0.98
0.11
0.1
1.27
1.17
0.0
0.09
0.3
0.98
0.65
0.35000000000000003
0.71
0.92
1.18
0.25
1.27
1.1300000000000001
0.3
0.72
0.77
0.5
1.24
1.19
0.47000000000000003
0.9
0.85
0.5700000000000001
1.27
0.58
1.25
0.85
0.8300000000000001
1.1500000000000001
1.27
0.92
0.8200000000000001
0.04
1.1
1.01
0.5700000000000001
1.08
0.24
0.71
1.23
1.1500000000000001
0.13
0.61
0.24
1.24
0.9
1.22
0.11
0.25
0.76
0.72
0.42
1.1500000000000001
0.15
1.19
0.6900000000000001
1.21
0.66
0.41000000000000003
0.12
0.22
0.9
0.24
0.0
1.08
1.23
0.45
0.72
0.14
0.42
1.18
0.71
1.2
0.8
1.21
0.68
1.24
0.8
0.14
0.89
0.25
0.86
0.74
0.85
0.06
0.26
0.97
1.25
0.33
1.1500000000000001
0.4
1.19
0.76
1.16
0.03
0.03
1.23
0.8
0.16
0.56
0.45
1.03
0.11
0.41000000000000003
0.67
0.38
0.03
0.9400000000000001
0.1
1.2
0.9400000000000001
0.48
0.46
0.45
0.11
0.4
0.33
0.6900000000000001
1.2
1.1500000000000001
1.23
0.44
0.28
1.11
0.63
1.04
1.04
0.13
0.67
0.98
0.84
0.34
0.17
0.87
0.22
1.05
0.15
1.18
0.42
1.0
0.5700000000000001
0.79
0.8200000000000001
0.81
0.34
1.05
0.75
0.26
0.73
1.1300000000000001
0.0
0.1
0.99
0.74
0.15
0.72
0.64
0.81
0.54
0.31
0.37
0.4
1.01
0.49
0.39
1.19
0.4
0.1
0.74
0.66
1.05
0.09
0.1
0.39
1.1400000000000001
0.45
1.1500000000000001
0.02
0.09
0.66
0.62
0.78
1.17
0.36
0.01
0.0
0.27
0.04
0.8200000000000001
0.56
0.32
1.1400000000000001
0.28
0.43
0.41000000000000003
1.0
0.08
0.6900000000000001
1.25
0.09
0.91
0.5700000000000001
0.07
0.12
0.49
0.17
1.09
0.11
0.61
0.88
0.9400000000000001
0.87
0.12
0.23
0.72
0.05
0.72
1.22
0.22
0.6900000000000001
0.56
0.98
0.98
0.86
0.36
1.21
0.3
0.11
0.84
0.19
0.8300000000000001
0.8
0.49
1.27
0.28
0.29
1.1300000000000001
0.34
0.46
1.1500000000000001
1.1
0.0
0.55
0.06
0.08
0.39
1.23
0.9
0.84
0.04
0.21
1.11
1.08
0.98
0.6900000000000001
0.76
1.1400000000000001
0.51
0.34
0.71
0.53
1.25
1.12
1.03
0.18
0.49
0.02
0.09
1.22
1.21
0.99
1.01
0.88
0.55
1.11
0.41000000000000003
0.45
0.96
0.61
0.29
0.73
0.72
0.46
0.1
0.55
1.06
0.14
0.97
0.49
0.85
0.98
0.21
0.62
0.76
0.27
0.81
0.96
0.78
0.64
0.75
0.99
0.39
0.43
0.99
0.53
0.87
1.1400000000000001
0.08
0.12
0.59
0.02
0.63
1.18
0.05
0.73
0.18
0.8200000000000001
0.18
0.56
0.8300000000000001
1.11
0.86
0.4
0.04
1.23
0.32
1.18
0.73
0.7000000000000001
0.16
0.09
0.97
0.05
1.27
0.8300000000000001
0.64
0.7000000000000001
0.75
1.1400000000000001
1.01
1.07
1.1500000000000001
0.89
0.04
1.21
0.44
0.79
0.74
1.12
0.18
0.2
0.74
0.34
1.09
0.55
0.9500000000000001
0.15
0.11
0.58
1.23
0.42
0.36
0.27
0.16
1.04
0.6
0.06
1.09
0.22
1.07
0.36
0.03
0.03
0.8300000000000001
1.17
0.38
1.27
0.99
0.3
0.46
0.4
0.2
0.9400000000000001
0.33
0.51
0.09
0.64
0.93
0.6900000000000001
1.1500000000000001
0.8
0.97
0.05
0.8300000000000001
0.34
0.62
0.09
0.22
1.21
1.17
0.11
0.49
0.32
0.81
0.49
0.38
0.08
0.41000000000000003
0.91
0.4
0.19
0.84
0.15
0.62
0.7000000000000001
1.03
1.27
0.72
0.46
0.24
0.02
0.78
0.92
0.39
0.14
0.55
0.54
0.01
1.22
1.1
0.37
1.17
0.76
0.6
1.06
1.26
0.16
0.84
0.5700000000000001
0.55
0.98
1.05
1.05
0.39
0.31
0.49
1.2
1.19
0.23
0.88
0.9400000000000001
0.24
0.76
0.16
0.85
1.08
0.0
1.09
0.91
0.16
0.55
0.0
0.3
0.33
0.48
0.88
0.81
1.16
0.99
0.5700000000000001
0.36
1.11
0.27
0.2
1.06
0.5700000000000001
0.33
0.17
0.42
0.74
1.1300000000000001
0.8200000000000001
0.78
0.66
0.59
0.24
0.38
0.86
0.49
0.37
0.72
0.52
0.63
0.8200000000000001
0.81
0.96
0.22
0.44
0.12
0.73
0.53
0.56
0.5700000000000001
0.16
1.04
0.63
0.45
1.1500000000000001
1.2
0.35000000000000003
0.3
0.86
0.32
0.12
1.1500000000000001
0.13
0.86
0.88
0.33
0.9
0.55
0.15
0.27
1.23
0.98
1.21
0.8300000000000001
0.67
1.06
0.17
0.78
0.91
0.29
0.71
0.5700000000000001
0.64
0.75
0.28
0.6900000000000001
0.58
1.1500000000000001
1.05
0.16
0.8300000000000001
0.79
0.07
1.01
0.51
1.05
1.1500000000000001
0.08
0.97
0.63
0.53
0.74
0.47000000000000003
0.65
0.3
0.64
0.46
0.81
0.26
1.1400000000000001
0.8200000000000001
0.07
1.21
1.23
0.5700000000000001
0.5700000000000001
0.19
1.05
0.7000000000000001
1.25
0.15
1.01
0.03
0.04
0.09
1.21
0.59
0.23
0.85
0.77
0.87
0.85
0.67
0.53
0.48
0.62
0.75
0.06
0.43
0.2
0.72
0.51
0.28
0.26
0.63
0.53
0.4
0.03
0.75
1.19
1.06
0.93
0.45
1.1500000000000001
0.9500000000000001
0.8200000000000001
0.22
0.85
1.12
0.62
0.33
1.2
1.07
0.9400000000000001
0.63
0.8
0.4
0.31
0.02
0.61
1.01
0.84
0.84
1.1
0.85
0.18
0.81
1.02
0.41000000000000003
0.9500000000000001
0.01
1.1500000000000001
0.8200000000000001
0.03
0.26
1.04
0.67
1.1
0.87
1.03
0.88
0.26
0.36
0.84
1.06
0.14
0.07
0.5
0.5700000000000001
0.89
0.8
1.1300000000000001
0.22
0.97
0.6900000000000001
0.7000000000000001
0.87
0.44
1.16
0.65
0.8
0.16
1.05
0.41000000000000003
1.27
0.03
0.28
0.14
1.24
0.5700000000000001
0.64
1.18
0.21
1.07
0.19
0.81
0.24
1.07
0.68
0.0
0.6
0.86
1.2
0.44
0.8
0.42
1.03
0.24
1.23
0.81
1.04
0.23
0.8300000000000001
0.28
0.25
0.9
0.4
1.21
1.07
1.01
0.49
0.06
0.93
0.6
0.79
0.74
1.1
0.8
1.1500000000000001
0.49
0.04
0.13
1.09
0.3
0.17
1.22
0.4
0.48
1.07
0.59
0.37
0.79
0.06
0.16
0.73
0.09
0.45
0.3
0.6
0.8200000000000001
0.91
0.96
1.02
1.1300000000000001
1.0
1.0
0.6
0.11
0.14
0.89
0.0
0.4
0.17
1.1400000000000001
0.55
0.8200000000000001
0.92
0.88
0.64
0.32
0.71
1.08
0.86
0.87
0.5
0.88
0.49
1.07
0.41000000000000003
0.49
0.97
1.05
0.72
0.41000000000000003
0.9500000000000001
0.6900000000000001
0.72
1.05
1.1400000000000001
0.87
0.61
0.86
0.02
0.59
0.66
1.08
0.03
0.25
0.37
1.21
0.97
0.39
1.1
0.65
1.04
0.22
0.5700000000000001
0.53
1.05
0.65
1.27
1.11
0.96
0.52
1.03
0.1
0.46
0.9500000000000001
0.76
0.06
0.76
1.27
0.59
0.09
0.64
0.89
0.07
0.36
1.25
0.63
0.64
1.1400000000000001
0.4
0.16
0.49
0.8200000000000001
0.08
0.31
1.03
0.19
1.1
1.07
0.43
0.98
0.91
0.28
0.92
1.06
0.08
1.12
1.17
1.11
0.02
0.73
1.03
0.92
0.9500000000000001
0.2
1.1500000000000001
0.0
0.79
0.24
0.13
0.63
0.8300000000000001
1.1300000000000001
0.31
1.27
1.1
0.22
0.28
0.63
1.1400000000000001
0.46
0.0
0.37
0.49
0.88
0.31
0.08
0.38
1.1500000000000001
0.81
0.46
0.44
0.09
0.4
0.92
0.2
0.76
0.78
0.17
1.19
1.0
0.07
0.18
0.34
0.59
0.39
0.6
0.43
0.96
0.31
0.8200000000000001
0.8
1.26
1.18
0.97
1.08
0.8200000000000001
0.67
1.08
0.84
0.2
0.09
1.27
0.35000000000000003
1.12
0.24
0.13
0.81
0.71
0.25
0.12
0.06
0.46
0.52
0.44
0.16
1.16
1.23
1.03
0.99
0.16
1.05
0.19
0.56
0.04
0.36
0.16
1.05
0.44
1.05
0.43
1.07
0.38
0.74
0.81
0.97
1.1300000000000001
1.24
0.81
0.65
0.3
0.19
1.06
0.0
0.54
1.2
0.45
0.9400000000000001
0.32
0.59
0.24
0.07
0.9
0.72
1.11
0.08
0.49
0.92
1.19
0.73
0.6
0.67
1.11
0.8300000000000001
0.63
0.7000000000000001
0.19
0.98
0.48
0.34
0.85
0.58
0.99
1.22
1.18
0.73
1.2
0.8300000000000001
0.72
0.47000000000000003
0.96
0.64
0.2
0.61
0.45
0.72
0.76
0.64
0.25
0.53
0.03
0.4
0.48
0.9500000000000001
0.36
0.64
0.55
0.8
0.68
0.61
1.02
0.08
1.22
0.8
1.27
0.49
0.51
0.55
0.5
1.2
0.46
1.1
0.28
0.9
0.81
0.79
1.21
0.76
0.5700000000000001
0.5700000000000001
0.37
1.04
0.59
0.18
0.87
0.99
0.23
0.6
0.9500000000000001
0.68
1.11
0.63
1.11
0.39
0.91
0.28
0.87
0.67
0.12
1.18
1.09
1.2
1.06
1.03
0.8300000000000001
0.25
0.43
0.5
1.23
0.7000000000000001
0.0
0.85
1.02
1.11
0.65
0.08
0.81
0.24
1.1500000000000001
0.76
1.1400000000000001
0.92
0.78
0.44
0.64
1.06
0.03
0.28
1.05
0.41000000000000003
1.12
0.41000000000000003
0.55
0.16
1.23
0.81
0.13
1.04
0.18
0.15
0.43
1.09
1.21
0.2
0.17
0.87
0.81
0.74
1.03
0.56
0.19
0.78
0.81
0.38
0.49
0.3
1.11
0.51
1.21
0.47000000000000003
0.31
0.45
0.23
0.53
0.08
0.3
0.64
1.01
0.86
0.55
0.88
1.26
0.8300000000000001
0.8200000000000001
1.1500000000000001
0.12
0.72
0.99
0.62
0.27
0.52
0.42
0.87
0.77
0.93
0.88
1.22
1.18
0.89
1.23
0.77
0.28
0.22
0.08
0.1
1.09
0.47000000000000003
0.07
0.6900000000000001
0.29
0.79
0.17
0.97
1.04
0.33
0.42
0.24
0.8200000000000001
1.02
0.86
1.1400000000000001
1.03
0.3
0.34
1.09
0.6900000000000001
0.87
0.46
0.65
0.51
0.65
0.73
0.28
1.17
1.12
0.56
0.23
0.74
0.37
1.27
0.41000000000000003
0.32
0.56
0.99
1.25
0.6
0.65
1.1400000000000001
0.78
0.89
1.11
0.98
0.14
0.54
0.3
0.36
1.2
0.09
0.31
0.42
0.54
0.0
1.08
1.21
0.41000000000000003
0.19
1.11
0.92
0.11
0.16
0.63
1.06
0.53
0.84
0.14
0.97
0.19
0.32
1.03
0.27
0.3
0.92
0.24
0.85
0.78
0.2
0.19
0.85
0.31
0.84
1.08
0.06
0.1
1.1
0.08
0.59
0.44
0.91
1.18
0.85
0.8300000000000001
0.34
0.31
0.31
1.11
0.35000000000000003
1.08
0.36
0.79
0.22
0.6
0.8300000000000001
1.21
0.86
0.55
0.87
0.53
1.21
0.65
0.99
0.12
1.1300000000000001
0.64
0.65
0.46
0.9500000000000001
0.37
0.97
0.48
0.01
0.78
1.07
0.48
1.1
0.66
0.28
0.9400000000000001
1.04
1.05
1.01
0.3
0.14
1.2
1.24
1.02
0.16
0.46
0.73
0.66
0.59
0.9
1.26
0.21
0.47000000000000003
1.0
0.12
0.15
0.55
1.1300000000000001
0.2
0.34
0.78
0.73
0.9
0.0
0.92
0.2
0.14
1.21
0.73
0.97
1.05
1.11
0.44
1.07
0.09
1.16
0.5700000000000001
0.0
1.23
0.35000000000000003
0.55
0.08
0.72
1.06
0.43
0.79
1.24
0.21
1.03
1.05
0.35000000000000003
0.37
1.27
0.38
0.92
0.51
1.06
0.97
0.77
0.08
0.53
0.46
0.3
0.8300000000000001
1.08
0.07
0.8200000000000001
0.03
0.99
1.1500000000000001
0.01
0.9500000000000001
1.19
0.64
0.26
0.2
0.51
0.24
0.65
1.23
0.8200000000000001
0.81
0.72
0.98
0.8300000000000001
1.23
0.89
0.5700000000000001
0.22
0.93
0.53
0.5700000000000001
0.28
1.27
0.43
0.09
0.0
0.77
1.24
0.42
0.8300000000000001
0.45
0.15
0.97
0.07
0.6
0.1
0.3
0.66
1.1500000000000001
0.66
0.86
0.51
0.16
0.08
1.06
0.48
1.1300000000000001
0.39
1.23
0.22
0.3
0.9400000000000001
0.63
0.68
0.56
0.97
0.31
0.8300000000000001
0.97
0.21
0.49
0.04
1.12
0.74
0.28
0.05
0.08
0.97
0.9
0.23
1.21
0.64
0.67
0.9500000000000001
0.18
0.2
0.14
1.09
0.76
0.24
0.91
0.42
0.53
0.1
0.66
0.16
0.64
1.09
0.2
0.59
0.12
0.38
0.07
0.43
0.49
0.49
0.1
0.02
1.0
0.42
0.99
0.5
0.3
0.38
0.64
0.0
1.1300000000000001
0.0
0.35000000000000003
0.17
0.27
0.79
0.38
0.59
0.46
0.33
0.25
0.73
1.1
0.75
1.09
0.65
0.47000000000000003
0.36
0.5700000000000001
0.2
0.5700000000000001
0.9400000000000001
1.19
1.1300000000000001
1.01
0.68
0.63
0.92
1.12
0.03
1.1300000000000001
0.0
0.89
0.85
0.49
1.1500000000000001
1.19
0.3
1.09
0.54
0.88
0.93
0.32
0.97
0.45
1.23
0.65
0.39
0.86
1.1
0.92
0.6900000000000001
1.1500000000000001
1.21
1.23
0.06
0.24
0.44
0.8300000000000001
0.0
0.51
0.51
0.61
0.41000000000000003
0.6
0.25
0.7000000000000001
1.21
0.45
0.79
0.78
1.1500000000000001
0.43
0.03
1.26
1.12
0.28
0.68
0.14
1.19
0.9400000000000001
0.02
1.08
0.52
0.92
0.08
1.21
1.18
0.91
1.2
0.52
0.59
0.02
0.72
0.6900000000000001
1.09
1.23
0.84
0.44
0.42
0.72
0.93
0.68
1.1300000000000001
0.6900000000000001
0.96
0.61
0.06
0.36
0.56
0.84
0.04
0.89
0.99
0.5700000000000001
0.88
0.92
0.84
1.18
0.22
0.81
0.73
1.1400000000000001
0.74
0.9
0.27
1.22
0.06
0.55
0.33
0.16
0.99
0.93
0.99
0.28
0.49
1.24
0.68
0.4
0.8200000000000001
0.74
1.1300000000000001
0.27
0.93
0.12
0.85
1.19
1.25
1.27
0.19
0.11
0.28
0.5700000000000001
1.17
1.1400000000000001
0.06
0.7000000000000001
0.88
0.46
1.1500000000000001
0.33
0.13
1.2
0.05
0.65
1.05
1.19
0.03
1.12
0.53
0.17
0.0
0.02
0.54
0.14
0.6900000000000001
0.0
0.23
1.25
0.49
0.5
0.27
0.98
0.14
0.99
0.8
0.92
0.74
0.45
1.1500000000000001
0.07
0.22
0.84
1.24
0.76
1.1400000000000001
0.28
0.62
0.05
1.23
0.0
1.1400000000000001
1.22
0.21
0.96
0.21
1.12
0.67
1.18
0.47000000000000003
0.8
0.18
1.19
0.35000000000000003
0.56
1.01
0.4
0.97
1.0
0.62
0.59
0.96
0.17
0.92
0.8300000000000001
0.31
0.75
0.48
0.6900000000000001
1.22
0.45
1.17
0.54
1.23
0.51
0.28
0.53
0.92
0.21
0.35000000000000003
0.27
0.86
0.77
1.07
0.27
0.5
1.07
1.1400000000000001
0.6
0.2
1.1300000000000001
0.49
0.43
0.21
0.19
0.11
0.9
1.0
0.64
0.9400000000000001
0.19
0.84
0.74
0.85
0.24
0.06
0.36
1.27
0.76
0.77
1.22
0.17
0.24
0.84
0.61
0.42
0.23
1.1400000000000001
0.77
1.19
1.0
0.91
0.05
0.51
0.49
0.24
0.33
0.59
0.39
0.98
1.1
0.75
0.98
0.46
0.04
0.05
0.36
0.65
1.23
1.24
0.21
1.09
0.16
0.22
1.12
0.74
1.19
0.68
0.5700000000000001
1.07
0.8200000000000001
0.35000000000000003
0.9500000000000001
0.29
0.2
0.86
1.05
0.73
1.0
0.35000000000000003
0.8
0.67
0.44
0.55
0.9400000000000001
0.66
0.6900000000000001
0.7000000000000001
0.38
0.26
0.9500000000000001
0.9500000000000001
0.36
0.11
1.25
0.65
0.42
0.91
0.26
0.86
1.08
0.65
0.88
0.99
0.15
0.16
0.9
1.23
0.53
0.45
1.05
0.19
0.36
0.55
0.4
0.71
1.23
0.23
0.49
1.1300000000000001
0.43
1.11
0.78
0.71
0.49
1.06
0.63
0.53
1.1400000000000001
0.76
0.72
0.88
1.04
1.02
0.37
0.68
0.24
0.84
0.05
1.21
1.27
0.08
1.1500000000000001
0.17
1.26
0.85
0.8200000000000001
0.5700000000000001
0.35000000000000003
0.49
0.18
1.03
0.13
0.5700000000000001
0.86
0.09
0.4
0.21
0.8200000000000001
1.12
0.28
0.81
1.05
0.55
0.8300000000000001
0.45
0.63
0.93
0.55
0.0
0.55
1.04
0.99
0.7000000000000001
0.61
0.11
0.11
1.04
0.23
0.7000000000000001
1.12
1.21
0.09
0.67
0.86
0.31
0.12
1.17
0.12
0.73
0.4
0.26
0.71
0.49
1.07
0.18
0.88
0.92
0.78
0.81
0.01
1.06
0.14
0.34
0.67
1.2
0.06
0.41000000000000003
1.27
1.09
0.91
1.26
1.09
0.06
0.53
1.1500000000000001
0.0
0.35000000000000003
0.9400000000000001
0.01
0.28
0.72
0.39
0.43
0.85
0.85
0.27
1.16
1.03
0.84
0.49
1.1300000000000001
1.18
0.47000000000000003
1.06
0.18
0.67
0.87
0.41000000000000003
0.89
0.18
0.22
1.27
1.19
0.18
0.22
0.91
0.4
1.0
0.9500000000000001
1.19
0.45
1.23
0.99
1.08
0.7000000000000001
1.11
0.65
0.76
1.05
0.14
0.96
0.88
0.65
1.03
0.38
0.9
1.25
0.47000000000000003
1.02
0.36
0.13
0.73
0.75
0.07
0.78
0.75
1.18
1.12
0.96
1.0
0.62
0.78
0.0
0.56
0.32
0.08
0.02
0.71
1.27
0.37
0.51
1.2
0.02
1.0
0.61
0.32
0.12
0.02
0.24
1.1400000000000001
1.04
1.25
0.92
0.8200000000000001
1.09
0.5700000000000001
0.46
1.19
1.09
0.77
0.05
0.07
0.07
0.08
0.68
0.45
1.1400000000000001
0.67
1.2
0.45
0.55
0.25
0.36
1.1500000000000001
0.67
0.63
0.9500000000000001
1.04
0.66
0.8300000000000001
0.75
0.97
0.1
0.96
0.27
0.49
0.93
0.34
0.5
0.39
0.88
0.39
0.36
0.67
0.78
1.19
0.41000000000000003
0.17
0.73
0.08
0.26
1.06
0.32
0.55
0.25
1.19
1.12
0.86
0.9500000000000001
0.63
0.72
0.35000000000000003
0.63
0.22
1.12
0.0
0.47000000000000003
0.8300000000000001
0.26
1.04
0.9500000000000001
0.68
0.9500000000000001
0.98
0.6
0.79
0.44
0.49
0.58
0.67
0.76
1.1300000000000001
1.04
0.85
0.39
1.04
0.34
0.48
0.02
0.65
0.87
0.97
0.34
0.0
0.47000000000000003
0.98
0.19
0.9
0.64
0.66
0.45
0.89
0.14
1.21
0.11
1.19
0.5700000000000001
0.25
0.64
0.52
0.99
0.49
0.97
0.01
0.66
0.92
0.32
0.72
0.07
0.86
0.8200000000000001
0.44
0.06
0.51
0.97
0.32
1.1500000000000001
1.21
1.26
0.14
0.93
0.8200000000000001
1.04
1.12
1.08
0.19
1.12
0.14
1.23
0.41000000000000003
0.72
1.24
0.72
0.99
0.45
1.18
0.59
0.05
0.55
0.23
0.33
0.66
0.73
0.11
0.7000000000000001
0.4
0.22
1.26
1.12
1.24
0.9500000000000001
0.2
0.01
0.79
1.1300000000000001
0.39
0.8300000000000001
0.63
0.62
1.05
0.59
0.1
0.16
0.35000000000000003
0.12
0.56
0.33
0.79
0.22
0.11
0.79
0.93
1.04
0.2
0.56
0.09
0.86
0.89
0.18
0.47000000000000003
1.25
0.84
0.63
0.68
0.5700000000000001
0.76
0.46
0.97
0.73
0.35000000000000003
0.87
0.72
0.53
0.99
0.12
1.23
0.04
0.6
1.19
0.25
0.52
0.8200000000000001
0.79
0.37
0.92
0.66
0.25
0.39
0.06
0.59
1.27
0.8300000000000001
0.45
1.17
0.03
0.19
1.21
0.91
0.72
0.41000000000000003
1.02
0.48
0.71
0.06
0.0
0.21
0.37
0.12
0.86
0.81
1.02
0.17
0.27
1.1300000000000001
0.52
0.33
0.67
0.51
0.44
1.12
0.46
0.99
0.8200000000000001
0.24
1.1300000000000001
1.09
0.79
0.16
0.84
0.44
0.89
0.08
0.09
0.86
0.68
0.81
0.87
0.64
0.54
0.71
0.42
0.12
0.17
0.2
0.24
0.02
0.85
0.4
1.1
0.63
0.33
1.01
1.06
0.51
0.93
1.2
0.4
0.65
0.19
0.14
0.85
0.1
0.55
0.13
0.47000000000000003
0.16
1.27
0.99
0.81
0.07
0.01
0.46
0.6
1.19
1.1400000000000001
0.04
0.16
0.29
0.73
0.03
0.8300000000000001
0.3
1.1500000000000001
0.06
0.97
0.98
0.54
1.18
0.43
0.25
0.31
0.22
0.19
0.24
0.35000000000000003
0.38
1.27
1.22
0.76
0.28
0.66
1.18
0.7000000000000001
0.99
0.49
0.72
0.9400000000000001
0.01
0.91
0.8300000000000001
0.9500000000000001
0.06
0.71
0.48
0.49
0.72
1.23
1.01
0.21
0.53
0.05
0.31
0.55
0.63
0.7000000000000001
1.23
0.37
0.87
0.34
0.85
0.8
1.11
0.2
0.19
0.6900000000000001
0.2
0.71
0.75
0.15
0.34
0.17
1.04
0.55
1.24
1.1400000000000001
0.81
0.11
0.28
0.99
1.17
0.73
0.65
0.49
1.26
0.86
0.33
0.2
0.52
0.48
0.76
0.0
0.56
1.01
0.74
0.54
0.64
1.24
0.27
0.42
0.17
0.66
0.93
0.32
0.21
0.89
0.45
0.68
1.2
0.04
0.85
0.11
0.63
0.87
0.8
0.8
0.31
0.35000000000000003
0.08
0.62
0.33
1.25
0.62
1.07
0.61
0.84
0.55
0.25
1.21
1.1300000000000001
0.39
1.17
0.81
1.1400000000000001
0.8200000000000001
0.12
0.41000000000000003
0.27
1.21
0.04
0.51
0.03
0.68
0.41000000000000003
0.76
0.97
0.12
0.23
0.59
0.64
0.16
0.19
1.05
0.42
0.23
0.18
0.52
1.23
0.59
0.9500000000000001
0.53
0.75
0.32
0.44
0.64
0.75
0.74
1.18
0.24
0.16
0.11
0.26
0.39
1.17
0.47000000000000003
0.87
0.72
0.05
1.19
1.02
1.18
0.61
0.87
0.02
0.7000000000000001
0.43
0.16
0.49
0.41000000000000003
1.07
0.91
0.28
0.07
0.05
0.43
0.47000000000000003
0.22
0.8300000000000001
0.0
0.51
1.23
1.23
0.85
0.05
0.8200000000000001
0.18
0.44
0.01
0.72
0.88
1.25
0.11
1.02
0.04
0.3
1.2
0.28
0.02
0.92
1.0
0.34
1.06
0.97
0.17
1.07
0.28
1.1
0.48
0.93
0.47000000000000003
0.81
0.8
0.85
0.44
0.09
0.61
0.34
1.23
1.0
0.18
1.05
0.85
1.16
1.03
0.79
0.3
0.8200000000000001
1.02
0.53
0.49
0.52
1.04
0.79
0.33
0.86
1.1300000000000001
0.11
0.47000000000000003
0.64
0.9500000000000001
0.4
0.16
0.35000000000000003
0.28
0.61
0.9400000000000001
1.17
0.09
1.12
1.1500000000000001
0.39
0.42
0.8
0.76
0.09
1.17
1.17
0.29
0.77
1.17
0.49
1.2
0.65
1.05
1.08
0.32
0.67
0.18
0.0
0.96
0.68
0.67
0.51
0.35000000000000003
1.11
0.8300000000000001
0.0
0.07
0.03
0.51
0.67
0.04
0.48
0.53
1.02
0.73
0.39
1.1300000000000001
1.05
0.8300000000000001
0.5700000000000001
1.07
0.06
0.5
0.6900000000000001
0.5
0.63
1.21
0.08
0.28
0.18
1.01
0.38
1.17
1.26
0.53
0.64
0.24
0.23
0.36
0.68
0.72
1.1500000000000001
0.63
0.54
0.48
0.49
0.13
0.41000000000000003
1.03
0.71
0.09
0.13
0.47000000000000003
0.08
1.26
0.76
0.51
0.44
0.64
0.81
1.16
1.11
0.99
0.61
0.2
0.02
1.19
1.18
0.0
0.36
1.24
0.66
1.1500000000000001
1.07
1.24
0.01
0.6900000000000001
0.73
0.03
0.11
1.1300000000000001
0.92
0.8
0.24
0.43
1.04
1.12
0.19
1.06
0.03
0.68
0.48
0.56
1.21
0.26
1.1500000000000001
1.11
1.04
0.79
0.1
1.05
1.03
1.07
1.06
1.1
0.75
0.76
0.01
0.8300000000000001
1.07
0.62
0.85
1.06
0.03
1.27
0.54
0.64
0.52
0.1
0.65
0.99
0.75
0.42
0.8
0.96
0.25
1.26
0.0
0.45
0.33
1.0
0.16
0.8
0.75
0.58
0.11
0.12
0.37
1.2
0.49
0.8300000000000001
0.12
0.56
0.14
0.18
0.77
0.5700000000000001
0.96
1.12
1.04
0.62
0.31
1.22
0.15
0.35000000000000003
0.07
0.67
0.91
0.23
0.98
0.51
0.23
0.16
0.96
0.99
0.68
0.27
0.21
1.23
0.31
0.12
1.0
0.47000000000000003
0.16
0.84
0.34
0.09
0.5700000000000001
0.9
0.51
0.03
0.17
0.9
0.9
0.96
0.56
1.19
1.23
0.78
1.17
0.09
0.41000000000000003
0.19
0.04
0.64
0.26
0.44
0.56
0.72
0.52
0.37
0.26
0.16
1.25
0.46
0.99
0.05
0.86
0.32
0.68
1.18
0.9
0.99
0.24
0.54
1.01
0.81
0.22
0.5
0.56
1.02
0.15
0.7000000000000001
0.63
0.22
1.06
1.09
0.24
0.49
0.68
1.27
0.55
0.66
0.91
0.45
0.5700000000000001
0.23
0.28
0.2
0.61
0.76
0.59
0.71
0.9
0.66
0.05
0.43
0.76
0.68
0.7000000000000001
0.66
0.12
0.63
0.04
0.4
0.17
0.09
0.47000000000000003
0.53
0.9400000000000001
0.99
1.26
0.97
0.71
0.32
0.56
0.27
0.99
0.8300000000000001
1.11
1.2
0.28
1.11
0.49
0.91
0.0
0.0
0.13
1.17
1.03
0.47000000000000003
0.85
0.67
0.48
0.77
0.24
1.05
0.8200000000000001
0.45
0.21
0.2
0.9500000000000001
0.4
0.81
0.31
1.07
1.03
0.77
1.21
0.1
1.24
0.48
0.87
0.66
0.31
0.24
0.54
0.19
0.59
0.87
1.26
0.8200000000000001
1.05
1.21
0.27
0.81
0.03
0.13
1.1400000000000001
0.25
0.61
0.08
1.17
0.5700000000000001
0.89
0.24
0.53
0.75
0.78
0.38
1.18
1.06
0.08
1.0
0.55
0.15
1.21
0.0
0.09
0.9
0.0
1.18
0.8300000000000001
0.03
0.93
0.93
0.99
0.32
0.6
0.24
1.25
0.48
0.99
1.05
1.03
0.07
0.47000000000000003
1.27
0.27
0.16
0.25
0.32
0.91
1.05
0.66
0.9400000000000001
0.09
0.52
1.04
0.15
0.47000000000000003
0.65
0.5700000000000001
0.81
0.22
0.9500000000000001
0.21
1.03
0.2
0.11
0.06
0.9
0.01
1.04
0.26
0.35000000000000003
0.25
0.74
1.11
1.1
0.43
0.49
1.03
1.05
0.12
0.7000000000000001
0.41000000000000003
0.53
0.21
0.11
1.25
0.14
0.12
0.43
0.9400000000000001
1.21
1.25
0.11
0.6
0.8300000000000001
0.29
0.36
0.8200000000000001
0.36
1.19
0.51
0.41000000000000003
0.45
0.5700000000000001
0.97
0.56
1.1
1.01
0.37
0.49
0.13
0.8200000000000001
0.41000000000000003
0.5700000000000001
0.58
0.88
0.8200000000000001
0.22
0.91
1.23
0.98
0.44
0.24
0.68
0.5
0.12
0.32
0.14
0.49
0.59
0.71
0.17
0.72
0.52
0.78
1.23
0.97
0.89
0.1
0.1
0.64
0.55
0.24
0.5700000000000001
1.1300000000000001
0.41000000000000003
0.48
1.1
0.2
0.08
0.0
1.2
1.21
0.96
0.18
0.8200000000000001
1.06
0.92
0.54
0.9
0.81
0.8300000000000001
0.99
1.1
0.87
0.06
0.99
0.76
0.28
1.22
0.04
0.87
0.9400000000000001
0.7000000000000001
0.9400000000000001
0.02
0.8300000000000001
0.36
1.1300000000000001
0.73
0.88
0.06
0.87
0.99
0.6
0.49
0.78
0.9400000000000001
1.0
0.93
0.19
1.25
0.39
0.86
1.27
0.25
0.8
1.25
0.73
0.22
0.92
0.45
0.49
0.24
1.03
0.48
0.11
0.59
1.1300000000000001
0.5700000000000001
0.87
0.11
0.75
1.01
1.07
0.5
1.26
0.71
0.8200000000000001
0.11
0.6
0.34
0.96
0.37
1.23
0.3
0.59
0.08
0.07
0.8
0.7000000000000001
0.32
0.32
0.04
0.07
1.12
1.1400000000000001
1.06
0.7000000000000001
0.47000000000000003
0.5700000000000001
0.96
0.0
0.41000000000000003
0.72
1.1400000000000001
1.0
0.51
0.33
0.9400000000000001
0.73
0.49
1.22
1.0
0.04
0.26
1.22
0.07
0.12
1.09
0.26
0.73
0.15
1.25
0.34
0.31
0.36
0.28
1.08
0.91
1.22
0.35000000000000003
0.33
0.21
0.05
1.21
0.16
0.4
0.96
0.62
0.93
0.21
0.11
0.62
0.31
0.59
0.31
0.02
0.62
0.38
0.89
0.84
0.23
0.88
0.18
0.46
0.34
0.26
0.89
0.39
1.01
0.8
0.18
1.1
1.01
0.8200000000000001
0.98
0.91
0.8
1.07
0.75
0.77
1.04
0.74
0.68
0.11
1.08
0.45
0.05
0.98
0.18
1.26
0.19
1.19
0.32
1.03
1.04
0.6900000000000001
0.56
0.5
0.99
0.76
0.39
0.09
0.78
1.26
0.91
0.93
0.68
0.4
0.46
0.0
0.54
0.64
0.32
0.4
0.92
0.76
0.52
0.24
1.12
0.2
0.6
0.85
1.05
0.67
1.24
0.17
0.81
0.36
0.09
0.92
0.42
1.26
0.5
0.79
0.09
0.07
1.02
0.85
1.21
0.47000000000000003
0.5
0.9
0.74
0.76
0.63
0.42
0.36
1.08
0.96
0.5
0.4
1.04
1.1400000000000001
1.27
0.18
0.19
0.6
0.06
0.17
0.9
1.24
1.1500000000000001
1.1400000000000001
0.36
0.05
0.31
1.04
0.13
0.15
0.07
0.72
1.01
1.08
0.89
0.34
1.0
0.64
1.1400000000000001
1.24
0.64
1.04
0.33
0.28
0.5
0.45
1.1500000000000001
0.8200000000000001
0.86
0.99
1.22
0.71
1.19
0.37
0.75
1.25
1.01
0.6
0.65
1.0
0.06
0.5700000000000001
0.0
0.67
0.25
0.59
1.1500000000000001
0.14
0.16
0.5
1.18
0.87
0.88
1.0
0.35000000000000003
0.72
0.71
0.51
0.11
0.58
1.09
0.08
1.26
0.97
0.63
1.09
0.15
1.1500000000000001
0.04
1.1400000000000001
0.78
0.51
1.23
0.92
1.27
0.1
0.89
0.04
1.26
0.23
1.23
0.41000000000000003
1.24
0.84
0.73
0.11
0.85
0.52
0.61
0.45
0.08
0.38
0.13
0.3
0.32
0.19
0.86
0.19
0.5700000000000001
0.74
1.05
1.27
1.24
0.33
0.14
0.76
0.73
0.72
0.47000000000000003
0.21
0.55
0.12
1.01
1.0
0.11
0.14
0.76
0.6
0.19
0.36
0.24
0.92
0.19
1.09
0.2
0.3
0.39
0.99
0.37
0.27
0.86
0.18
0.2
0.42
0.0
0.48
0.9500000000000001
0.75
0.9500000000000001
0.07
1.01
0.12
0.98
1.17
0.37
0.27
0.23
1.01
0.34
0.6900000000000001
1.05
0.53
0.91
0.49
1.25
0.2
1.12
0.61
0.58
0.71
1.05
1.1500000000000001
1.06
0.0
0.8300000000000001
0.59
0.11
1.18
0.6
0.4
0.9
0.2
0.46
0.99
0.98
1.05
0.49
0.33
0.09
0.35000000000000003
0.8300000000000001
0.35000000000000003
0.5700000000000001
0.38
1.03
0.59
0.11
0.8300000000000001
0.9
0.45
1.16
0.98
1.1500000000000001
0.76
0.17
0.76
0.16
0.72
1.11
0.08
0.27
0.66
0.8200000000000001
0.99
0.6
1.01
0.22
0.62
0.11
0.18
0.09
1.07
0.01
0.8300000000000001
1.1500000000000001
0.09
0.68
0.84
0.47000000000000003
0.02
0.64
0.06
0.63
1.12
0.25
0.04
0.8
0.29
1.16
0.87
0.8200000000000001
0.17
0.01
0.07
0.8300000000000001
0.22
0.09
0.39
0.26
0.31
0.23
1.07
0.18
1.1
0.75
0.18
0.13
0.09
1.24
0.35000000000000003
0.81
0.47000000000000003
0.36
0.02
1.05
0.34
0.06
0.09
0.74
0.73
0.36
0.75
0.38
0.52
0.67
0.45
0.5700000000000001
0.44
0.15
0.65
1.24
0.59
0.6
0.44
1.1300000000000001
0.1
0.9
0.13
0.22
0.0
1.05
0.9400000000000001
0.41000000000000003
0.01
0.48
0.38
0.2
0.32
0.93
0.35000000000000003
0.54
0.14
0.74
1.25
0.19
0.67
0.9500000000000001
0.14
0.76
0.73
1.26
0.42
1.19
0.17
1.21
0.2
0.33
0.97
1.1500000000000001
0.54
1.07
0.33
0.37
0.77
0.39
1.0
1.18
0.55
1.1500000000000001
0.26
1.08
0.79
0.38
0.74
0.77
0.01
0.05
0.78
0.68
1.25
0.34
0.85
0.76
0.22
0.19
0.53
0.79
0.26
0.89
1.22
0.29
0.9
0.42
1.1500000000000001
0.33
1.1500000000000001
1.01
0.88
0.96
1.1500000000000001
1.03
1.18
0.2
1.02
1.1500000000000001
0.81
1.22
0.0
1.17
0.59
0.9400000000000001
0.87
0.15
0.64
0.56
1.11
0.35000000000000003
0.8
0.64
0.01
0.76
0.46
0.67
0.92
0.55
0.5
1.07
0.98
0.92
1.1400000000000001
0.13
0.77
1.1300000000000001
1.12
0.92
1.19
0.32
0.08
0.99
1.1300000000000001
0.45
0.12
0.41000000000000003
0.59
0.61
0.9400000000000001
0.8300000000000001
1.1300000000000001
0.58
0.55
0.56
0.8
0.14
0.26
1.19
0.25
0.63
1.1400000000000001
0.05
0.2
1.27
0.61
0.44
0.76
1.24
0.8200000000000001
0.71
1.1300000000000001
0.99
0.09
0.87
0.37
0.96
0.26
0.75
1.02
0.28
1.19
0.86
1.23
0.8300000000000001
0.27
0.58
0.89
1.03
0.24
0.56
0.53
0.76
0.17
0.48
0.59
0.14
0.8
0.63
0.46
0.23
0.38
0.15
0.55
1.02
0.73
0.21
1.06
0.28
0.92
0.43
0.72
0.74
0.6
0.61
0.8200000000000001
0.36
1.09
1.12
0.02
0.71
0.87
0.05
1.1400000000000001
0.65
0.4
0.12
1.1400000000000001
0.99
1.18
0.9400000000000001
0.2
1.2
1.21
0.48
0.27
0.14
1.05
0.71
1.1500000000000001
0.81
0.63
0.37
1.17
0.51
1.25
0.8300000000000001
0.96
0.27
1.03
1.22
0.8300000000000001
1.19
1.19
0.53
0.54
0.5700000000000001
0.47000000000000003
0.49
0.73
0.97
0.71
0.75
1.07
0.09
0.81
0.6
0.25
1.18
0.45
0.84
0.67
0.56
0.23
0.34
0.59
0.74
1.1
1.17
1.11
0.26
0.2
0.48
0.0
0.7000000000000001
0.49
0.49
0.58
0.16
1.1300000000000001
1.09
0.46
0.07
0.17
0.04
0.04
0.8
0.44
0.06
1.21
0.65
1.2
0.75
1.21
1.23
0.55
1.06
0.28
0.5
0.31
1.1
0.0
1.03
1.17
0.31
0.24
0.47000000000000003
0.32
1.06
0.2
0.5
0.68
0.15
1.1400000000000001
1.01
0.07
0.8300000000000001
0.14
0.72
0.51
0.81
1.12
0.11
0.2
1.24
0.28
1.19
0.54
1.07
0.66
0.2
0.8300000000000001
0.3
1.09
1.1
1.1500000000000001
0.04
0.59
0.38
0.02
0.54
0.27
0.89
0.89
0.4
0.1
0.38
0.75
0.24
0.18
0.96
0.37
0.05
0.49
0.33
0.01
0.23
0.06
0.3
0.96
0.49
0.8300000000000001
1.27
0.93
0.18
0.11
0.97
0.31
0.44
0.97
0.9500000000000001
0.5700000000000001
1.11
1.0
0.07
1.01
0.85
0.53
0.7000000000000001
0.23
0.93
0.11
0.6
0.45
0.18
1.19
0.44
0.02
1.06
1.05
0.79
0.26
0.45
0.78
1.22
0.37
1.02
0.85
0.12
0.79
0.79
0.85
0.93
0.85
0.84
0.53
0.63
0.08
0.08
0.35000000000000003
0.87
0.25
0.44
0.56
0.33
0.47000000000000003
0.11
0.16
0.15
0.06
0.77
1.21
0.19
1.19
0.91
1.07
0.8200000000000001
1.08
0.33
0.65
0.63
0.9
0.39
0.73
0.43
0.48
0.49
1.21
0.35000000000000003
0.89
0.25
1.1500000000000001
1.23
0.77
1.11
0.46
0.62
1.27
0.45
1.25
0.56
0.77
0.91
0.34
0.91
0.65
0.18
0.51
0.08
1.21
1.23
1.17
0.4
0.09
0.2
0.41000000000000003
0.91
0.14
0.9500000000000001
0.76
0.7000000000000001
0.19
0.33
0.71
0.9400000000000001
0.64
0.52
0.28
0.21
0.18
1.01
0.39
1.07
0.6900000000000001
0.86
1.09
0.73
0.66
0.9500000000000001
0.21
0.8
0.02
0.8200000000000001
1.04
0.86
1.05
1.0
0.29
1.17
0.73
1.26
1.25
0.13
0.27
0.5700000000000001
0.51
0.14
0.81
0.01
0.02
0.14
0.61
0.4
0.8300000000000001
0.05
0.65
0.51
0.99
0.07
0.24
0.4
0.6
0.41000000000000003
0.35000000000000003
0.2
0.25
0.14
0.87
0.45
0.15
0.26
0.41000000000000003
0.35000000000000003
1.23
0.61
1.06
0.46
0.29
0.31
0.93
0.8200000000000001
0.59
0.33
0.11
0.77
1.1500000000000001
1.0
0.71
0.15
0.41000000000000003
0.22
0.63
0.88
0.25
0.38
1.2
0.44
0.19
0.02
0.8300000000000001
0.46
1.06
0.63
0.98
1.04
0.87
0.07
1.25
0.43
0.0
0.88
0.78
0.81
0.73
1.25
0.8200000000000001
0.09
0.71
1.1400000000000001
0.73
0.48
1.02
0.21
1.12
0.09
0.71
0.97
0.04
0.48
1.24
0.39
1.1
0.93
0.99
0.5700000000000001
1.23
0.73
0.4
0.75
0.88
0.38
0.45
0.9
0.9500000000000001
0.53
0.71
1.03
1.03
1.1500000000000001
1.1400000000000001
0.43
1.1300000000000001
0.23
0.14
1.25
0.76
0.32
0.16
0.68
0.33
0.76
1.05
0.64
0.19
0.77
0.56
1.09
0.23
1.23
0.86
0.77
0.59
0.75
0.88
0.36
0.3
0.77
1.27
0.48
0.91
0.55
0.88
1.03
0.81
0.84
0.15
0.09
0.15
0.75
1.11
1.05
0.24
1.12
1.21
0.49
0.41000000000000003
1.1
0.17
0.54
1.1
0.66
0.92
0.81
0.8
0.96
1.01
0.67
0.28
0.51
0.04
1.1400000000000001
1.1
0.48
0.92
0.0
0.98
0.71
0.07
0.99
1.1400000000000001
0.15
0.08
0.68
1.2
0.42
1.03
0.98
0.13
0.97
0.98
1.03
1.0
0.15
0.37
0.84
1.02
0.24
1.06
0.92
0.8
0.28
0.36
0.89
0.51
0.3
0.4
0.49
1.1300000000000001
0.92
0.33
0.22
0.28
1.27
1.04
0.93
0.7000000000000001
0.27
1.23
0.1
0.79
0.71
0.61
0.02
0.49
0.47000000000000003
0.28
0.88
1.18
1.25
1.19
0.8
0.76
0.04
0.47000000000000003
0.63
0.25
0.77
0.86
0.48
0.4
0.07
0.32
0.5
1.23
0.16
0.66
0.97
0.87
0.08
0.5700000000000001
1.02
0.39
1.05
0.15
0.52
0.18
0.61
0.29
0.65
0.85
0.27
0.5700000000000001
1.01
0.97
1.2
0.46
0.18
0.9
0.85
0.48
0.07
0.32
0.2
0.39
0.72
0.09
0.9
0.62
1.1500000000000001
0.02
0.48
0.72
1.04
0.56
0.33
0.54
1.21
0.79
0.21
1.24
1.1
0.6900000000000001
0.74
1.11
1.02
1.02
0.9500000000000001
1.23
1.19
1.27
1.23
0.5700000000000001
0.17
1.2
0.12
0.01
0.88
0.88
0.81
0.51
1.0
1.26
0.76
0.5700000000000001
0.5
0.98
0.99
0.87
0.35000000000000003
0.03
0.25
1.23
0.23
0.92
0.28
0.16
0.01
1.09
0.26
0.15
0.98
0.1
0.7000000000000001
1.19
0.23
0.85
0.61
0.92
0.52
1.22
0.05
0.28
1.1400000000000001
0.92
0.92
0.35000000000000003
1.1500000000000001
1.1
0.33
0.28
0.49
0.13
0.54
0.85
0.67
0.55
0.98
0.9500000000000001
1.1
1.24
0.51
1.04
0.98
0.11
0.87
0.35000000000000003
0.48
0.81
0.61
0.12
0.74
0.49
1.01
0.16
0.56
0.41000000000000003
0.96
1.22
1.06
0.07
1.21
0.7000000000000001
0.39
1.23
1.11
0.19
0.97
0.8300000000000001
0.22
0.51
0.56
0.18
0.52
0.09
0.3
0.56
0.35000000000000003
0.23
1.12
0.8200000000000001
0.55
0.91
0.46
1.21
1.01
0.01
1.09
0.38
0.12
0.25
0.6
0.47000000000000003
1.03
0.47000000000000003
0.37
1.23
0.63
0.59
0.22
0.27
0.77
0.39
0.61
0.9
1.02
0.9500000000000001
0.6
0.34
0.9400000000000001
0.22
0.35000000000000003
0.6
0.27
0.59
0.77
1.19
0.19
0.98
0.13
1.25
0.01
1.17
0.31
0.28
0.72
0.85
0.28
0.44
0.17
0.07
0.99
0.93
0.0
0.08
0.24
1.1500000000000001
0.1
0.14
0.92
0.64
0.08
0.0
1.1400000000000001
0.19
0.32
1.04
1.2
0.7000000000000001
0.08
0.12
0.32
0.54
0.01
0.06
0.1
0.21
0.49
0.9500000000000001
0.67
0.91
0.31
0.76
1.27
0.98
1.01
0.29
0.11
1.01
1.1500000000000001
0.86
0.37
0.23
0.52
0.5700000000000001
0.8
0.55
1.04
0.58
0.04
0.14
0.76
0.7000000000000001
0.61
0.55
0.03
0.12
0.52
0.32
0.38
0.42
0.78
0.43
0.22
0.28
0.09
0.24
1.08
0.43
0.04
0.72
0.92
1.08
0.15
0.66
0.8200000000000001
0.31
1.02
0.86
0.17
0.59
1.05
1.18
0.55
0.47000000000000003
0.81
0.25
0.51
0.51
0.26
1.17
0.32
0.66
0.44
1.07
0.44
0.71
0.48
1.18
0.73
0.6900000000000001
1.24
1.08
0.74
0.41000000000000003
0.45
0.48
0.4
0.67
0.52
0.05
1.23
0.6
1.08
0.35000000000000003
0.9
0.42
0.81
0.28
0.17
0.33
0.11
0.06
0.78
0.72
1.2
1.23
0.1
0.97
0.43
0.03
1.12
1.02
0.7000000000000001
1.23
1.0
0.9500000000000001
0.48
0.48
0.67
0.81
0.67
0.24
0.23
0.68
1.0
0.06
0.5700000000000001
1.05
0.59
0.8
0.8
0.85
1.21
0.79
0.72
0.56
0.08
0.51
0.19
0.28
1.1500000000000001
0.6900000000000001
0.65
0.27
0.23
0.01
0.52
0.54
0.43
0.9500000000000001
1.05
1.1300000000000001
0.73
0.05
1.08
0.73
0.2
0.84
1.23
0.8300000000000001
1.09
0.32
1.07
0.63
0.5700000000000001
1.03
1.0
0.17
0.97
0.21
0.23
0.74
0.8200000000000001
0.98
0.65
0.17
0.92
0.66
0.86
0.98
0.37
0.85
0.19
0.15
0.48
0.78
0.54
0.01
0.93
0.13
0.59
0.85
0.38
1.08
0.78
0.6
0.72
0.49
0.07
0.43
1.05
0.41000000000000003
0.87
0.99
0.0
0.84
0.84
0.93
0.89
1.1400000000000001
0.32
0.98
0.72
0.55
0.99
0.14
1.1
0.71
0.41000000000000003
0.09
1.05
0.34
1.03
0.96
0.39
1.24
0.92
0.43
1.23
0.96
1.02
0.37
1.25
0.01
0.64
1.04
0.28
0.58
0.52
0.85
0.9500000000000001
1.04
1.1
0.88
0.21
1.11
0.91
0.07
1.1300000000000001
1.09
0.19
1.03
0.25
1.1400000000000001
0.61
1.08
0.39
0.89
1.21
0.16
0.71
0.06
0.88
0.42
0.2
0.37
1.19
0.16
1.08
0.81
0.42
0.85
1.2
1.11
1.02
0.1
0.24
0.35000000000000003
0.91
0.87
0.19
0.53
0.87
1.08
0.75
0.0
0.84
0.36
1.23
1.1500000000000001
0.12
0.14
0.27
0.4
0.46
1.05
0.64
0.27
0.99
0.99
0.51
0.28
0.99
1.2
0.15
0.24
0.91
0.07
0.19
0.71
0.99
0.78
1.21
1.1500000000000001
0.26
0.16
0.72
0.96
0.6
0.09
0.34
0.24
0.53
0.15
0.05
0.71
1.05
0.62
0.93
0.67
0.8
1.16
0.78
0.73
0.45
1.07
0.8200000000000001
0.48
0.76
0.12
0.02
1.03
0.21
0.14
0.98
0.44
0.11
0.48
0.55
1.04
0.3
0.08
0.3
0.81
1.09
0.73
0.87
0.51
0.65
1.12
0.5700000000000001
0.4
0.38
0.42
0.76
0.87
0.31
0.49
0.91
1.06
0.19
0.06
0.21
0.0
0.28
0.62
1.2
0.3
0.43
0.02
0.88
0.09
0.53
1.11
0.07
0.8300000000000001
0.78
0.44
0.98
0.04
0.91
0.98
0.0
0.73
0.02
0.5700000000000001
0.47000000000000003
1.25
0.77
1.04
0.37
0.35000000000000003
0.8300000000000001
0.67
1.04
0.26
0.79
0.86
1.1
1.1300000000000001
0.59
0.03
0.48
0.3
0.86
0.27
0.43
0.49
0.86
0.44
0.43
0.77
0.6900000000000001
0.67
0.0
0.91
0.34
0.43
0.48
0.17
0.9400000000000001
0.62
1.1500000000000001
0.89
0.27
0.93
1.1300000000000001
0.27
0.9500000000000001
1.11
0.67
0.87
0.09
1.26
0.11
0.72
1.23
1.03
0.73
0.04
0.13
0.97
0.4
0.89
0.2
0.55
1.26
0.2
0.1
0.91
0.32
0.96
0.58
0.8200000000000001
0.62
0.16
0.5700000000000001
1.17
0.28
1.08
1.03
0.17
0.66
0.17
0.01
0.6900000000000001
0.06
0.49
0.41000000000000003
0.52
0.8200000000000001
0.33
0.02
0.76
0.55
1.06
0.87
0.17
0.36
0.07
0.62
1.24
0.4
0.36
0.04
0.72
0.92
0.97
1.27
0.76
0.09
0.48
0.66
0.66
0.11
0.66
0.65
0.13
0.99
0.93
1.0
0.09
0.53
1.24
0.48
0.14
0.71
0.51
1.07
0.13
0.76
0.22
0.15
1.1300000000000001
1.18
0.48
0.55
0.11
0.5
0.86
0.75
0.65
0.8300000000000001
0.19
0.67
0.04
1.1
0.21
1.1300000000000001
0.34
0.66
1.22
0.4
0.9400000000000001
0.37
0.3
0.88
1.23
0.9400000000000001
1.17
0.48
0.81
0.15
1.1500000000000001
0.74
1.11
0.5700000000000001
0.9
1.23
0.74
0.97
0.48
0.24
1.1400000000000001
1.1400000000000001
0.09
0.46
1.17
1.1
0.01
0.36
0.47000000000000003
1.1
0.22
0.24
1.12
0.86
0.56
0.55
0.85
0.99
0.91
1.24
1.21
0.4
1.11
1.1500000000000001
0.47000000000000003
0.97
0.42
0.35000000000000003
0.6
0.09
0.6900000000000001
1.11
0.87
0.46
0.18
0.22
0.38
0.16
0.54
0.42
0.08
0.5700000000000001
1.26
1.22
0.32
1.21
0.4
1.06
1.1
0.43
1.06
0.98
1.22
0.41000000000000003
1.18
1.08
0.31
1.23
0.4
1.11
0.25
0.97
0.97
0.74
0.1
1.21
0.63
1.22
0.81
0.92
0.28
0.28
0.25
0.26
0.18
0.55
0.8200000000000001
0.9
1.03
1.26
0.62
0.67
0.44
1.2
0.66
0.28
0.67
0.8300000000000001
0.46
0.44
0.16
0.26
0.78
1.24
0.07
0.39
0.5
0.43
0.56
0.26
0.91
0.1
0.48
0.11
1.26
0.35000000000000003
0.04
0.7000000000000001
0.91
0.4
0.9400000000000001
1.24
1.04
0.64
1.01
0.18
1.21
1.1300000000000001
0.33
0.91
0.96
1.19
1.09
1.19
0.97
0.96
0.92
1.01
0.5
1.2
1.1400000000000001
1.2
1.23
0.81
0.5
0.11
0.93
0.07
0.97
1.08
0.32
0.55
0.23
0.86
0.15
0.0
0.96
0.45
0.3
0.91
1.03
1.18
1.1400000000000001
0.96
0.31
1.17
0.44
0.17
0.25
0.43
1.09
0.81
0.99
0.56
0.49
0.07
0.53
0.33
0.81
0.84
0.23
0.74
1.19
0.98
1.1400000000000001
0.92
0.35000000000000003
0.8300000000000001
0.61
0.9400000000000001
0.47000000000000003
0.66
0.78
0.54
0.81
0.99
0.08
0.52
1.06
0.77
0.46
0.76
1.17
0.88
0.5700000000000001
1.03
0.53
0.31
0.76
0.25
0.19
0.6900000000000001
0.65
0.15
0.33
0.44
0.06
1.21
0.85
0.85
0.27
0.62
0.32
0.67
0.81
0.22
0.98
0.5700000000000001
0.58
0.72
0.9
0.75
0.54
0.07
1.23
0.52
0.12
0.45
0.47000000000000003
1.2
1.25
1.23
0.02
1.23
0.67
0.39
0.9400000000000001
0.97
0.07
0.01
0.74
0.29
0.51
0.8200000000000001
0.7000000000000001
1.16
0.9500000000000001
0.48
1.12
1.06
0.87
0.5700000000000001
0.8300000000000001
0.15
0.31
0.99
0.22
0.16
0.59
1.07
0.8300000000000001
0.8200000000000001
0.16
0.41000000000000003
0.22
0.44
1.21
0.63
0.98
0.87
0.27
0.71
0.97
0.63
0.1
0.59
0.35000000000000003
0.37
0.34
1.1300000000000001
0.12
0.21
0.53
0.93
0.45
0.66
1.25
0.0
0.0
0.19
0.38
0.45
1.03
0.64
0.36
0.64
0.14
0.08
0.13
0.77
0.72
1.24
0.06
0.12
0.0
1.1
0.37
1.27
0.64
0.3
1.01
0.8300000000000001
1.05
0.54
0.71
0.8200000000000001
0.0
0.17
1.1400000000000001
0.87
0.32
0.27
1.26
0.4
0.86
0.72
0.76
0.13
0.16
0.92
0.12
0.02
0.47000000000000003
0.7000000000000001
0.38
0.4
0.76
0.88
0.77
0.15
0.66
0.54
0.61
0.52
0.39
0.9
1.19
1.1500000000000001
0.22
1.27
1.17
0.16
0.25
1.2
1.21
0.91
0.53
0.31
0.8200000000000001
0.9500000000000001
1.11
1.07
0.51
0.84
1.22
0.5700000000000001
1.21
0.96
0.47000000000000003
1.18
0.9
0.12
0.34
0.44
1.0
0.88
0.3
1.2
1.1400000000000001
0.89
0.85
0.93
0.5700000000000001
0.6
0.74
0.25
0.13
0.96
0.1
1.06
1.1500000000000001
1.03
0.74
0.5700000000000001
1.1
0.34
0.21
0.73
0.8300000000000001
0.75
0.28
0.9
1.04
0.35000000000000003
0.43
1.17
0.9
1.2
0.3
0.72
0.89
0.71
0.87
1.23
0.05
1.25
0.34
0.22
0.43
0.61
1.03
0.59
1.01
0.05
0.8300000000000001
0.53
0.8
0.63
0.93
0.64
0.75
0.68
1.08
0.46
1.25
0.11
0.76
0.67
0.66
0.9500000000000001
1.1
0.74
0.36
0.88
0.41000000000000003
0.87
0.8
0.76
0.48
0.16
0.51
1.1300000000000001
0.89
0.09
1.23
0.5
0.87
0.87
0.44
0.89
0.49
0.78
0.98
0.4
0.89
1.0
0.65
0.28
0.55
0.9400000000000001
0.6
0.32
0.53
0.9400000000000001
1.18
1.23
0.74
0.67
1.1300000000000001
0.27
1.1
0.12
0.06
0.63
0.58
0.4
0.3
1.03
0.88
0.22
0.02
1.17
0.2
0.41000000000000003
0.66
0.9500000000000001
1.07
0.71
1.1300000000000001
1.04
0.48
0.46
0.38
0.35000000000000003
0.81
0.99
0.15
0.34
0.61
0.23
1.2
0.5700000000000001
0.12
0.43
0.48
0.39
0.8200000000000001
1.23
1.09
0.47000000000000003
0.62
0.17
0.66
0.14
0.52
0.88
0.11
0.78
1.19
0.03
0.32
0.56
0.63
0.72
1.18
0.22
0.75
0.19
0.96
0.68
0.51
1.09
0.66
1.2
1.1500000000000001
0.51
0.71
1.1400000000000001
0.5
0.5700000000000001
0.34
0.84
0.06
0.97
0.71
0.28
1.1300000000000001
0.01
0.79
0.86
0.26
0.13
0.12
0.92
1.1500000000000001
0.88
0.73
0.99
0.18
0.3
1.19
0.6900000000000001
0.3
0.6900000000000001
0.41000000000000003
1.17
0.51
0.16
0.77
0.13
0.67
0.9400000000000001
1.09
0.98
0.99
1.02
0.39
1.05
0.44
0.71
1.09
0.0
1.01
0.52
0.17
0.18
0.46
0.03
0.88
1.02
0.52
0.0
0.28
1.1300000000000001
0.04
1.2
0.59
0.1
0.9
0.08
0.05
0.86
0.5700000000000001
0.61
0.33
0.27
1.18
1.18
0.68
0.27
0.13
0.71
1.18
0.19
0.9500000000000001
1.01
0.6
0.24
0.33
0.9400000000000001
0.8300000000000001
0.9
0.3
0.89
0.1
1.1300000000000001
0.55
0.62
0.77
0.85
0.08
1.12
0.25
1.17
0.72
0.25
0.06
0.5700000000000001
1.07
0.08
0.6
0.78
0.32
0.98
0.97
0.75
0.49
0.88
1.06
0.62
0.96
0.42
1.2
0.49
0.25
0.19
0.44
1.25
0.16
0.76
0.37
0.9500000000000001
0.91
0.32
0.06
0.41000000000000003
0.09
0.79
0.02
1.07
1.09
0.27
0.97
1.01
1.2
0.03
0.54
1.26
1.27
0.47000000000000003
0.5700000000000001
0.38
1.09
0.8300000000000001
0.89
0.64
0.92
1.03
0.45
0.85
1.11
0.88
1.02
0.32
0.52
0.22
0.31
0.8200000000000001
0.06
1.11
1.01
0.13
0.38
0.42
0.44
0.44
1.02
1.1500000000000001
0.93
0.3
0.81
0.26
1.18
0.87
0.31
0.8300000000000001
1.1300000000000001
1.04
0.3
1.22
0.85
0.29
0.86
0.32
0.6
1.0
0.97
1.1400000000000001
0.79
0.42
0.73
0.26
0.23
0.2
0.03
1.22
0.37
0.53
0.97
1.05
1.23
1.05
1.09
0.98
0.08
0.64
1.02
0.72
0.77
1.1500000000000001
0.14
0.39
1.02
1.03
0.32
0.61
0.5700000000000001
0.66
1.19
0.61
0.06
0.99
1.12
0.2
1.05
0.99
0.76
0.67
1.1300000000000001
0.7000000000000001
0.36
0.32
1.17
1.1
0.38
0.55
0.18
0.77
0.72
0.36
1.23
0.81
0.52
0.01
0.19
0.33
1.21
0.4
0.23
0.16
1.03
1.21
0.81
0.37
0.16
0.9500000000000001
0.34
0.47000000000000003
0.5700000000000001
0.93
0.47000000000000003
0.48
0.37
0.49
0.58
1.2
0.59
0.63
0.62
1.01
0.07
0.59
1.02
0.61
1.27
0.79
1.06
0.02
0.33
1.24
0.24
0.41000000000000003
0.12
0.71
0.96
0.6
0.97
0.56
0.73
1.06
0.9400000000000001
0.28
0.27
0.59
0.19
0.74
0.79
1.1500000000000001
1.05
0.86
0.76
0.0
0.87
0.78
1.09
0.63
0.66
0.87
0.16
0.23
0.85
0.2
0.02
1.1
0.91
0.87
0.06
0.81
0.71
0.36
0.38
0.63
0.41000000000000003
0.6
0.3
0.29
0.27
1.02
1.19
0.55
1.12
0.21
0.31
0.43
0.89
1.01
0.59
1.1400000000000001
0.24
0.36
0.85
0.99
0.1
0.22
0.7000000000000001
1.1
0.56
0.54
1.01
0.16
0.63
0.26
0.1
0.97
0.37
1.1500000000000001
0.25
1.04
0.12
0.67
0.56
0.38
0.09
0.64
1.1400000000000001
1.1500000000000001
0.8300000000000001
0.71
1.04
0.31
1.04
0.04
0.49
0.49
1.24
0.11
0.88
0.19
0.11
0.05
0.65
0.45
0.0
0.48
0.41000000000000003
1.25
0.38
0.18
0.87
1.22
0.09
1.02
0.54
1.21
0.65
0.27
1.0
0.41000000000000003
0.78
1.17
0.43
0.78
0.6900000000000001
0.4
0.97
1.09
1.18
0.6
0.1
0.75
0.0
0.85
0.92
1.25
0.4
0.7000000000000001
1.2
0.01
0.71
0.23
0.86
0.03
0.13
0.28
1.1500000000000001
0.35000000000000003
0.09
1.2
0.31
0.54
1.26
0.32
1.26
0.48
0.44
0.59
0.33
1.26
0.34
0.27
0.5700000000000001
1.07
0.64
0.9400000000000001
0.77
0.79
1.22
0.9
0.24
0.85
0.93
0.51
0.48
0.12
0.38
1.26
1.07
0.66
0.48
0.7000000000000001
0.03
1.2
0.6900000000000001
1.27
0.22
1.21
1.27
0.0
0.61
0.78
0.23
0.76
0.42
0.8200000000000001
1.23
0.62
1.21
0.75
0.88
0.87
0.4
0.68
0.04
1.04
0.55
0.11
0.13
1.09
0.37
0.67
1.23
0.34
0.03
0.02
0.39
0.92
0.91
0.76
0.52
0.35000000000000003
0.2
0.37
0.59
0.6900000000000001
0.75
0.86
1.25
0.96
0.19
1.25
1.1
0.85
0.48
1.27
0.05
0.39
0.44
0.24
0.77
0.41000000000000003
0.89
0.12
0.17
0.27
0.92
0.39
0.13
0.33
0.8300000000000001
1.06
0.97
0.41000000000000003
0.77
0.1
1.18
0.51
0.43
0.67
0.15
0.0
1.0
0.62
0.32
1.09
1.24
1.01
0.99
0.61
1.07
0.8
0.42
0.32
0.16
0.93
0.58
0.35000000000000003
0.38
0.56
0.55
0.87
1.2
0.51
0.66
0.52
0.48
0.66
1.05
0.13
0.35000000000000003
0.71
1.17
0.25
1.21
0.61
0.09
0.46
1.2
0.09
0.68
0.04
0.04
0.52
1.09
0.15
0.37
0.88
1.21
0.27
0.11
0.6
0.22
0.9500000000000001
0.6
1.08
0.79
1.01
0.6
0.79
0.81
1.1300000000000001
0.03
0.44
0.77
1.21
0.8200000000000001
0.59
0.43
0.96
1.06
0.71
0.05
0.49
0.5700000000000001
0.75
0.96
0.02
0.09
0.43
0.18
0.38
0.68
0.5
0.98
0.31
1.2
0.85
0.15
0.48
0.66
0.37
0.31
0.46
0.92
0.51
0.53
1.02
0.15
1.05
1.19
0.47000000000000003
0.55
0.5700000000000001
0.72
0.75
0.56
0.03
0.9500000000000001
0.07
0.32
0.8300000000000001
0.73
1.1
0.49
0.41000000000000003
1.07
0.4
0.01
0.0
0.13
0.2
0.15
0.01
0.06
0.18
0.53
0.6
0.76
1.22
0.84
0.55
0.97
1.03
0.49
0.59
0.1
0.8200000000000001
0.6900000000000001
0.75
0.53
0.49
0.2
0.44
0.88
1.1500000000000001
1.04
0.8300000000000001
1.21
0.09
0.1
0.87
0.11
0.04
0.31
0.22
0.02
1.2
0.99
0.66
0.02
0.48
0.17
0.79
0.01
0.68
1.1
1.07
0.84
0.28
1.1400000000000001
0.09
0.99
0.5
0.77
0.67
0.61
0.75
1.05
1.23
0.31
0.87
0.72
1.0
0.51
0.24
0.01
1.1
0.6
1.08
0.41000000000000003
0.24
0.4
1.12
1.26
0.12
0.93
1.06
0.72
0.09
0.88
0.93
1.05
0.67
0.98
0.28
1.05
0.11
0.28
0.38
0.1
0.73
0.6900000000000001
0.89
1.02
0.42
0.31
0.19
0.74
0.85
0.92
0.1
0.31
0.96
0.61
0.52
1.1300000000000001
0.7000000000000001
0.67
1.0
0.75
0.45
0.38
0.29
0.17
0.8200000000000001
0.6
0.16
0.45
1.07
1.1500000000000001
0.75
0.32
0.32
0.31
0.75
0.03
0.54
0.92
0.6
1.06
0.18
0.8200000000000001
0.56
0.91
0.6900000000000001
0.21
0.35000000000000003
0.6
0.19
0.7000000000000001
0.9500000000000001
0.67
0.38
0.53
0.88
0.34
0.14
0.72
0.52
0.12
0.37
1.01
0.85
1.23
0.25
0.96
0.92
0.8300000000000001
0.15
0.09
0.38
1.19
0.05
0.5
0.51
0.68
0.12
0.32
1.16
0.4
1.22
1.03
0.34
0.09
0.72
0.53
0.68
0.04
0.43
0.43
1.0
1.1300000000000001
0.39
1.1500000000000001
1.1400000000000001
1.1500000000000001
0.12
1.18
1.04
0.3
0.05
1.01
0.21
1.08
1.11
0.37
0.11
0.08
0.3
0.37
1.1400000000000001
0.85
0.75
0.12
0.04
0.25
0.64
0.7000000000000001
0.81
0.09
1.12
0.75
0.55
0.28
0.53
0.74
0.88
0.78
0.25
0.51
0.18
0.28
0.02
0.39
1.0
0.6900000000000001
1.18
0.75
0.19
0.89
0.0
0.05
1.12
0.2
1.1
0.92
0.45
1.08
0.36
0.33
0.07
0.78
0.9500000000000001
0.84
0.17
0.84
1.24
0.35000000000000003
0.52
0.08
0.35000000000000003
0.16
0.86
1.03
0.47000000000000003
0.93
0.91
0.59
0.13
0.19
0.55
1.21
0.22
0.6
1.23
0.22
0.26
0.5700000000000001
0.07
0.54
1.19
1.19
0.67
0.8300000000000001
0.51
1.0
0.44
0.66
0.75
0.11
1.17
1.1500000000000001
0.27
0.0
0.4
1.1400000000000001
1.09
1.11
0.4
1.04
0.85
0.87
0.3
1.03
0.66
0.56
0.28
0.22
0.76
0.68
1.18
0.63
0.33
0.81
1.25
0.16
0.98
0.55
0.23
0.89
1.21
0.19
0.19
0.16
0.08
0.88
0.31
1.23
0.66
1.0
0.33
0.53
1.22
0.9
0.98
1.1400000000000001
0.6
0.07
1.21
0.61
0.72
1.03
0.24
0.27
0.03
0.7000000000000001
0.96
0.24
0.86
0.66
0.8200000000000001
0.51
0.13
0.14
0.2
1.23
0.93
0.42
0.33
1.04
1.02
0.84
0.79
1.17
0.67
0.92
0.74
0.8
0.29
0.1
0.55
0.28
0.5
1.16
1.06
0.41000000000000003
0.27
0.85
0.51
0.04
0.45
0.99
0.52
0.37
0.9
0.11
1.1400000000000001
0.66
0.23
1.21
0.63
0.6
1.25
0.56
1.1500000000000001
1.22
0.29
1.1400000000000001
0.72
0.14
0.37
1.19
1.19
0.53
0.55
0.42
0.61
0.4
0.09
0.71
0.24
0.71
0.27
0.42
0.65
0.46
0.23
0.14
0.5700000000000001
0.8200000000000001
0.7000000000000001
1.01
0.0
0.99
0.01
1.1400000000000001
0.34
0.7000000000000001
0.37
0.43
1.16
1.25
0.33
0.08
1.04
0.68
0.46
0.72
0.55
0.53
1.23
0.14
0.34
1.19
1.11
0.99
1.1400000000000001
0.5700000000000001
0.35000000000000003
0.21
0.02
0.22
0.04
1.04
0.72
0.78
0.92
0.62
0.81
0.73
0.44
0.87
0.27
0.76
0.25
1.0
0.1
1.1500000000000001
1.05
1.02
0.67
0.93
0.46
0.21
0.71
1.08
0.54
0.12
1.02
1.2
0.44
0.4
0.46
0.11
0.21
0.56
0.41000000000000003
0.33
1.19
1.01
1.21
0.89
0.19
0.55
1.1500000000000001
0.37
0.66
0.66
0.91
1.05
0.91
0.53
0.99
0.91
0.81
0.5700000000000001
0.02
0.68
0.17
0.18
0.76
0.09
0.65
0.64
0.76
0.56
0.36
0.76
0.78
1.1300000000000001
0.03
1.12
0.59
1.05
1.19
0.21
0.65
0.74
0.92
0.5700000000000001
0.63
0.9
0.67
0.6
0.49
0.77
0.54
0.51
1.18
0.88
0.47000000000000003
1.2
0.51
0.62
0.02
1.02
0.81
0.08
0.84
1.24
0.93
0.03
0.87
1.09
0.18
0.25
1.23
0.86
0.5
0.51
0.75
0.41000000000000003
1.1300000000000001
0.32
0.79
1.08
0.85
0.79
0.56
0.01
0.32
0.44
0.01
1.1500000000000001
0.02
1.24
1.24
0.08
1.12
0.8300000000000001
1.25
0.07
0.72
0.23
0.0
0.14
0.4
0.02
1.12
1.06
0.59
0.99
0.63
0.25
0.91
1.02
0.53
1.11
0.87
0.6
0.74
1.21
1.19
0.55
0.67
0.35000000000000003
0.73
0.4
0.33
0.19
0.68
0.6
0.71
0.13
1.1300000000000001
1.25
1.09
0.16
0.88
1.01
1.12
0.64
1.05
0.04
1.07
0.55
0.84
0.74
0.16
0.33
1.21
0.05
0.36
0.54
1.21
1.22
0.54
0.27
1.12
0.35000000000000003
0.84
0.79
0.03
1.05
1.01
0.99
0.3
1.05
0.67
1.19
1.12
0.45
0.04
0.77
0.9500000000000001
1.1400000000000001
0.28
0.6900000000000001
0.09
0.08
0.45
0.9
1.24
0.28
0.27
0.66
0.9400000000000001
0.04
0.76
0.51
0.51
1.26
0.07
0.06
0.62
1.1400000000000001
1.19
1.2
0.17
1.1400000000000001
0.5700000000000001
0.08
0.62
1.27
0.98
0.38
1.03
1.25
1.26
0.56
0.53
0.12
0.0
0.06
0.59
0.81
0.96
0.48
0.14
0.49
0.77
0.88
1.09
0.43
0.6900000000000001
0.71
0.65
0.48
0.73
0.78
0.35000000000000003
1.27
0.99
1.27
0.42
0.46
1.1400000000000001
0.31
0.26
0.63
0.4
0.43
0.74
0.65
0.0
0.62
0.27
0.33
0.03
0.16
0.5700000000000001
1.19
0.34
1.24
1.23
0.32
0.89
0.24
0.23
1.08
0.5700000000000001
0.07
0.35000000000000003
0.91
0.44
1.02
1.1500000000000001
0.18
0.48
0.5
0.21
0.89
0.02
0.3
0.0
1.21
0.12
1.0
1.04
0.26
1.17
0.67
0.5
0.86
0.98
0.67
0.31
0.11
1.07
0.99
1.01
0.49
0.65
1.04
0.91
0.01
0.73
0.75
1.17
0.91
0.61
0.66
1.23
0.4
0.67
0.8300000000000001
1.02
0.16
0.16
0.8200000000000001
0.73
0.21
0.78
1.26
0.97
1.18
0.27
0.33
0.8300000000000001
1.1
0.37
0.76
0.76
0.31
0.37
0.75
1.23
0.06
1.22
0.71
0.3
0.75
1.05
0.91
0.98
0.31
0.87
0.43
1.09
0.75
0.8300000000000001
1.11
0.73
1.19
1.1
0.16
1.2
1.1
0.28
0.41000000000000003
0.88
1.09
0.34
0.51
0.64
0.33
0.79
1.26
1.18
0.36
0.67
0.74
0.81
1.06
0.9400000000000001
0.6
0.08
0.53
1.0
0.65
1.08
1.01
0.48
1.11
0.87
0.35000000000000003
0.2
0.24
0.12
0.87
0.4
1.03
0.0
0.8300000000000001
0.87
1.19
0.38
0.9400000000000001
0.73
0.39
0.85
0.39
0.32
0.71
0.2
0.19
1.08
0.42
1.27
1.24
0.56
1.1300000000000001
0.6900000000000001
1.09
0.56
0.67
0.78
0.32
0.34
0.71
0.44
0.77
0.14
0.11
0.66
0.0
0.43
1.09
0.73
0.5700000000000001
0.04
0.53
0.51
0.85
0.99
0.6
0.51
1.23
0.59
0.74
0.24
0.78
1.03
0.81
0.42
1.24
0.33
0.63
0.74
0.15
0.74
0.8300000000000001
0.6900000000000001
0.73
0.49
0.9
0.52
0.6
1.1500000000000001
0.39
0.71
1.07
0.16
0.54
0.45
0.05
0.54
0.81
1.07
0.71
0.23
0.34
0.45
0.99
0.5
1.05
0.6
0.01
0.4
1.1500000000000001
1.12
0.12
0.36
1.06
1.23
0.55
0.02
0.9500000000000001
1.04
1.0
0.66
0.65
0.64
0.81
0.5700000000000001
0.34
0.75
0.92
0.8
0.61
0.73
0.28
0.8200000000000001
1.17
1.03
0.25
0.45
1.1500000000000001
0.6
0.49
0.29
0.36
0.5700000000000001
0.59
0.79
1.18
0.23
1.27
0.9
1.17
0.35000000000000003
0.41000000000000003
1.06
0.84
0.56
0.66
0.99
0.8300000000000001
0.65
0.35000000000000003
0.68
0.34
0.96
0.12
0.91
0.48
0.19
1.1500000000000001
0.66
1.25
0.32
0.84
0.2
0.66
0.01
0.49
0.6
0.56
0.88
0.81
0.28
1.1300000000000001
1.09
0.19
0.66
0.5700000000000001
1.07
0.8300000000000001
0.91
0.8300000000000001
0.2
1.02
0.71
0.9
1.1400000000000001
0.51
1.04
1.21
0.05
0.03
0.2
0.96
1.08
0.98
1.24
1.27
0.9400000000000001
0.1
0.17
0.13
0.54
0.13
0.89
0.65
0.91
1.11
0.05
0.14
1.1500000000000001
0.92
0.26
0.02
0.04
0.43
0.09
0.05
0.4
0.7000000000000001
0.91
1.17
1.06
0.7000000000000001
0.6900000000000001
0.35000000000000003
1.21
0.17
0.67
0.18
0.18
0.47000000000000003
0.93
1.1
0.8300000000000001
0.98
0.88
0.63
1.09
0.33
0.06
1.04
0.9500000000000001
1.1400000000000001
0.47000000000000003
0.02
0.37
0.55
1.09
0.07
0.31
0.41000000000000003
0.51
0.0
0.67
0.37
0.89
0.73
0.84
0.98
0.03
0.31
1.05
0.68
0.46
0.36
0.27
1.1500000000000001
1.2
0.64
0.9400000000000001
1.25
0.64
0.14
0.61
0.43
0.84
1.07
0.75
0.2
0.8300000000000001
0.5700000000000001
0.92
0.19
0.23
0.03
0.37
0.64
0.8
0.43
0.27
0.54
0.55
0.44
0.1
0.08
0.74
0.8
1.02
0.14
0.47000000000000003
1.05
0.59
1.18
1.05
0.89
0.23
1.06
0.93
0.73
0.44
0.7000000000000001
0.88
0.5
0.78
0.01
0.42
0.97
0.81
1.1500000000000001
0.43
0.52
1.23
0.38
0.9500000000000001
0.74
0.79
0.56
0.55
0.26
0.33
1.11
0.63
0.36
0.51
0.39
0.64
0.61
0.39
0.47000000000000003
1.1500000000000001
1.25
0.9500000000000001
0.26
0.47000000000000003
0.49
0.08
0.37
0.02
0.79
1.2
0.41000000000000003
0.45
0.23
0.74
0.75
0.2
1.1300000000000001
0.21
0.19
0.07
0.6900000000000001
1.21
0.5
0.56
0.53
0.13
1.06
0.55
0.81
0.91
0.38
0.23
0.92
0.06
0.91
1.16
1.05
1.02
1.23
0.43
0.8
0.89
1.12
0.8200000000000001
1.24
1.27
0.45
0.46
1.1500000000000001
0.07
0.74
0.02
0.99
0.24
0.16
0.88
1.12
0.18
0.37
1.26
1.12
0.8
0.27
0.62
0.92
0.03
1.03
1.26
1.26
0.59
1.18
0.18
0.76
0.19
1.04
0.55
0.72
0.52
1.0
0.19
1.11
0.09
0.45
0.98
0.9
0.62
0.66
0.56
0.93
1.12
0.06
0.13
0.9500000000000001
1.08
0.65
1.21
0.66
0.9
0.8300000000000001
0.98
0.46
0.59
0.38
0.43
0.61
1.07
0.84
0.85
0.97
0.92
0.92
0.0
0.63
0.71
0.24
0.1
0.51
1.1300000000000001
1.17
0.59
0.37
1.16
1.1500000000000001
0.68
0.11
0.61
1.24
0.9500000000000001
1.04
0.61
0.02
0.12
0.45
0.75
0.18
0.51
0.9400000000000001
0.31
0.9400000000000001
0.51
1.02
0.87
0.47000000000000003
0.04
0.64
0.0
1.26
1.17
0.2
0.81
0.81
0.06
0.25
0.77
0.09
0.63
0.25
0.79
0.71
0.88
0.87
0.91
0.46
0.45
0.92
0.49
0.38
0.73
0.44
0.54
0.67
0.29
0.11
0.13
0.64
0.13
0.81
0.97
1.27
0.01
0.68
0.23
0.96
0.26
0.99
1.1500000000000001
0.67
0.78
0.39
0.53
0.8200000000000001
0.14
0.0
0.15
0.75
0.03
0.6900000000000001
0.0
0.13
0.81
1.1
0.53
0.41000000000000003
0.08
0.47000000000000003
0.84
0.92
1.2
1.27
0.07
0.73
0.55
1.08
0.52
0.53
0.45
0.56
0.97
0.86
0.59
0.05
0.39
0.59
0.92
0.24
0.6
1.2
0.05
1.05
1.04
0.97
0.93
1.06
0.87
1.01
0.03
0.8
0.66
0.67
1.18
0.33
1.25
0.81
0.32
0.87
0.06
0.44
0.84
1.02
0.65
0.78
0.25
0.75
0.55
0.35000000000000003
0.96
0.26
0.06
0.9400000000000001
0.08
0.66
1.03
0.91
1.16
1.24
0.8300000000000001
1.06
0.37
0.06
0.43
0.5
1.26
0.38
0.6900000000000001
0.38
1.04
0.26
0.13
0.04
0.9400000000000001
1.17
0.64
1.07
0.05
1.1500000000000001
1.05
0.63
0.84
0.76
0.91
0.23
1.1400000000000001
0.1
1.07
0.26
1.27
0.84
0.21
1.1
0.12
0.31
1.1400000000000001
1.02
0.7000000000000001
0.01
1.22
0.24
0.15
1.11
1.23
0.27
0.31
0.8300000000000001
1.1500000000000001
0.93
0.54
1.0
0.34
0.08
0.03
0.55
1.1500000000000001
0.22
0.35000000000000003
0.03
0.17
0.77
0.54
0.28
0.31
0.04
0.56
0.5
0.36
0.8
0.61
0.03
0.87
0.9
0.4
0.2
0.02
0.67
0.63
0.37
0.88
1.21
0.33
0.31
0.41000000000000003
1.1
1.1400000000000001
0.4
0.48
0.97
1.2
0.12
0.0
1.01
0.47000000000000003
0.38
0.4
0.74
0.9500000000000001
0.28
0.18
0.21
0.44
0.15
1.1400000000000001
0.17
0.8
1.26
0.66
0.43
0.78
0.81
0.4
1.1500000000000001
0.8
0.8300000000000001
0.9500000000000001
1.1500000000000001
0.41000000000000003
0.64
0.21
0.32
0.63
0.43
0.28
0.56
0.26
0.27
0.48
0.01
0.17
1.02
0.85
0.51
1.12
1.21
0.32
0.4
0.99
0.28
0.2
0.8200000000000001
0.19
0.05
0.23
0.84
0.73
0.75
0.23
0.23
0.03
0.97
0.35000000000000003
1.23
0.34
0.56
1.03
0.14
1.04
0.48
0.56
0.25
0.37
0.41000000000000003
0.65
0.1
0.12
0.04
0.27
1.27
1.08
0.14
0.46
1.21
1.02
0.37
0.32
0.22
0.8300000000000001
1.25
0.1
0.8200000000000001
1.19
0.93
0.5700000000000001
0.47000000000000003
0.43
1.02
0.22
0.45
0.9500000000000001
0.72
0.34
0.18
0.86
0.21
0.25
0.89
0.41000000000000003
0.3
0.19
0.19
0.13
0.46
0.6
0.9500000000000001
0.67
0.78
1.1
0.5700000000000001
1.17
0.37
0.52
0.24
0.89
0.13
0.73
0.91
1.2
0.96
0.16
0.27
0.06
0.9500000000000001
0.8
0.7000000000000001
0.28
0.12
0.56
0.24
1.1300000000000001
0.65
0.07
0.67
0.16
1.19
0.59
0.22
0.38
0.3
0.1
0.48
1.09
1.1300000000000001
1.12
0.8
0.75
1.1500000000000001
0.88
0.37
0.05
0.6
0.71
0.91
0.16
1.16
0.41000000000000003
0.51
0.72
1.02
1.06
0.12
0.8200000000000001
0.53
1.16
0.42
0.08
1.27
0.35000000000000003
0.6900000000000001
0.58
0.23
0.75
1.03
0.06
0.9400000000000001
0.08
1.0
0.03
0.5700000000000001
1.19
0.97
0.5
0.14
0.41000000000000003
1.05
0.97
0.07
1.26
0.75
0.54
1.09
0.18
0.08
1.09
0.06
0.96
0.3
0.93
0.22
0.16
0.3
0.17
0.11
0.5
1.04
0.76
0.17
1.11
0.68
0.02
0.4
0.33
0.63
0.8300000000000001
0.03
1.11
0.28
0.5700000000000001
0.11
0.81
0.96
1.19
0.13
0.18
0.27
0.33
0.43
0.21
0.75
0.27
0.31
0.9
0.9500000000000001
0.15
1.18
0.76
1.22
0.12
0.89
